-1.000000000000000000e+00,-1.500000000000000000e+00,0.000000000000000000e+00
1.000000000000000000e+00,-1.500000000000000000e+00,0.000000000000000000e+00
-1.000000000000000000e+00,-1.300000000000000044e+00,0.000000000000000000e+00
1.000000000000000000e+00,-1.300000000000000044e+00,0.000000000000000000e+00
-1.000000000000000000e+00,-1.100000000000000089e+00,0.000000000000000000e+00
1.000000000000000000e+00,-1.100000000000000089e+00,0.000000000000000000e+00
-1.000000000000000000e+00,-8.999999999999999112e-01,0.000000000000000000e+00
1.000000000000000000e+00,-8.999999999999999112e-01,0.000000000000000000e+00
-1.000000000000000000e+00,-6.999999999999999556e-01,0.000000000000000000e+00
1.000000000000000000e+00,-6.999999999999999556e-01,0.000000000000000000e+00
-1.000000000000000000e+00,-5.000000000000000000e-01,0.000000000000000000e+00
1.000000000000000000e+00,-5.000000000000000000e-01,0.000000000000000000e+00
-1.000000000000000000e+00,-2.999999999999998224e-01,0.000000000000000000e+00
1.000000000000000000e+00,-2.999999999999998224e-01,0.000000000000000000e+00
-1.000000000000000000e+00,-9.999999999999986677e-02,0.000000000000000000e+00
1.000000000000000000e+00,-9.999999999999986677e-02,0.000000000000000000e+00
-1.000000000000000000e+00,1.000000000000000888e-01,0.000000000000000000e+00
1.000000000000000000e+00,1.000000000000000888e-01,0.000000000000000000e+00
-1.000000000000000000e+00,3.000000000000000444e-01,0.000000000000000000e+00
1.000000000000000000e+00,3.000000000000000444e-01,0.000000000000000000e+00
-1.000000000000000000e+00,5.000000000000000000e-01,0.000000000000000000e+00
1.000000000000000000e+00,5.000000000000000000e-01,0.000000000000000000e+00
-1.000000000000000000e+00,7.000000000000001776e-01,0.000000000000000000e+00
1.000000000000000000e+00,7.000000000000001776e-01,0.000000000000000000e+00
-1.000000000000000000e+00,9.000000000000003553e-01,0.000000000000000000e+00
1.000000000000000000e+00,9.000000000000003553e-01,0.000000000000000000e+00
-1.000000000000000000e+00,1.100000000000000089e+00,0.000000000000000000e+00
1.000000000000000000e+00,1.100000000000000089e+00,0.000000000000000000e+00
-1.000000000000000000e+00,1.300000000000000266e+00,0.000000000000000000e+00
1.000000000000000000e+00,1.300000000000000266e+00,0.000000000000000000e+00
-1.000000000000000000e+00,1.500000000000000000e+00,0.000000000000000000e+00
1.000000000000000000e+00,1.500000000000000000e+00,0.000000000000000000e+00
