$MeshFormat
2.2 0 8
$EndMeshFormat
$PhysicalNames
8
1 3 "face_water_inflow"
1 4 "face_water_outflow"
1 5 "face_pipe_inflow"
1 6 "face_pipe_outflow"
1 7 "pipe_inner"
1 8 "pipe_outer"
2 1 "pipe"
2 2 "water"
$EndPhysicalNames
$Nodes
899
1 0 -0.01425 0
2 0.3 -0.01425 0
3 0 -0.01315 0
4 0.3 -0.01315 0
5 0 -0.008850871074235021 0
6 0.3 -0.008850871074235021 0
7 0 0.008850871074235021 0
8 0.3 0.008850871074235021 0
9 0 0.01315 0
10 0.3 0.01315 0
11 0 0.01425 0
12 0.3 0.01425 0
13 0.009999999999980943 -0.01425 0
14 0.01999999999996026 -0.01425 0
15 0.02999999999994489 -0.01425 0
16 0.0399999999999259 -0.01425 0
17 0.04999999999989675 -0.01425 0
18 0.05999999999987031 -0.01425 0
19 0.06999999999984116 -0.01425 0
20 0.07999999999981203 -0.01425 0
21 0.08999999999978292 -0.01425 0
22 0.0999999999997538 -0.01425 0
23 0.1099999999997247 -0.01425 0
24 0.119999999999701 -0.01425 0
25 0.1299999999996719 -0.01425 0
26 0.1399999999996427 -0.01425 0
27 0.149999999999619 -0.01425 0
28 0.1599999999996375 -0.01425 0
29 0.1699999999996641 -0.01425 0
30 0.179999999999692 -0.01425 0
31 0.1899999999997199 -0.01425 0
32 0.1999999999997478 -0.01425 0
33 0.2099999999997736 -0.01425 0
34 0.2199999999997975 -0.01425 0
35 0.2299999999998269 -0.01425 0
36 0.2399999999998509 -0.01425 0
37 0.249999999999873 -0.01425 0
38 0.2599999999998984 -0.01425 0
39 0.2699999999999184 -0.01425 0
40 0.2799999999999441 -0.01425 0
41 0.2899999999999721 -0.01425 0
42 0.009999999999980943 -0.01315 0
43 0.01999999999996026 -0.01315 0
44 0.02999999999994489 -0.01315 0
45 0.0399999999999259 -0.01315 0
46 0.04999999999989675 -0.01315 0
47 0.05999999999987031 -0.01315 0
48 0.06999999999984116 -0.01315 0
49 0.07999999999981203 -0.01315 0
50 0.08999999999978292 -0.01315 0
51 0.0999999999997538 -0.01315 0
52 0.1099999999997247 -0.01315 0
53 0.119999999999701 -0.01315 0
54 0.1299999999996719 -0.01315 0
55 0.1399999999996427 -0.01315 0
56 0.149999999999619 -0.01315 0
57 0.1599999999996375 -0.01315 0
58 0.1699999999996641 -0.01315 0
59 0.179999999999692 -0.01315 0
60 0.1899999999997199 -0.01315 0
61 0.1999999999997478 -0.01315 0
62 0.2099999999997736 -0.01315 0
63 0.2199999999997975 -0.01315 0
64 0.2299999999998269 -0.01315 0
65 0.2399999999998509 -0.01315 0
66 0.249999999999873 -0.01315 0
67 0.2599999999998984 -0.01315 0
68 0.2699999999999184 -0.01315 0
69 0.2799999999999441 -0.01315 0
70 0.2899999999999721 -0.01315 0
71 0 -0.0137000000000017 0
72 0.3 -0.0137000000000017 0
73 0.009999999999980943 -0.008850871074235021 0
74 0.01999999999996026 -0.008850871074235021 0
75 0.02999999999994489 -0.008850871074235021 0
76 0.0399999999999259 -0.008850871074235021 0
77 0.04999999999989675 -0.008850871074235021 0
78 0.05999999999987031 -0.008850871074235021 0
79 0.06999999999984116 -0.008850871074235021 0
80 0.07999999999981203 -0.008850871074235021 0
81 0.08999999999978292 -0.008850871074235021 0
82 0.0999999999997538 -0.008850871074235021 0
83 0.1099999999997247 -0.008850871074235021 0
84 0.119999999999701 -0.008850871074235021 0
85 0.1299999999996719 -0.008850871074235021 0
86 0.1399999999996427 -0.008850871074235021 0
87 0.149999999999619 -0.008850871074235021 0
88 0.1599999999996375 -0.008850871074235021 0
89 0.1699999999996641 -0.008850871074235021 0
90 0.179999999999692 -0.008850871074235021 0
91 0.1899999999997199 -0.008850871074235021 0
92 0.1999999999997478 -0.008850871074235021 0
93 0.2099999999997736 -0.008850871074235021 0
94 0.2199999999997975 -0.008850871074235021 0
95 0.2299999999998269 -0.008850871074235021 0
96 0.2399999999998509 -0.008850871074235021 0
97 0.249999999999873 -0.008850871074235021 0
98 0.2599999999998984 -0.008850871074235021 0
99 0.2699999999999184 -0.008850871074235021 0
100 0.2799999999999441 -0.008850871074235021 0
101 0.2899999999999721 -0.008850871074235021 0
102 0 -0.01272008710742438 0
103 0 -0.01229017421484931 0
104 0 -0.01186026132227403 0
105 0 -0.01143034842969862 0
106 0 -0.01100043553712293 0
107 0 -0.01057052264454589 0
108 0 -0.01014060975196851 0
109 0 -0.009710696859391132 0
110 0 -0.00928078396681328 0
111 0.3 -0.01272008710742438 0
112 0.3 -0.01229017421484931 0
113 0.3 -0.01186026132227403 0
114 0.3 -0.01143034842969862 0
115 0.3 -0.01100043553712293 0
116 0.3 -0.01057052264454589 0
117 0.3 -0.01014060975196851 0
118 0.3 -0.009710696859391132 0
119 0.3 -0.00928078396681328 0
120 0.009999999999980943 0.008850871074235021 0
121 0.01999999999996026 0.008850871074235021 0
122 0.02999999999994489 0.008850871074235021 0
123 0.0399999999999259 0.008850871074235021 0
124 0.04999999999989675 0.008850871074235021 0
125 0.05999999999987031 0.008850871074235021 0
126 0.06999999999984116 0.008850871074235021 0
127 0.07999999999981203 0.008850871074235021 0
128 0.08999999999978292 0.008850871074235021 0
129 0.0999999999997538 0.008850871074235021 0
130 0.1099999999997247 0.008850871074235021 0
131 0.119999999999701 0.008850871074235021 0
132 0.1299999999996719 0.008850871074235021 0
133 0.1399999999996427 0.008850871074235021 0
134 0.149999999999619 0.008850871074235021 0
135 0.1599999999996375 0.008850871074235021 0
136 0.1699999999996641 0.008850871074235021 0
137 0.179999999999692 0.008850871074235021 0
138 0.1899999999997199 0.008850871074235021 0
139 0.1999999999997478 0.008850871074235021 0
140 0.2099999999997736 0.008850871074235021 0
141 0.2199999999997975 0.008850871074235021 0
142 0.2299999999998269 0.008850871074235021 0
143 0.2399999999998509 0.008850871074235021 0
144 0.249999999999873 0.008850871074235021 0
145 0.2599999999998984 0.008850871074235021 0
146 0.2699999999999184 0.008850871074235021 0
147 0.2799999999999441 0.008850871074235021 0
148 0.2899999999999721 0.008850871074235021 0
149 0 -0.00442543553712683 0
150 0 -2.168924762013802e-14 0
151 0 0.004425435537107171 0
152 0.3 -0.00442543553712683 0
153 0.3 -2.168924762013802e-14 0
154 0.3 0.004425435537107171 0
155 0.009999999999980943 0.01315 0
156 0.01999999999996026 0.01315 0
157 0.02999999999994489 0.01315 0
158 0.0399999999999259 0.01315 0
159 0.04999999999989675 0.01315 0
160 0.05999999999987031 0.01315 0
161 0.06999999999984116 0.01315 0
162 0.07999999999981203 0.01315 0
163 0.08999999999978292 0.01315 0
164 0.0999999999997538 0.01315 0
165 0.1099999999997247 0.01315 0
166 0.119999999999701 0.01315 0
167 0.1299999999996719 0.01315 0
168 0.1399999999996427 0.01315 0
169 0.149999999999619 0.01315 0
170 0.1599999999996375 0.01315 0
171 0.1699999999996641 0.01315 0
172 0.179999999999692 0.01315 0
173 0.1899999999997199 0.01315 0
174 0.1999999999997478 0.01315 0
175 0.2099999999997736 0.01315 0
176 0.2199999999997975 0.01315 0
177 0.2299999999998269 0.01315 0
178 0.2399999999998509 0.01315 0
179 0.249999999999873 0.01315 0
180 0.2599999999998984 0.01315 0
181 0.2699999999999184 0.01315 0
182 0.2799999999999441 0.01315 0
183 0.2899999999999721 0.01315 0
184 0 0.009280783966810976 0
185 0 0.009710696859385713 0
186 0 0.01014060975196038 0
187 0 0.01057052264453505 0
188 0 0.0110004355371104 0
189 0 0.01143034842968865 0
190 0 0.01186026132226603 0
191 0 0.01229017421484436 0
192 0 0.01272008710742174 0
193 0.3 0.009280783966810976 0
194 0.3 0.009710696859385713 0
195 0.3 0.01014060975196038 0
196 0.3 0.01057052264453505 0
197 0.3 0.0110004355371104 0
198 0.3 0.01143034842968865 0
199 0.3 0.01186026132226603 0
200 0.3 0.01229017421484436 0
201 0.3 0.01272008710742174 0
202 0.009999999999980943 0.01425 0
203 0.01999999999996026 0.01425 0
204 0.02999999999994489 0.01425 0
205 0.0399999999999259 0.01425 0
206 0.04999999999989675 0.01425 0
207 0.05999999999987031 0.01425 0
208 0.06999999999984116 0.01425 0
209 0.07999999999981203 0.01425 0
210 0.08999999999978292 0.01425 0
211 0.0999999999997538 0.01425 0
212 0.1099999999997247 0.01425 0
213 0.119999999999701 0.01425 0
214 0.1299999999996719 0.01425 0
215 0.1399999999996427 0.01425 0
216 0.149999999999619 0.01425 0
217 0.1599999999996375 0.01425 0
218 0.1699999999996641 0.01425 0
219 0.179999999999692 0.01425 0
220 0.1899999999997199 0.01425 0
221 0.1999999999997478 0.01425 0
222 0.2099999999997736 0.01425 0
223 0.2199999999997975 0.01425 0
224 0.2299999999998269 0.01425 0
225 0.2399999999998509 0.01425 0
226 0.249999999999873 0.01425 0
227 0.2599999999998984 0.01425 0
228 0.2699999999999184 0.01425 0
229 0.2799999999999441 0.01425 0
230 0.2899999999999721 0.01425 0
231 0 0.01369999999999797 0
232 0.3 0.01369999999999797 0
233 0.00999999999997829 -0.01370000000000166 0
234 0.01999999999995605 -0.01370000000000163 0
235 0.02999999999993312 -0.0137000000000016 0
236 0.03999999999990939 -0.01370000000000159 0
237 0.04999999999988485 -0.01370000000000158 0
238 0.05999999999985962 -0.01370000000000157 0
239 0.06999999999983401 -0.01370000000000157 0
240 0.07999999999980854 -0.01370000000000156 0
241 0.08999999999978403 -0.01370000000000156 0
242 0.09999999999976145 -0.01370000000000156 0
243 0.1099999999997418 -0.01370000000000155 0
244 0.119999999999726 -0.01370000000000155 0
245 0.1299999999997146 -0.01370000000000155 0
246 0.1399999999997082 -0.01370000000000155 0
247 0.1499999999997071 -0.01370000000000155 0
248 0.159999999999711 -0.01370000000000155 0
249 0.1699999999997195 -0.01370000000000155 0
250 0.1799999999997319 -0.01370000000000155 0
251 0.1899999999997474 -0.01370000000000155 0
252 0.1999999999997653 -0.01370000000000155 0
253 0.2099999999997851 -0.01370000000000155 0
254 0.2199999999998063 -0.01370000000000155 0
255 0.2299999999998287 -0.01370000000000155 0
256 0.2399999999998519 -0.01370000000000156 0
257 0.2499999999998757 -0.01370000000000156 0
258 0.2599999999999 -0.01370000000000157 0
259 0.2699999999999247 -0.01370000000000158 0
260 0.2799999999999497 -0.01370000000000161 0
261 0.2899999999999748 -0.01370000000000164 0
262 0.00999999999997921 -0.01272008710742447 0
263 0.009999999999978616 -0.01229017421484929 0
264 0.009999999999978467 -0.01186026132227398 0
265 0.009999999999978439 -0.01143034842969851 0
266 0.009999999999978434 -0.01100043553712265 0
267 0.009999999999978431 -0.01057052264454576 0
268 0.009999999999978439 -0.01014060975196847 0
269 0.00999999999997854 -0.009710696859391025 0
270 0.009999999999979083 -0.009280783966813188 0
271 0.01999999999995796 -0.01272008710742452 0
272 0.01999999999995669 -0.01229017421484927 0
273 0.01999999999995636 -0.01186026132227395 0
274 0.01999999999995631 -0.01143034842969842 0
275 0.01999999999995629 -0.01100043553712247 0
276 0.01999999999995629 -0.01057052264454567 0
277 0.01999999999995632 -0.01014060975196842 0
278 0.01999999999995654 -0.009710696859390949 0
279 0.01999999999995773 -0.009280783966813125 0
280 0.02999999999993616 -0.01272008710742456 0
281 0.02999999999993402 -0.01229017421484927 0
282 0.02999999999993351 -0.01186026132227392 0
283 0.02999999999993342 -0.01143034842969835 0
284 0.02999999999993339 -0.01100043553712234 0
285 0.0299999999999334 -0.01057052264454559 0
286 0.02999999999993344 -0.01014060975196838 0
287 0.02999999999993381 -0.009710696859390895 0
288 0.02999999999993585 -0.009280783966813082 0
289 0.03999999999991315 -0.01272008710742457 0
290 0.03999999999991045 -0.01229017421484926 0
291 0.03999999999990982 -0.0118602613222739 0
292 0.03999999999990971 -0.01143034842969831 0
293 0.03999999999990967 -0.01100043553712226 0
294 0.03999999999990968 -0.01057052264454554 0
295 0.03999999999990975 -0.01014060975196835 0
296 0.03999999999991021 -0.009710696859390858 0
297 0.03999999999991281 -0.009280783966813052 0
298 0.04999999999988857 -0.01272008710742458 0
299 0.04999999999988597 -0.01229017421484926 0
300 0.04999999999988532 -0.01186026132227388 0
301 0.0499999999998852 -0.01143034842969827 0
302 0.04999999999988514 -0.01100043553712221 0
303 0.04999999999988516 -0.0105705226445455 0
304 0.04999999999988523 -0.01014060975196833 0
305 0.04999999999988573 -0.009710696859390834 0
306 0.04999999999988822 -0.009280783966813033 0
307 0.05999999999986298 -0.01272008710742459 0
308 0.05999999999986069 -0.01229017421484926 0
309 0.05999999999986007 -0.01186026132227387 0
310 0.05999999999985994 -0.01143034842969825 0
311 0.05999999999985989 -0.01100043553712217 0
312 0.05999999999985992 -0.01057052264454547 0
313 0.05999999999985998 -0.01014060975196831 0
314 0.05999999999986047 -0.009710696859390817 0
315 0.05999999999986268 -0.009280783966813019 0
316 0.06999999999983661 -0.0127200871074246 0
317 0.06999999999983489 -0.01229017421484926 0
318 0.06999999999983435 -0.01186026132227386 0
319 0.06999999999983425 -0.01143034842969824 0
320 0.06999999999983419 -0.01100043553712215 0
321 0.06999999999983421 -0.01057052264454546 0
322 0.06999999999983429 -0.0101406097519683 0
323 0.06999999999983469 -0.009710696859390805 0
324 0.06999999999983639 -0.009280783966813009 0
325 0.07999999999980999 -0.0127200871074246 0
326 0.079999999999809 -0.01229017421484926 0
327 0.07999999999980863 -0.01186026132227386 0
328 0.07999999999980857 -0.01143034842969822 0
329 0.07999999999980854 -0.01100043553712213 0
330 0.07999999999980853 -0.01057052264454545 0
331 0.0799999999998086 -0.01014060975196829 0
332 0.07999999999980892 -0.009710696859390798 0
333 0.07999999999980993 -0.009280783966813005 0
334 0.08999999999978375 -0.0127200871074246 0
335 0.08999999999978378 -0.01229017421484926 0
336 0.0899999999997837 -0.01186026132227386 0
337 0.08999999999978367 -0.01143034842969822 0
338 0.08999999999978367 -0.01100043553712212 0
339 0.08999999999978367 -0.01057052264454544 0
340 0.08999999999978368 -0.01014060975196829 0
341 0.08999999999978386 -0.009710696859390791 0
342 0.08999999999978399 -0.009280783966813 0
343 0.0999999999997587 -0.0127200871074246 0
344 0.09999999999976017 -0.01229017421484926 0
345 0.09999999999976052 -0.01186026132227386 0
346 0.09999999999976054 -0.01143034842969821 0
347 0.09999999999976057 -0.01100043553712211 0
348 0.09999999999976057 -0.01057052264454543 0
349 0.09999999999976059 -0.01014060975196828 0
350 0.0999999999997605 -0.009710696859390789 0
351 0.09999999999975936 -0.009280783966812998 0
352 0.1099999999997358 -0.0127200871074246 0
353 0.1099999999997393 -0.01229017421484926 0
354 0.1099999999997402 -0.01186026132227385 0
355 0.1099999999997403 -0.01143034842969821 0
356 0.1099999999997404 -0.01100043553712211 0
357 0.1099999999997404 -0.01057052264454543 0
358 0.1099999999997404 -0.01014060975196828 0
359 0.1099999999997399 -0.009710696859390786 0
360 0.1099999999997369 -0.009280783966812995 0
361 0.1199999999997161 -0.0127200871074246 0
362 0.1199999999997221 -0.01229017421484926 0
363 0.1199999999997237 -0.01186026132227385 0
364 0.119999999999724 -0.01143034842969821 0
365 0.1199999999997241 -0.01100043553712211 0
366 0.1199999999997241 -0.01057052264454543 0
367 0.119999999999724 -0.01014060975196828 0
368 0.1199999999997231 -0.009710696859390786 0
369 0.1199999999997176 -0.009280783966812995 0
370 0.1299999999997001 -0.0127200871074246 0
371 0.1299999999997096 -0.01229017421484926 0
372 0.129999999999712 -0.01186026132227385 0
373 0.1299999999997125 -0.01143034842969821 0
374 0.1299999999997126 -0.01100043553712211 0
375 0.1299999999997125 -0.01057052264454542 0
376 0.1299999999997124 -0.01014060975196828 0
377 0.1299999999997108 -0.009710696859390786 0
378 0.1299999999997021 -0.009280783966812995 0
379 0.1399999999996893 -0.0127200871074246 0
380 0.1399999999997023 -0.01229017421484926 0
381 0.1399999999997054 -0.01186026132227385 0
382 0.1399999999997061 -0.01143034842969821 0
383 0.1399999999997062 -0.0110004355371221 0
384 0.1399999999997062 -0.01057052264454542 0
385 0.1399999999997059 -0.01014060975196828 0
386 0.1399999999997037 -0.009710696859390784 0
387 0.1399999999996914 -0.009280783966812995 0
388 0.1499999999996851 -0.0127200871074246 0
389 0.1499999999997005 -0.01229017421484926 0
390 0.1499999999997042 -0.01186026132227385 0
391 0.149999999999705 -0.01143034842969821 0
392 0.1499999999997051 -0.0110004355371221 0
393 0.1499999999997051 -0.01057052264454542 0
394 0.1499999999997048 -0.01014060975196827 0
395 0.1499999999997021 -0.009710696859390782 0
396 0.1499999999996874 -0.009280783966812995 0
397 0.1599999999996895 -0.0127200871074246 0
398 0.1599999999997042 -0.01229017421484926 0
399 0.1599999999997081 -0.01186026132227385 0
400 0.1599999999997089 -0.01143034842969821 0
401 0.1599999999997091 -0.0110004355371221 0
402 0.1599999999997091 -0.01057052264454542 0
403 0.1599999999997087 -0.01014060975196827 0
404 0.1599999999997058 -0.009710696859390782 0
405 0.1599999999996917 -0.009280783966812993 0
406 0.1699999999997004 -0.0127200871074246 0
407 0.169999999999713 -0.01229017421484926 0
408 0.1699999999997166 -0.01186026132227385 0
409 0.1699999999997174 -0.01143034842969821 0
410 0.1699999999997176 -0.0110004355371221 0
411 0.1699999999997175 -0.01057052264454542 0
412 0.1699999999997172 -0.01014060975196827 0
413 0.1699999999997145 -0.009710696859390782 0
414 0.1699999999997024 -0.009280783966812995 0
415 0.1799999999997161 -0.0127200871074246 0
416 0.179999999999726 -0.01229017421484926 0
417 0.1799999999997291 -0.01186026132227385 0
418 0.1799999999997299 -0.01143034842969821 0
419 0.17999999999973 -0.0110004355371221 0
420 0.17999999999973 -0.01057052264454542 0
421 0.1799999999997296 -0.01014060975196827 0
422 0.1799999999997274 -0.009710696859390782 0
423 0.1799999999997179 -0.009280783966812993 0
424 0.1899999999997351 -0.0127200871074246 0
425 0.1899999999997423 -0.01229017421484926 0
426 0.1899999999997448 -0.01186026132227385 0
427 0.1899999999997456 -0.01143034842969821 0
428 0.1899999999997457 -0.0110004355371221 0
429 0.1899999999997456 -0.01057052264454542 0
430 0.1899999999997453 -0.01014060975196827 0
431 0.1899999999997435 -0.009710696859390782 0
432 0.1899999999997365 -0.009280783966812993 0
433 0.1999999999997562 -0.0127200871074246 0
434 0.1999999999997612 -0.01229017421484926 0
435 0.1999999999997631 -0.01186026132227385 0
436 0.1999999999997637 -0.01143034842969821 0
437 0.1999999999997638 -0.0110004355371221 0
438 0.1999999999997637 -0.01057052264454542 0
439 0.1999999999997635 -0.01014060975196827 0
440 0.1999999999997621 -0.009710696859390782 0
441 0.1999999999997573 -0.009280783966812993 0
442 0.2099999999997785 -0.0127200871074246 0
443 0.2099999999997819 -0.01229017421484926 0
444 0.2099999999997832 -0.01186026132227385 0
445 0.2099999999997837 -0.01143034842969821 0
446 0.2099999999997838 -0.0110004355371221 0
447 0.2099999999997838 -0.01057052264454542 0
448 0.2099999999997836 -0.01014060975196827 0
449 0.2099999999997826 -0.009710696859390782 0
450 0.2099999999997794 -0.009280783966812995 0
451 0.2199999999998017 -0.0127200871074246 0
452 0.2199999999998038 -0.01229017421484926 0
453 0.2199999999998048 -0.01186026132227385 0
454 0.2199999999998052 -0.01143034842969821 0
455 0.2199999999998052 -0.0110004355371221 0
456 0.2199999999998052 -0.01057052264454542 0
457 0.219999999999805 -0.01014060975196827 0
458 0.2199999999998044 -0.009710696859390784 0
459 0.2199999999998023 -0.009280783966812995 0
460 0.2299999999998257 -0.0127200871074246 0
461 0.2299999999998268 -0.01229017421484926 0
462 0.2299999999998274 -0.01186026132227385 0
463 0.2299999999998277 -0.01143034842969821 0
464 0.2299999999998277 -0.01100043553712211 0
465 0.2299999999998277 -0.01057052264454542 0
466 0.2299999999998277 -0.01014060975196827 0
467 0.2299999999998273 -0.009710696859390786 0
468 0.2299999999998261 -0.009280783966812995 0
469 0.2399999999998498 -0.0127200871074246 0
470 0.2399999999998505 -0.01229017421484926 0
471 0.2399999999998508 -0.01186026132227385 0
472 0.239999999999851 -0.01143034842969821 0
473 0.2399999999998511 -0.01100043553712212 0
474 0.2399999999998511 -0.01057052264454543 0
475 0.2399999999998511 -0.01014060975196828 0
476 0.2399999999998507 -0.009710696859390789 0
477 0.2399999999998502 -0.009280783966812998 0
478 0.249999999999874 -0.01272008710742459 0
479 0.2499999999998747 -0.01229017421484926 0
480 0.2499999999998748 -0.01186026132227386 0
481 0.249999999999875 -0.01143034842969822 0
482 0.249999999999875 -0.01100043553712214 0
483 0.2499999999998751 -0.01057052264454544 0
484 0.249999999999875 -0.01014060975196828 0
485 0.2499999999998748 -0.009710696859390798 0
486 0.2499999999998743 -0.009280783966813007 0
487 0.2599999999998985 -0.01272008710742458 0
488 0.2599999999998992 -0.01229017421484926 0
489 0.2599999999998994 -0.01186026132227387 0
490 0.2599999999998995 -0.01143034842969825 0
491 0.2599999999998995 -0.01100043553712218 0
492 0.2599999999998996 -0.01057052264454547 0
493 0.2599999999998995 -0.0101406097519683 0
494 0.2599999999998994 -0.009710696859390817 0
495 0.2599999999998989 -0.009280783966813023 0
496 0.2699999999999232 -0.01272008710742456 0
497 0.2699999999999241 -0.01229017421484926 0
498 0.2699999999999242 -0.01186026132227389 0
499 0.2699999999999244 -0.01143034842969829 0
500 0.2699999999999244 -0.01100043553712226 0
501 0.2699999999999244 -0.01057052264454552 0
502 0.2699999999999244 -0.01014060975196833 0
503 0.2699999999999242 -0.009710696859390851 0
504 0.2699999999999235 -0.009280783966813051 0
505 0.2799999999999485 -0.01272008710742453 0
506 0.2799999999999493 -0.01229017421484927 0
507 0.2799999999999494 -0.01186026132227392 0
508 0.2799999999999495 -0.01143034842969836 0
509 0.2799999999999495 -0.01100043553712239 0
510 0.2799999999999495 -0.01057052264454561 0
511 0.2799999999999495 -0.01014060975196837 0
512 0.2799999999999493 -0.00971069685939091 0
513 0.2799999999999486 -0.009280783966813099 0
514 0.2899999999999742 -0.01272008710742448 0
515 0.2899999999999747 -0.01229017421484928 0
516 0.2899999999999747 -0.01186026132227396 0
517 0.2899999999999747 -0.01143034842969847 0
518 0.2899999999999748 -0.01100043553712261 0
519 0.2899999999999747 -0.01057052264454573 0
520 0.2899999999999748 -0.01014060975196844 0
521 0.2899999999999747 -0.009710696859391001 0
522 0.2899999999999742 -0.009280783966813172 0
523 0.009999999999978425 -0.004425435537126915 0
524 0.009999999999978233 -2.067443438669159e-14 0
525 0.009999999999978389 0.00442543553710718 0
526 0.01999999999995633 -0.004425435537126965 0
527 0.01999999999995592 -1.993891163287742e-14 0
528 0.01999999999995626 0.004425435537107203 0
529 0.02999999999993355 -0.004425435537126994 0
530 0.0299999999999329 -1.940982097270449e-14 0
531 0.02999999999993347 0.004425435537107229 0
532 0.03999999999990992 -0.004425435537127011 0
533 0.03999999999990912 -1.90351207018935e-14 0
534 0.03999999999990982 0.004425435537107248 0
535 0.04999999999988538 -0.004425435537127018 0
536 0.04999999999988457 -1.877317745702101e-14 0
537 0.04999999999988529 0.004425435537107269 0
538 0.05999999999986011 -0.004425435537127023 0
539 0.05999999999985935 -1.859103149204344e-14 0
540 0.05999999999986003 0.004425435537107284 0
541 0.0699999999998344 -0.004425435537127024 0
542 0.06999999999983379 -1.846613140177311e-14 0
543 0.06999999999983435 0.004425435537107298 0
544 0.07999999999980877 -0.004425435537127024 0
545 0.07999999999980836 -1.838286467492622e-14 0
546 0.07999999999980878 0.004425435537107308 0
547 0.08999999999978402 -0.004425435537127023 0
548 0.08999999999978396 -1.832388407674301e-14 0
549 0.08999999999978411 0.004425435537107312 0
550 0.09999999999976109 -0.004425435537127021 0
551 0.09999999999976152 -1.828398543679555e-14 0
552 0.09999999999976128 0.004425435537107317 0
553 0.1099999999997409 -0.00442543553712702 0
554 0.109999999999742 -1.825969930813187e-14 0
555 0.1099999999997413 0.004425435537107322 0
556 0.1199999999997245 -0.00442543553712702 0
557 0.1199999999997265 -1.824408679684808e-14 0
558 0.119999999999725 0.004425435537107322 0
559 0.1299999999997126 -0.00442543553712702 0
560 0.1299999999997156 -1.823367845599222e-14 0
561 0.1299999999997131 0.004425435537107326 0
562 0.1399999999997056 -0.00442543553712702 0
563 0.1399999999997096 -1.822673956208831e-14 0
564 0.1399999999997062 0.004425435537107327 0
565 0.149999999999704 -0.004425435537127019 0
566 0.1499999999997087 -1.82198006681844e-14 0
567 0.1499999999997046 0.004425435537107326 0
568 0.1599999999997079 -0.004425435537127019 0
569 0.1599999999997126 -1.821806594470843e-14 0
570 0.1599999999997086 0.004425435537107326 0
571 0.1699999999997167 -0.004425435537127018 0
572 0.169999999999721 -1.821459649775647e-14 0
573 0.1699999999997173 0.004425435537107327 0
574 0.1799999999997294 -0.004425435537127019 0
575 0.1799999999997331 -1.82128617742805e-14 0
576 0.17999999999973 0.004425435537107327 0
577 0.1899999999997454 -0.004425435537127019 0
578 0.1899999999997483 -1.821459649775647e-14 0
579 0.1899999999997458 0.004425435537107331 0
580 0.1999999999997637 -0.004425435537127019 0
581 0.1999999999997659 -1.82128617742805e-14 0
582 0.1999999999997642 0.004425435537107331 0
583 0.2099999999997839 -0.004425435537127019 0
584 0.2099999999997856 -1.82128617742805e-14 0
585 0.2099999999997843 0.004425435537107331 0
586 0.2199999999998054 -0.004425435537127019 0
587 0.2199999999998066 -1.821806594470843e-14 0
588 0.2199999999998058 0.004425435537107331 0
589 0.229999999999828 -0.004425435537127017 0
590 0.2299999999998288 -1.82354131794682e-14 0
591 0.2299999999998283 0.004425435537107327 0
592 0.2399999999998514 -0.004425435537127015 0
593 0.2399999999998519 -1.828398543679555e-14 0
594 0.2399999999998516 0.004425435537107326 0
595 0.2499999999998753 -0.004425435537127008 0
596 0.2499999999998757 -1.839153829230611e-14 0
597 0.2499999999998754 0.004425435537107322 0
598 0.2599999999998996 -0.004425435537126998 0
599 0.2599999999999001 -1.860317455637528e-14 0
600 0.2599999999998998 0.00442543553710731 0
601 0.2699999999999244 -0.004425435537126979 0
602 0.2699999999999248 -1.896746648633041e-14 0
603 0.2699999999999245 0.004425435537107288 0
604 0.2799999999999494 -0.004425435537126952 0
605 0.2799999999999498 -1.955206829773459e-14 0
606 0.2799999999999495 0.004425435537107255 0
607 0.2899999999999747 -0.004425435537126906 0
608 0.2899999999999749 -2.043330782353081e-14 0
609 0.2899999999999748 0.004425435537107216 0
610 0.00999999999997921 0.009280783966810757 0
611 0.009999999999978616 0.009710696859385658 0
612 0.009999999999978469 0.01014060975196041 0
613 0.009999999999978436 0.01057052264453528 0
614 0.009999999999978429 0.01100043553711093 0
615 0.009999999999978429 0.01143034842968865 0
616 0.009999999999978439 0.01186026132226617 0
617 0.00999999999997854 0.01229017421484425 0
618 0.009999999999979081 0.01272008710742187 0
619 0.01999999999995795 0.00928078396681062 0
620 0.01999999999995669 0.009710696859385613 0
621 0.01999999999995637 0.01014060975196044 0
622 0.0199999999999563 0.01057052264453545 0
623 0.01999999999995629 0.01100043553711129 0
624 0.01999999999995629 0.01143034842968869 0
625 0.01999999999995631 0.01186026132226625 0
626 0.01999999999995654 0.0122901742148442 0
627 0.01999999999995772 0.01272008710742194 0
628 0.02999999999993615 0.009280783966810533 0
629 0.02999999999993402 0.009710696859385578 0
630 0.02999999999993352 0.01014060975196046 0
631 0.02999999999993341 0.01057052264453557 0
632 0.02999999999993339 0.01100043553711151 0
633 0.0299999999999334 0.01143034842968874 0
634 0.02999999999993343 0.0118602613222663 0
635 0.0299999999999338 0.01229017421484418 0
636 0.02999999999993584 0.01272008710742198 0
637 0.03999999999991314 0.00928078396681048 0
638 0.03999999999991045 0.009710696859385554 0
639 0.03999999999990983 0.01014060975196048 0
640 0.03999999999990971 0.01057052264453566 0
641 0.03999999999990967 0.01100043553711166 0
642 0.03999999999990968 0.01143034842968878 0
643 0.03999999999990973 0.01186026132226634 0
644 0.0399999999999102 0.01229017421484417 0
645 0.03999999999991279 0.012720087107422 0
646 0.04999999999988857 0.009280783966810445 0
647 0.04999999999988597 0.009710696859385536 0
648 0.04999999999988531 0.01014060975196049 0
649 0.04999999999988518 0.01057052264453572 0
650 0.04999999999988514 0.01100043553711175 0
651 0.04999999999988516 0.01143034842968882 0
652 0.04999999999988521 0.01186026132226636 0
653 0.04999999999988571 0.01229017421484417 0
654 0.04999999999988821 0.01272008710742202 0
655 0.05999999999986298 0.009280783966810424 0
656 0.05999999999986071 0.009710696859385526 0
657 0.05999999999986008 0.0101406097519605 0
658 0.05999999999985993 0.01057052264453576 0
659 0.05999999999985989 0.01100043553711182 0
660 0.05999999999985992 0.01143034842968884 0
661 0.05999999999985997 0.01186026132226638 0
662 0.05999999999986046 0.01229017421484417 0
663 0.05999999999986266 0.01272008710742203 0
664 0.06999999999983661 0.009280783966810412 0
665 0.06999999999983489 0.009710696859385519 0
666 0.06999999999983438 0.01014060975196051 0
667 0.06999999999983424 0.01057052264453579 0
668 0.06999999999983421 0.01100043553711186 0
669 0.06999999999983421 0.01143034842968886 0
670 0.06999999999983426 0.01186026132226639 0
671 0.06999999999983468 0.01229017421484417 0
672 0.06999999999983637 0.01272008710742203 0
673 0.07999999999980999 0.009280783966810403 0
674 0.079999999999809 0.009710696859385514 0
675 0.07999999999980867 0.01014060975196051 0
676 0.07999999999980857 0.01057052264453581 0
677 0.07999999999980853 0.01100043553711188 0
678 0.07999999999980853 0.01143034842968888 0
679 0.07999999999980859 0.0118602613222664 0
680 0.0799999999998089 0.01229017421484417 0
681 0.07999999999980993 0.01272008710742203 0
682 0.08999999999978374 0.009280783966810398 0
683 0.08999999999978382 0.00971069685938551 0
684 0.08999999999978374 0.01014060975196052 0
685 0.08999999999978368 0.01057052264453582 0
686 0.08999999999978363 0.0110004355371119 0
687 0.08999999999978366 0.01143034842968889 0
688 0.08999999999978368 0.0118602613222664 0
689 0.08999999999978386 0.01229017421484417 0
690 0.089999999999784 0.01272008710742204 0
691 0.0999999999997587 0.009280783966810396 0
692 0.09999999999976025 0.009710696859385509 0
693 0.09999999999976052 0.01014060975196052 0
694 0.09999999999976054 0.01057052264453583 0
695 0.09999999999976054 0.01100043553711191 0
696 0.09999999999976053 0.0114303484296889 0
697 0.09999999999976054 0.01186026132226641 0
698 0.09999999999976052 0.01229017421484418 0
699 0.09999999999975935 0.01272008710742204 0
700 0.1099999999997358 0.009280783966810393 0
701 0.1099999999997393 0.009710696859385507 0
702 0.1099999999997402 0.01014060975196052 0
703 0.1099999999997403 0.01057052264453583 0
704 0.1099999999997403 0.01100043553711192 0
705 0.1099999999997403 0.0114303484296889 0
706 0.1099999999997403 0.01186026132226641 0
707 0.1099999999997399 0.01229017421484418 0
708 0.1099999999997369 0.01272008710742204 0
709 0.1199999999997161 0.009280783966810393 0
710 0.1199999999997222 0.009710696859385507 0
711 0.1199999999997237 0.01014060975196052 0
712 0.119999999999724 0.01057052264453584 0
713 0.1199999999997241 0.01100043553711192 0
714 0.1199999999997241 0.0114303484296889 0
715 0.119999999999724 0.01186026132226641 0
716 0.1199999999997231 0.01229017421484418 0
717 0.1199999999997176 0.01272008710742204 0
718 0.1299999999997001 0.009280783966810391 0
719 0.1299999999997096 0.009710696859385505 0
720 0.129999999999712 0.01014060975196052 0
721 0.1299999999997125 0.01057052264453584 0
722 0.1299999999997125 0.01100043553711192 0
723 0.1299999999997126 0.0114303484296889 0
724 0.1299999999997124 0.01186026132226641 0
725 0.1299999999997108 0.01229017421484418 0
726 0.1299999999997021 0.01272008710742204 0
727 0.1399999999996893 0.009280783966810391 0
728 0.1399999999997023 0.009710696859385505 0
729 0.1399999999997054 0.01014060975196052 0
730 0.1399999999997061 0.01057052264453584 0
731 0.1399999999997062 0.01100043553711192 0
732 0.1399999999997061 0.01143034842968891 0
733 0.1399999999997059 0.01186026132226641 0
734 0.1399999999997037 0.01229017421484418 0
735 0.1399999999996914 0.01272008710742204 0
736 0.1499999999996851 0.009280783966810391 0
737 0.1499999999997005 0.009710696859385505 0
738 0.1499999999997041 0.01014060975196052 0
739 0.149999999999705 0.01057052264453584 0
740 0.1499999999997051 0.01100043553711193 0
741 0.1499999999997051 0.01143034842968891 0
742 0.1499999999997047 0.01186026132226641 0
743 0.149999999999702 0.01229017421484418 0
744 0.1499999999996874 0.01272008710742204 0
745 0.1599999999996895 0.009280783966810391 0
746 0.1599999999997042 0.009710696859385505 0
747 0.159999999999708 0.01014060975196052 0
748 0.1599999999997089 0.01057052264453584 0
749 0.1599999999997091 0.01100043553711193 0
750 0.159999999999709 0.01143034842968891 0
751 0.1599999999997087 0.01186026132226641 0
752 0.1599999999997058 0.01229017421484418 0
753 0.1599999999996916 0.01272008710742204 0
754 0.1699999999997004 0.009280783966810391 0
755 0.169999999999713 0.009710696859385505 0
756 0.1699999999997165 0.01014060975196052 0
757 0.1699999999997174 0.01057052264453584 0
758 0.1699999999997176 0.01100043553711193 0
759 0.1699999999997175 0.01143034842968891 0
760 0.1699999999997172 0.01186026132226641 0
761 0.1699999999997145 0.01229017421484418 0
762 0.1699999999997024 0.01272008710742204 0
763 0.1799999999997161 0.009280783966810391 0
764 0.179999999999726 0.009710696859385505 0
765 0.1799999999997291 0.01014060975196052 0
766 0.1799999999997298 0.01057052264453584 0
767 0.17999999999973 0.01100043553711193 0
768 0.17999999999973 0.01143034842968891 0
769 0.1799999999997296 0.01186026132226641 0
770 0.1799999999997274 0.01229017421484418 0
771 0.1799999999997178 0.01272008710742204 0
772 0.189999999999735 0.009280783966810391 0
773 0.1899999999997423 0.009710696859385505 0
774 0.1899999999997448 0.01014060975196052 0
775 0.1899999999997455 0.01057052264453584 0
776 0.1899999999997457 0.01100043553711193 0
777 0.1899999999997457 0.01143034842968891 0
778 0.1899999999997453 0.01186026132226641 0
779 0.1899999999997434 0.01229017421484418 0
780 0.1899999999997365 0.01272008710742204 0
781 0.1999999999997561 0.009280783966810391 0
782 0.1999999999997611 0.009710696859385505 0
783 0.1999999999997631 0.01014060975196052 0
784 0.1999999999997636 0.01057052264453584 0
785 0.1999999999997637 0.01100043553711193 0
786 0.1999999999997638 0.01143034842968891 0
787 0.1999999999997635 0.01186026132226641 0
788 0.1999999999997621 0.01229017421484418 0
789 0.1999999999997573 0.01272008710742204 0
790 0.2099999999997785 0.009280783966810391 0
791 0.2099999999997818 0.009710696859385505 0
792 0.2099999999997832 0.01014060975196052 0
793 0.2099999999997837 0.01057052264453584 0
794 0.2099999999997838 0.01100043553711193 0
795 0.2099999999997839 0.01143034842968891 0
796 0.2099999999997836 0.01186026132226641 0
797 0.2099999999997826 0.01229017421484418 0
798 0.2099999999997794 0.01272008710742204 0
799 0.2199999999998017 0.009280783966810391 0
800 0.2199999999998038 0.009710696859385505 0
801 0.2199999999998048 0.01014060975196052 0
802 0.2199999999998052 0.01057052264453584 0
803 0.2199999999998053 0.01100043553711193 0
804 0.2199999999998053 0.01143034842968891 0
805 0.2199999999998051 0.01186026132226641 0
806 0.2199999999998044 0.01229017421484418 0
807 0.2199999999998024 0.01272008710742204 0
808 0.2299999999998257 0.009280783966810395 0
809 0.2299999999998268 0.009710696859385507 0
810 0.2299999999998275 0.01014060975196052 0
811 0.2299999999998277 0.01057052264453584 0
812 0.2299999999998278 0.01100043553711192 0
813 0.2299999999998278 0.01143034842968891 0
814 0.2299999999998277 0.01186026132226641 0
815 0.2299999999998272 0.01229017421484418 0
816 0.2299999999998262 0.01272008710742204 0
817 0.2399999999998498 0.0092807839668104 0
818 0.2399999999998504 0.00971069685938551 0
819 0.2399999999998509 0.01014060975196052 0
820 0.2399999999998511 0.01057052264453583 0
821 0.2399999999998511 0.0110004355371119 0
822 0.2399999999998512 0.0114303484296889 0
823 0.2399999999998511 0.01186026132226641 0
824 0.2399999999998508 0.01229017421484418 0
825 0.2399999999998502 0.01272008710742204 0
826 0.249999999999874 0.009280783966810415 0
827 0.2499999999998746 0.009710696859385519 0
828 0.2499999999998749 0.01014060975196052 0
829 0.249999999999875 0.01057052264453581 0
830 0.2499999999998751 0.01100043553711186 0
831 0.2499999999998751 0.01143034842968889 0
832 0.2499999999998751 0.0118602613222664 0
833 0.2499999999998749 0.01229017421484418 0
834 0.2499999999998743 0.01272008710742203 0
835 0.2599999999998985 0.009280783966810443 0
836 0.2599999999998991 0.009710696859385533 0
837 0.2599999999998994 0.01014060975196051 0
838 0.2599999999998995 0.01057052264453576 0
839 0.2599999999998996 0.01100043553711178 0
840 0.2599999999998996 0.01143034842968886 0
841 0.2599999999998996 0.01186026132226638 0
842 0.2599999999998994 0.01229017421484419 0
843 0.2599999999998988 0.01272008710742202 0
844 0.2699999999999232 0.009280783966810497 0
845 0.269999999999924 0.009710696859385557 0
846 0.2699999999999243 0.0101406097519605 0
847 0.2699999999999244 0.01057052264453568 0
848 0.2699999999999244 0.01100043553711164 0
849 0.2699999999999245 0.01143034842968882 0
850 0.2699999999999244 0.01186026132226635 0
851 0.2699999999999242 0.0122901742148442 0
852 0.2699999999999234 0.01272008710742199 0
853 0.2799999999999485 0.009280783966810589 0
854 0.2799999999999493 0.009710696859385595 0
855 0.2799999999999495 0.01014060975196047 0
856 0.2799999999999495 0.01057052264453554 0
857 0.2799999999999495 0.0110004355371114 0
858 0.2799999999999495 0.01143034842968876 0
859 0.2799999999999495 0.01186026132226629 0
860 0.2799999999999493 0.01229017421484422 0
861 0.2799999999999486 0.01272008710742195 0
862 0.2899999999999741 0.009280783966810738 0
863 0.2899999999999746 0.009710696859385647 0
864 0.2899999999999747 0.01014060975196043 0
865 0.2899999999999747 0.01057052264453534 0
866 0.2899999999999747 0.01100043553711101 0
867 0.2899999999999748 0.0114303484296887 0
868 0.2899999999999747 0.01186026132226619 0
869 0.2899999999999747 0.01229017421484426 0
870 0.2899999999999742 0.01272008710742187 0
871 0.00999999999997829 0.01369999999999801 0
872 0.01999999999995605 0.01369999999999805 0
873 0.02999999999993312 0.01369999999999807 0
874 0.03999999999990939 0.01369999999999809 0
875 0.04999999999988485 0.01369999999999811 0
876 0.05999999999985962 0.01369999999999812 0
877 0.06999999999983401 0.01369999999999812 0
878 0.07999999999980857 0.01369999999999813 0
879 0.08999999999978404 0.01369999999999813 0
880 0.09999999999976145 0.01369999999999813 0
881 0.1099999999997418 0.01369999999999813 0
882 0.119999999999726 0.01369999999999814 0
883 0.1299999999997147 0.01369999999999814 0
884 0.1399999999997083 0.01369999999999814 0
885 0.1499999999997071 0.01369999999999814 0
886 0.159999999999711 0.01369999999999814 0
887 0.1699999999997195 0.01369999999999814 0
888 0.1799999999997319 0.01369999999999814 0
889 0.1899999999997474 0.01369999999999814 0
890 0.1999999999997653 0.01369999999999814 0
891 0.2099999999997851 0.01369999999999814 0
892 0.2199999999998063 0.01369999999999814 0
893 0.2299999999998287 0.01369999999999814 0
894 0.2399999999998519 0.01369999999999813 0
895 0.2499999999998757 0.01369999999999813 0
896 0.2599999999999 0.01369999999999812 0
897 0.2699999999999247 0.0136999999999981 0
898 0.2799999999999497 0.01369999999999807 0
899 0.2899999999999748 0.01369999999999803 0
$EndNodes
$Elements
1016
1 1 2 8 1 1 13
2 1 2 8 1 13 14
3 1 2 8 1 14 15
4 1 2 8 1 15 16
5 1 2 8 1 16 17
6 1 2 8 1 17 18
7 1 2 8 1 18 19
8 1 2 8 1 19 20
9 1 2 8 1 20 21
10 1 2 8 1 21 22
11 1 2 8 1 22 23
12 1 2 8 1 23 24
13 1 2 8 1 24 25
14 1 2 8 1 25 26
15 1 2 8 1 26 27
16 1 2 8 1 27 28
17 1 2 8 1 28 29
18 1 2 8 1 29 30
19 1 2 8 1 30 31
20 1 2 8 1 31 32
21 1 2 8 1 32 33
22 1 2 8 1 33 34
23 1 2 8 1 34 35
24 1 2 8 1 35 36
25 1 2 8 1 36 37
26 1 2 8 1 37 38
27 1 2 8 1 38 39
28 1 2 8 1 39 40
29 1 2 8 1 40 41
30 1 2 8 1 41 2
31 1 2 7 2 3 42
32 1 2 7 2 42 43
33 1 2 7 2 43 44
34 1 2 7 2 44 45
35 1 2 7 2 45 46
36 1 2 7 2 46 47
37 1 2 7 2 47 48
38 1 2 7 2 48 49
39 1 2 7 2 49 50
40 1 2 7 2 50 51
41 1 2 7 2 51 52
42 1 2 7 2 52 53
43 1 2 7 2 53 54
44 1 2 7 2 54 55
45 1 2 7 2 55 56
46 1 2 7 2 56 57
47 1 2 7 2 57 58
48 1 2 7 2 58 59
49 1 2 7 2 59 60
50 1 2 7 2 60 61
51 1 2 7 2 61 62
52 1 2 7 2 62 63
53 1 2 7 2 63 64
54 1 2 7 2 64 65
55 1 2 7 2 65 66
56 1 2 7 2 66 67
57 1 2 7 2 67 68
58 1 2 7 2 68 69
59 1 2 7 2 69 70
60 1 2 7 2 70 4
61 1 2 5 3 1 71
62 1 2 5 3 71 3
63 1 2 6 4 2 72
64 1 2 6 4 72 4
65 1 2 3 7 3 102
66 1 2 3 7 102 103
67 1 2 3 7 103 104
68 1 2 3 7 104 105
69 1 2 3 7 105 106
70 1 2 3 7 106 107
71 1 2 3 7 107 108
72 1 2 3 7 108 109
73 1 2 3 7 109 110
74 1 2 3 7 110 5
75 1 2 4 8 4 111
76 1 2 4 8 111 112
77 1 2 4 8 112 113
78 1 2 4 8 113 114
79 1 2 4 8 114 115
80 1 2 4 8 115 116
81 1 2 4 8 116 117
82 1 2 4 8 117 118
83 1 2 4 8 118 119
84 1 2 4 8 119 6
85 1 2 3 11 5 149
86 1 2 3 11 149 150
87 1 2 3 11 150 151
88 1 2 3 11 151 7
89 1 2 4 12 6 152
90 1 2 4 12 152 153
91 1 2 4 12 153 154
92 1 2 4 12 154 8
93 1 2 7 14 9 155
94 1 2 7 14 155 156
95 1 2 7 14 156 157
96 1 2 7 14 157 158
97 1 2 7 14 158 159
98 1 2 7 14 159 160
99 1 2 7 14 160 161
100 1 2 7 14 161 162
101 1 2 7 14 162 163
102 1 2 7 14 163 164
103 1 2 7 14 164 165
104 1 2 7 14 165 166
105 1 2 7 14 166 167
106 1 2 7 14 167 168
107 1 2 7 14 168 169
108 1 2 7 14 169 170
109 1 2 7 14 170 171
110 1 2 7 14 171 172
111 1 2 7 14 172 173
112 1 2 7 14 173 174
113 1 2 7 14 174 175
114 1 2 7 14 175 176
115 1 2 7 14 176 177
116 1 2 7 14 177 178
117 1 2 7 14 178 179
118 1 2 7 14 179 180
119 1 2 7 14 180 181
120 1 2 7 14 181 182
121 1 2 7 14 182 183
122 1 2 7 14 183 10
123 1 2 3 15 7 184
124 1 2 3 15 184 185
125 1 2 3 15 185 186
126 1 2 3 15 186 187
127 1 2 3 15 187 188
128 1 2 3 15 188 189
129 1 2 3 15 189 190
130 1 2 3 15 190 191
131 1 2 3 15 191 192
132 1 2 3 15 192 9
133 1 2 4 16 8 193
134 1 2 4 16 193 194
135 1 2 4 16 194 195
136 1 2 4 16 195 196
137 1 2 4 16 196 197
138 1 2 4 16 197 198
139 1 2 4 16 198 199
140 1 2 4 16 199 200
141 1 2 4 16 200 201
142 1 2 4 16 201 10
143 1 2 8 18 11 202
144 1 2 8 18 202 203
145 1 2 8 18 203 204
146 1 2 8 18 204 205
147 1 2 8 18 205 206
148 1 2 8 18 206 207
149 1 2 8 18 207 208
150 1 2 8 18 208 209
151 1 2 8 18 209 210
152 1 2 8 18 210 211
153 1 2 8 18 211 212
154 1 2 8 18 212 213
155 1 2 8 18 213 214
156 1 2 8 18 214 215
157 1 2 8 18 215 216
158 1 2 8 18 216 217
159 1 2 8 18 217 218
160 1 2 8 18 218 219
161 1 2 8 18 219 220
162 1 2 8 18 220 221
163 1 2 8 18 221 222
164 1 2 8 18 222 223
165 1 2 8 18 223 224
166 1 2 8 18 224 225
167 1 2 8 18 225 226
168 1 2 8 18 226 227
169 1 2 8 18 227 228
170 1 2 8 18 228 229
171 1 2 8 18 229 230
172 1 2 8 18 230 12
173 1 2 5 19 9 231
174 1 2 5 19 231 11
175 1 2 6 20 10 232
176 1 2 6 20 232 12
177 3 2 1 5 1 13 233 71
178 3 2 1 5 71 233 42 3
179 3 2 1 5 13 14 234 233
180 3 2 1 5 233 234 43 42
181 3 2 1 5 14 15 235 234
182 3 2 1 5 234 235 44 43
183 3 2 1 5 15 16 236 235
184 3 2 1 5 235 236 45 44
185 3 2 1 5 16 17 237 236
186 3 2 1 5 236 237 46 45
187 3 2 1 5 17 18 238 237
188 3 2 1 5 237 238 47 46
189 3 2 1 5 18 19 239 238
190 3 2 1 5 238 239 48 47
191 3 2 1 5 19 20 240 239
192 3 2 1 5 239 240 49 48
193 3 2 1 5 20 21 241 240
194 3 2 1 5 240 241 50 49
195 3 2 1 5 21 22 242 241
196 3 2 1 5 241 242 51 50
197 3 2 1 5 22 23 243 242
198 3 2 1 5 242 243 52 51
199 3 2 1 5 23 24 244 243
200 3 2 1 5 243 244 53 52
201 3 2 1 5 24 25 245 244
202 3 2 1 5 244 245 54 53
203 3 2 1 5 25 26 246 245
204 3 2 1 5 245 246 55 54
205 3 2 1 5 26 27 247 246
206 3 2 1 5 246 247 56 55
207 3 2 1 5 27 28 248 247
208 3 2 1 5 247 248 57 56
209 3 2 1 5 28 29 249 248
210 3 2 1 5 248 249 58 57
211 3 2 1 5 29 30 250 249
212 3 2 1 5 249 250 59 58
213 3 2 1 5 30 31 251 250
214 3 2 1 5 250 251 60 59
215 3 2 1 5 31 32 252 251
216 3 2 1 5 251 252 61 60
217 3 2 1 5 32 33 253 252
218 3 2 1 5 252 253 62 61
219 3 2 1 5 33 34 254 253
220 3 2 1 5 253 254 63 62
221 3 2 1 5 34 35 255 254
222 3 2 1 5 254 255 64 63
223 3 2 1 5 35 36 256 255
224 3 2 1 5 255 256 65 64
225 3 2 1 5 36 37 257 256
226 3 2 1 5 256 257 66 65
227 3 2 1 5 37 38 258 257
228 3 2 1 5 257 258 67 66
229 3 2 1 5 38 39 259 258
230 3 2 1 5 258 259 68 67
231 3 2 1 5 39 40 260 259
232 3 2 1 5 259 260 69 68
233 3 2 1 5 40 41 261 260
234 3 2 1 5 260 261 70 69
235 3 2 1 5 41 2 72 261
236 3 2 1 5 261 72 4 70
237 3 2 2 9 3 42 262 102
238 3 2 2 9 102 262 263 103
239 3 2 2 9 103 263 264 104
240 3 2 2 9 104 264 265 105
241 3 2 2 9 105 265 266 106
242 3 2 2 9 106 266 267 107
243 3 2 2 9 107 267 268 108
244 3 2 2 9 108 268 269 109
245 3 2 2 9 109 269 270 110
246 3 2 2 9 110 270 73 5
247 3 2 2 9 42 43 271 262
248 3 2 2 9 262 271 272 263
249 3 2 2 9 263 272 273 264
250 3 2 2 9 264 273 274 265
251 3 2 2 9 265 274 275 266
252 3 2 2 9 266 275 276 267
253 3 2 2 9 267 276 277 268
254 3 2 2 9 268 277 278 269
255 3 2 2 9 269 278 279 270
256 3 2 2 9 270 279 74 73
257 3 2 2 9 43 44 280 271
258 3 2 2 9 271 280 281 272
259 3 2 2 9 272 281 282 273
260 3 2 2 9 273 282 283 274
261 3 2 2 9 274 283 284 275
262 3 2 2 9 275 284 285 276
263 3 2 2 9 276 285 286 277
264 3 2 2 9 277 286 287 278
265 3 2 2 9 278 287 288 279
266 3 2 2 9 279 288 75 74
267 3 2 2 9 44 45 289 280
268 3 2 2 9 280 289 290 281
269 3 2 2 9 281 290 291 282
270 3 2 2 9 282 291 292 283
271 3 2 2 9 283 292 293 284
272 3 2 2 9 284 293 294 285
273 3 2 2 9 285 294 295 286
274 3 2 2 9 286 295 296 287
275 3 2 2 9 287 296 297 288
276 3 2 2 9 288 297 76 75
277 3 2 2 9 45 46 298 289
278 3 2 2 9 289 298 299 290
279 3 2 2 9 290 299 300 291
280 3 2 2 9 291 300 301 292
281 3 2 2 9 292 301 302 293
282 3 2 2 9 293 302 303 294
283 3 2 2 9 294 303 304 295
284 3 2 2 9 295 304 305 296
285 3 2 2 9 296 305 306 297
286 3 2 2 9 297 306 77 76
287 3 2 2 9 46 47 307 298
288 3 2 2 9 298 307 308 299
289 3 2 2 9 299 308 309 300
290 3 2 2 9 300 309 310 301
291 3 2 2 9 301 310 311 302
292 3 2 2 9 302 311 312 303
293 3 2 2 9 303 312 313 304
294 3 2 2 9 304 313 314 305
295 3 2 2 9 305 314 315 306
296 3 2 2 9 306 315 78 77
297 3 2 2 9 47 48 316 307
298 3 2 2 9 307 316 317 308
299 3 2 2 9 308 317 318 309
300 3 2 2 9 309 318 319 310
301 3 2 2 9 310 319 320 311
302 3 2 2 9 311 320 321 312
303 3 2 2 9 312 321 322 313
304 3 2 2 9 313 322 323 314
305 3 2 2 9 314 323 324 315
306 3 2 2 9 315 324 79 78
307 3 2 2 9 48 49 325 316
308 3 2 2 9 316 325 326 317
309 3 2 2 9 317 326 327 318
310 3 2 2 9 318 327 328 319
311 3 2 2 9 319 328 329 320
312 3 2 2 9 320 329 330 321
313 3 2 2 9 321 330 331 322
314 3 2 2 9 322 331 332 323
315 3 2 2 9 323 332 333 324
316 3 2 2 9 324 333 80 79
317 3 2 2 9 49 50 334 325
318 3 2 2 9 325 334 335 326
319 3 2 2 9 326 335 336 327
320 3 2 2 9 327 336 337 328
321 3 2 2 9 328 337 338 329
322 3 2 2 9 329 338 339 330
323 3 2 2 9 330 339 340 331
324 3 2 2 9 331 340 341 332
325 3 2 2 9 332 341 342 333
326 3 2 2 9 333 342 81 80
327 3 2 2 9 50 51 343 334
328 3 2 2 9 334 343 344 335
329 3 2 2 9 335 344 345 336
330 3 2 2 9 336 345 346 337
331 3 2 2 9 337 346 347 338
332 3 2 2 9 338 347 348 339
333 3 2 2 9 339 348 349 340
334 3 2 2 9 340 349 350 341
335 3 2 2 9 341 350 351 342
336 3 2 2 9 342 351 82 81
337 3 2 2 9 51 52 352 343
338 3 2 2 9 343 352 353 344
339 3 2 2 9 344 353 354 345
340 3 2 2 9 345 354 355 346
341 3 2 2 9 346 355 356 347
342 3 2 2 9 347 356 357 348
343 3 2 2 9 348 357 358 349
344 3 2 2 9 349 358 359 350
345 3 2 2 9 350 359 360 351
346 3 2 2 9 351 360 83 82
347 3 2 2 9 52 53 361 352
348 3 2 2 9 352 361 362 353
349 3 2 2 9 353 362 363 354
350 3 2 2 9 354 363 364 355
351 3 2 2 9 355 364 365 356
352 3 2 2 9 356 365 366 357
353 3 2 2 9 357 366 367 358
354 3 2 2 9 358 367 368 359
355 3 2 2 9 359 368 369 360
356 3 2 2 9 360 369 84 83
357 3 2 2 9 53 54 370 361
358 3 2 2 9 361 370 371 362
359 3 2 2 9 362 371 372 363
360 3 2 2 9 363 372 373 364
361 3 2 2 9 364 373 374 365
362 3 2 2 9 365 374 375 366
363 3 2 2 9 366 375 376 367
364 3 2 2 9 367 376 377 368
365 3 2 2 9 368 377 378 369
366 3 2 2 9 369 378 85 84
367 3 2 2 9 54 55 379 370
368 3 2 2 9 370 379 380 371
369 3 2 2 9 371 380 381 372
370 3 2 2 9 372 381 382 373
371 3 2 2 9 373 382 383 374
372 3 2 2 9 374 383 384 375
373 3 2 2 9 375 384 385 376
374 3 2 2 9 376 385 386 377
375 3 2 2 9 377 386 387 378
376 3 2 2 9 378 387 86 85
377 3 2 2 9 55 56 388 379
378 3 2 2 9 379 388 389 380
379 3 2 2 9 380 389 390 381
380 3 2 2 9 381 390 391 382
381 3 2 2 9 382 391 392 383
382 3 2 2 9 383 392 393 384
383 3 2 2 9 384 393 394 385
384 3 2 2 9 385 394 395 386
385 3 2 2 9 386 395 396 387
386 3 2 2 9 387 396 87 86
387 3 2 2 9 56 57 397 388
388 3 2 2 9 388 397 398 389
389 3 2 2 9 389 398 399 390
390 3 2 2 9 390 399 400 391
391 3 2 2 9 391 400 401 392
392 3 2 2 9 392 401 402 393
393 3 2 2 9 393 402 403 394
394 3 2 2 9 394 403 404 395
395 3 2 2 9 395 404 405 396
396 3 2 2 9 396 405 88 87
397 3 2 2 9 57 58 406 397
398 3 2 2 9 397 406 407 398
399 3 2 2 9 398 407 408 399
400 3 2 2 9 399 408 409 400
401 3 2 2 9 400 409 410 401
402 3 2 2 9 401 410 411 402
403 3 2 2 9 402 411 412 403
404 3 2 2 9 403 412 413 404
405 3 2 2 9 404 413 414 405
406 3 2 2 9 405 414 89 88
407 3 2 2 9 58 59 415 406
408 3 2 2 9 406 415 416 407
409 3 2 2 9 407 416 417 408
410 3 2 2 9 408 417 418 409
411 3 2 2 9 409 418 419 410
412 3 2 2 9 410 419 420 411
413 3 2 2 9 411 420 421 412
414 3 2 2 9 412 421 422 413
415 3 2 2 9 413 422 423 414
416 3 2 2 9 414 423 90 89
417 3 2 2 9 59 60 424 415
418 3 2 2 9 415 424 425 416
419 3 2 2 9 416 425 426 417
420 3 2 2 9 417 426 427 418
421 3 2 2 9 418 427 428 419
422 3 2 2 9 419 428 429 420
423 3 2 2 9 420 429 430 421
424 3 2 2 9 421 430 431 422
425 3 2 2 9 422 431 432 423
426 3 2 2 9 423 432 91 90
427 3 2 2 9 60 61 433 424
428 3 2 2 9 424 433 434 425
429 3 2 2 9 425 434 435 426
430 3 2 2 9 426 435 436 427
431 3 2 2 9 427 436 437 428
432 3 2 2 9 428 437 438 429
433 3 2 2 9 429 438 439 430
434 3 2 2 9 430 439 440 431
435 3 2 2 9 431 440 441 432
436 3 2 2 9 432 441 92 91
437 3 2 2 9 61 62 442 433
438 3 2 2 9 433 442 443 434
439 3 2 2 9 434 443 444 435
440 3 2 2 9 435 444 445 436
441 3 2 2 9 436 445 446 437
442 3 2 2 9 437 446 447 438
443 3 2 2 9 438 447 448 439
444 3 2 2 9 439 448 449 440
445 3 2 2 9 440 449 450 441
446 3 2 2 9 441 450 93 92
447 3 2 2 9 62 63 451 442
448 3 2 2 9 442 451 452 443
449 3 2 2 9 443 452 453 444
450 3 2 2 9 444 453 454 445
451 3 2 2 9 445 454 455 446
452 3 2 2 9 446 455 456 447
453 3 2 2 9 447 456 457 448
454 3 2 2 9 448 457 458 449
455 3 2 2 9 449 458 459 450
456 3 2 2 9 450 459 94 93
457 3 2 2 9 63 64 460 451
458 3 2 2 9 451 460 461 452
459 3 2 2 9 452 461 462 453
460 3 2 2 9 453 462 463 454
461 3 2 2 9 454 463 464 455
462 3 2 2 9 455 464 465 456
463 3 2 2 9 456 465 466 457
464 3 2 2 9 457 466 467 458
465 3 2 2 9 458 467 468 459
466 3 2 2 9 459 468 95 94
467 3 2 2 9 64 65 469 460
468 3 2 2 9 460 469 470 461
469 3 2 2 9 461 470 471 462
470 3 2 2 9 462 471 472 463
471 3 2 2 9 463 472 473 464
472 3 2 2 9 464 473 474 465
473 3 2 2 9 465 474 475 466
474 3 2 2 9 466 475 476 467
475 3 2 2 9 467 476 477 468
476 3 2 2 9 468 477 96 95
477 3 2 2 9 65 66 478 469
478 3 2 2 9 469 478 479 470
479 3 2 2 9 470 479 480 471
480 3 2 2 9 471 480 481 472
481 3 2 2 9 472 481 482 473
482 3 2 2 9 473 482 483 474
483 3 2 2 9 474 483 484 475
484 3 2 2 9 475 484 485 476
485 3 2 2 9 476 485 486 477
486 3 2 2 9 477 486 97 96
487 3 2 2 9 66 67 487 478
488 3 2 2 9 478 487 488 479
489 3 2 2 9 479 488 489 480
490 3 2 2 9 480 489 490 481
491 3 2 2 9 481 490 491 482
492 3 2 2 9 482 491 492 483
493 3 2 2 9 483 492 493 484
494 3 2 2 9 484 493 494 485
495 3 2 2 9 485 494 495 486
496 3 2 2 9 486 495 98 97
497 3 2 2 9 67 68 496 487
498 3 2 2 9 487 496 497 488
499 3 2 2 9 488 497 498 489
500 3 2 2 9 489 498 499 490
501 3 2 2 9 490 499 500 491
502 3 2 2 9 491 500 501 492
503 3 2 2 9 492 501 502 493
504 3 2 2 9 493 502 503 494
505 3 2 2 9 494 503 504 495
506 3 2 2 9 495 504 99 98
507 3 2 2 9 68 69 505 496
508 3 2 2 9 496 505 506 497
509 3 2 2 9 497 506 507 498
510 3 2 2 9 498 507 508 499
511 3 2 2 9 499 508 509 500
512 3 2 2 9 500 509 510 501
513 3 2 2 9 501 510 511 502
514 3 2 2 9 502 511 512 503
515 3 2 2 9 503 512 513 504
516 3 2 2 9 504 513 100 99
517 3 2 2 9 69 70 514 505
518 3 2 2 9 505 514 515 506
519 3 2 2 9 506 515 516 507
520 3 2 2 9 507 516 517 508
521 3 2 2 9 508 517 518 509
522 3 2 2 9 509 518 519 510
523 3 2 2 9 510 519 520 511
524 3 2 2 9 511 520 521 512
525 3 2 2 9 512 521 522 513
526 3 2 2 9 513 522 101 100
527 3 2 2 9 70 4 111 514
528 3 2 2 9 514 111 112 515
529 3 2 2 9 515 112 113 516
530 3 2 2 9 516 113 114 517
531 3 2 2 9 517 114 115 518
532 3 2 2 9 518 115 116 519
533 3 2 2 9 519 116 117 520
534 3 2 2 9 520 117 118 521
535 3 2 2 9 521 118 119 522
536 3 2 2 9 522 119 6 101
537 3 2 2 13 5 73 523 149
538 3 2 2 13 149 523 524 150
539 3 2 2 13 150 524 525 151
540 3 2 2 13 151 525 120 7
541 3 2 2 13 73 74 526 523
542 3 2 2 13 523 526 527 524
543 3 2 2 13 524 527 528 525
544 3 2 2 13 525 528 121 120
545 3 2 2 13 74 75 529 526
546 3 2 2 13 526 529 530 527
547 3 2 2 13 527 530 531 528
548 3 2 2 13 528 531 122 121
549 3 2 2 13 75 76 532 529
550 3 2 2 13 529 532 533 530
551 3 2 2 13 530 533 534 531
552 3 2 2 13 531 534 123 122
553 3 2 2 13 76 77 535 532
554 3 2 2 13 532 535 536 533
555 3 2 2 13 533 536 537 534
556 3 2 2 13 534 537 124 123
557 3 2 2 13 77 78 538 535
558 3 2 2 13 535 538 539 536
559 3 2 2 13 536 539 540 537
560 3 2 2 13 537 540 125 124
561 3 2 2 13 78 79 541 538
562 3 2 2 13 538 541 542 539
563 3 2 2 13 539 542 543 540
564 3 2 2 13 540 543 126 125
565 3 2 2 13 79 80 544 541
566 3 2 2 13 541 544 545 542
567 3 2 2 13 542 545 546 543
568 3 2 2 13 543 546 127 126
569 3 2 2 13 80 81 547 544
570 3 2 2 13 544 547 548 545
571 3 2 2 13 545 548 549 546
572 3 2 2 13 546 549 128 127
573 3 2 2 13 81 82 550 547
574 3 2 2 13 547 550 551 548
575 3 2 2 13 548 551 552 549
576 3 2 2 13 549 552 129 128
577 3 2 2 13 82 83 553 550
578 3 2 2 13 550 553 554 551
579 3 2 2 13 551 554 555 552
580 3 2 2 13 552 555 130 129
581 3 2 2 13 83 84 556 553
582 3 2 2 13 553 556 557 554
583 3 2 2 13 554 557 558 555
584 3 2 2 13 555 558 131 130
585 3 2 2 13 84 85 559 556
586 3 2 2 13 556 559 560 557
587 3 2 2 13 557 560 561 558
588 3 2 2 13 558 561 132 131
589 3 2 2 13 85 86 562 559
590 3 2 2 13 559 562 563 560
591 3 2 2 13 560 563 564 561
592 3 2 2 13 561 564 133 132
593 3 2 2 13 86 87 565 562
594 3 2 2 13 562 565 566 563
595 3 2 2 13 563 566 567 564
596 3 2 2 13 564 567 134 133
597 3 2 2 13 87 88 568 565
598 3 2 2 13 565 568 569 566
599 3 2 2 13 566 569 570 567
600 3 2 2 13 567 570 135 134
601 3 2 2 13 88 89 571 568
602 3 2 2 13 568 571 572 569
603 3 2 2 13 569 572 573 570
604 3 2 2 13 570 573 136 135
605 3 2 2 13 89 90 574 571
606 3 2 2 13 571 574 575 572
607 3 2 2 13 572 575 576 573
608 3 2 2 13 573 576 137 136
609 3 2 2 13 90 91 577 574
610 3 2 2 13 574 577 578 575
611 3 2 2 13 575 578 579 576
612 3 2 2 13 576 579 138 137
613 3 2 2 13 91 92 580 577
614 3 2 2 13 577 580 581 578
615 3 2 2 13 578 581 582 579
616 3 2 2 13 579 582 139 138
617 3 2 2 13 92 93 583 580
618 3 2 2 13 580 583 584 581
619 3 2 2 13 581 584 585 582
620 3 2 2 13 582 585 140 139
621 3 2 2 13 93 94 586 583
622 3 2 2 13 583 586 587 584
623 3 2 2 13 584 587 588 585
624 3 2 2 13 585 588 141 140
625 3 2 2 13 94 95 589 586
626 3 2 2 13 586 589 590 587
627 3 2 2 13 587 590 591 588
628 3 2 2 13 588 591 142 141
629 3 2 2 13 95 96 592 589
630 3 2 2 13 589 592 593 590
631 3 2 2 13 590 593 594 591
632 3 2 2 13 591 594 143 142
633 3 2 2 13 96 97 595 592
634 3 2 2 13 592 595 596 593
635 3 2 2 13 593 596 597 594
636 3 2 2 13 594 597 144 143
637 3 2 2 13 97 98 598 595
638 3 2 2 13 595 598 599 596
639 3 2 2 13 596 599 600 597
640 3 2 2 13 597 600 145 144
641 3 2 2 13 98 99 601 598
642 3 2 2 13 598 601 602 599
643 3 2 2 13 599 602 603 600
644 3 2 2 13 600 603 146 145
645 3 2 2 13 99 100 604 601
646 3 2 2 13 601 604 605 602
647 3 2 2 13 602 605 606 603
648 3 2 2 13 603 606 147 146
649 3 2 2 13 100 101 607 604
650 3 2 2 13 604 607 608 605
651 3 2 2 13 605 608 609 606
652 3 2 2 13 606 609 148 147
653 3 2 2 13 101 6 152 607
654 3 2 2 13 607 152 153 608
655 3 2 2 13 608 153 154 609
656 3 2 2 13 609 154 8 148
657 3 2 2 17 7 120 610 184
658 3 2 2 17 184 610 611 185
659 3 2 2 17 185 611 612 186
660 3 2 2 17 186 612 613 187
661 3 2 2 17 187 613 614 188
662 3 2 2 17 188 614 615 189
663 3 2 2 17 189 615 616 190
664 3 2 2 17 190 616 617 191
665 3 2 2 17 191 617 618 192
666 3 2 2 17 192 618 155 9
667 3 2 2 17 120 121 619 610
668 3 2 2 17 610 619 620 611
669 3 2 2 17 611 620 621 612
670 3 2 2 17 612 621 622 613
671 3 2 2 17 613 622 623 614
672 3 2 2 17 614 623 624 615
673 3 2 2 17 615 624 625 616
674 3 2 2 17 616 625 626 617
675 3 2 2 17 617 626 627 618
676 3 2 2 17 618 627 156 155
677 3 2 2 17 121 122 628 619
678 3 2 2 17 619 628 629 620
679 3 2 2 17 620 629 630 621
680 3 2 2 17 621 630 631 622
681 3 2 2 17 622 631 632 623
682 3 2 2 17 623 632 633 624
683 3 2 2 17 624 633 634 625
684 3 2 2 17 625 634 635 626
685 3 2 2 17 626 635 636 627
686 3 2 2 17 627 636 157 156
687 3 2 2 17 122 123 637 628
688 3 2 2 17 628 637 638 629
689 3 2 2 17 629 638 639 630
690 3 2 2 17 630 639 640 631
691 3 2 2 17 631 640 641 632
692 3 2 2 17 632 641 642 633
693 3 2 2 17 633 642 643 634
694 3 2 2 17 634 643 644 635
695 3 2 2 17 635 644 645 636
696 3 2 2 17 636 645 158 157
697 3 2 2 17 123 124 646 637
698 3 2 2 17 637 646 647 638
699 3 2 2 17 638 647 648 639
700 3 2 2 17 639 648 649 640
701 3 2 2 17 640 649 650 641
702 3 2 2 17 641 650 651 642
703 3 2 2 17 642 651 652 643
704 3 2 2 17 643 652 653 644
705 3 2 2 17 644 653 654 645
706 3 2 2 17 645 654 159 158
707 3 2 2 17 124 125 655 646
708 3 2 2 17 646 655 656 647
709 3 2 2 17 647 656 657 648
710 3 2 2 17 648 657 658 649
711 3 2 2 17 649 658 659 650
712 3 2 2 17 650 659 660 651
713 3 2 2 17 651 660 661 652
714 3 2 2 17 652 661 662 653
715 3 2 2 17 653 662 663 654
716 3 2 2 17 654 663 160 159
717 3 2 2 17 125 126 664 655
718 3 2 2 17 655 664 665 656
719 3 2 2 17 656 665 666 657
720 3 2 2 17 657 666 667 658
721 3 2 2 17 658 667 668 659
722 3 2 2 17 659 668 669 660
723 3 2 2 17 660 669 670 661
724 3 2 2 17 661 670 671 662
725 3 2 2 17 662 671 672 663
726 3 2 2 17 663 672 161 160
727 3 2 2 17 126 127 673 664
728 3 2 2 17 664 673 674 665
729 3 2 2 17 665 674 675 666
730 3 2 2 17 666 675 676 667
731 3 2 2 17 667 676 677 668
732 3 2 2 17 668 677 678 669
733 3 2 2 17 669 678 679 670
734 3 2 2 17 670 679 680 671
735 3 2 2 17 671 680 681 672
736 3 2 2 17 672 681 162 161
737 3 2 2 17 127 128 682 673
738 3 2 2 17 673 682 683 674
739 3 2 2 17 674 683 684 675
740 3 2 2 17 675 684 685 676
741 3 2 2 17 676 685 686 677
742 3 2 2 17 677 686 687 678
743 3 2 2 17 678 687 688 679
744 3 2 2 17 679 688 689 680
745 3 2 2 17 680 689 690 681
746 3 2 2 17 681 690 163 162
747 3 2 2 17 128 129 691 682
748 3 2 2 17 682 691 692 683
749 3 2 2 17 683 692 693 684
750 3 2 2 17 684 693 694 685
751 3 2 2 17 685 694 695 686
752 3 2 2 17 686 695 696 687
753 3 2 2 17 687 696 697 688
754 3 2 2 17 688 697 698 689
755 3 2 2 17 689 698 699 690
756 3 2 2 17 690 699 164 163
757 3 2 2 17 129 130 700 691
758 3 2 2 17 691 700 701 692
759 3 2 2 17 692 701 702 693
760 3 2 2 17 693 702 703 694
761 3 2 2 17 694 703 704 695
762 3 2 2 17 695 704 705 696
763 3 2 2 17 696 705 706 697
764 3 2 2 17 697 706 707 698
765 3 2 2 17 698 707 708 699
766 3 2 2 17 699 708 165 164
767 3 2 2 17 130 131 709 700
768 3 2 2 17 700 709 710 701
769 3 2 2 17 701 710 711 702
770 3 2 2 17 702 711 712 703
771 3 2 2 17 703 712 713 704
772 3 2 2 17 704 713 714 705
773 3 2 2 17 705 714 715 706
774 3 2 2 17 706 715 716 707
775 3 2 2 17 707 716 717 708
776 3 2 2 17 708 717 166 165
777 3 2 2 17 131 132 718 709
778 3 2 2 17 709 718 719 710
779 3 2 2 17 710 719 720 711
780 3 2 2 17 711 720 721 712
781 3 2 2 17 712 721 722 713
782 3 2 2 17 713 722 723 714
783 3 2 2 17 714 723 724 715
784 3 2 2 17 715 724 725 716
785 3 2 2 17 716 725 726 717
786 3 2 2 17 717 726 167 166
787 3 2 2 17 132 133 727 718
788 3 2 2 17 718 727 728 719
789 3 2 2 17 719 728 729 720
790 3 2 2 17 720 729 730 721
791 3 2 2 17 721 730 731 722
792 3 2 2 17 722 731 732 723
793 3 2 2 17 723 732 733 724
794 3 2 2 17 724 733 734 725
795 3 2 2 17 725 734 735 726
796 3 2 2 17 726 735 168 167
797 3 2 2 17 133 134 736 727
798 3 2 2 17 727 736 737 728
799 3 2 2 17 728 737 738 729
800 3 2 2 17 729 738 739 730
801 3 2 2 17 730 739 740 731
802 3 2 2 17 731 740 741 732
803 3 2 2 17 732 741 742 733
804 3 2 2 17 733 742 743 734
805 3 2 2 17 734 743 744 735
806 3 2 2 17 735 744 169 168
807 3 2 2 17 134 135 745 736
808 3 2 2 17 736 745 746 737
809 3 2 2 17 737 746 747 738
810 3 2 2 17 738 747 748 739
811 3 2 2 17 739 748 749 740
812 3 2 2 17 740 749 750 741
813 3 2 2 17 741 750 751 742
814 3 2 2 17 742 751 752 743
815 3 2 2 17 743 752 753 744
816 3 2 2 17 744 753 170 169
817 3 2 2 17 135 136 754 745
818 3 2 2 17 745 754 755 746
819 3 2 2 17 746 755 756 747
820 3 2 2 17 747 756 757 748
821 3 2 2 17 748 757 758 749
822 3 2 2 17 749 758 759 750
823 3 2 2 17 750 759 760 751
824 3 2 2 17 751 760 761 752
825 3 2 2 17 752 761 762 753
826 3 2 2 17 753 762 171 170
827 3 2 2 17 136 137 763 754
828 3 2 2 17 754 763 764 755
829 3 2 2 17 755 764 765 756
830 3 2 2 17 756 765 766 757
831 3 2 2 17 757 766 767 758
832 3 2 2 17 758 767 768 759
833 3 2 2 17 759 768 769 760
834 3 2 2 17 760 769 770 761
835 3 2 2 17 761 770 771 762
836 3 2 2 17 762 771 172 171
837 3 2 2 17 137 138 772 763
838 3 2 2 17 763 772 773 764
839 3 2 2 17 764 773 774 765
840 3 2 2 17 765 774 775 766
841 3 2 2 17 766 775 776 767
842 3 2 2 17 767 776 777 768
843 3 2 2 17 768 777 778 769
844 3 2 2 17 769 778 779 770
845 3 2 2 17 770 779 780 771
846 3 2 2 17 771 780 173 172
847 3 2 2 17 138 139 781 772
848 3 2 2 17 772 781 782 773
849 3 2 2 17 773 782 783 774
850 3 2 2 17 774 783 784 775
851 3 2 2 17 775 784 785 776
852 3 2 2 17 776 785 786 777
853 3 2 2 17 777 786 787 778
854 3 2 2 17 778 787 788 779
855 3 2 2 17 779 788 789 780
856 3 2 2 17 780 789 174 173
857 3 2 2 17 139 140 790 781
858 3 2 2 17 781 790 791 782
859 3 2 2 17 782 791 792 783
860 3 2 2 17 783 792 793 784
861 3 2 2 17 784 793 794 785
862 3 2 2 17 785 794 795 786
863 3 2 2 17 786 795 796 787
864 3 2 2 17 787 796 797 788
865 3 2 2 17 788 797 798 789
866 3 2 2 17 789 798 175 174
867 3 2 2 17 140 141 799 790
868 3 2 2 17 790 799 800 791
869 3 2 2 17 791 800 801 792
870 3 2 2 17 792 801 802 793
871 3 2 2 17 793 802 803 794
872 3 2 2 17 794 803 804 795
873 3 2 2 17 795 804 805 796
874 3 2 2 17 796 805 806 797
875 3 2 2 17 797 806 807 798
876 3 2 2 17 798 807 176 175
877 3 2 2 17 141 142 808 799
878 3 2 2 17 799 808 809 800
879 3 2 2 17 800 809 810 801
880 3 2 2 17 801 810 811 802
881 3 2 2 17 802 811 812 803
882 3 2 2 17 803 812 813 804
883 3 2 2 17 804 813 814 805
884 3 2 2 17 805 814 815 806
885 3 2 2 17 806 815 816 807
886 3 2 2 17 807 816 177 176
887 3 2 2 17 142 143 817 808
888 3 2 2 17 808 817 818 809
889 3 2 2 17 809 818 819 810
890 3 2 2 17 810 819 820 811
891 3 2 2 17 811 820 821 812
892 3 2 2 17 812 821 822 813
893 3 2 2 17 813 822 823 814
894 3 2 2 17 814 823 824 815
895 3 2 2 17 815 824 825 816
896 3 2 2 17 816 825 178 177
897 3 2 2 17 143 144 826 817
898 3 2 2 17 817 826 827 818
899 3 2 2 17 818 827 828 819
900 3 2 2 17 819 828 829 820
901 3 2 2 17 820 829 830 821
902 3 2 2 17 821 830 831 822
903 3 2 2 17 822 831 832 823
904 3 2 2 17 823 832 833 824
905 3 2 2 17 824 833 834 825
906 3 2 2 17 825 834 179 178
907 3 2 2 17 144 145 835 826
908 3 2 2 17 826 835 836 827
909 3 2 2 17 827 836 837 828
910 3 2 2 17 828 837 838 829
911 3 2 2 17 829 838 839 830
912 3 2 2 17 830 839 840 831
913 3 2 2 17 831 840 841 832
914 3 2 2 17 832 841 842 833
915 3 2 2 17 833 842 843 834
916 3 2 2 17 834 843 180 179
917 3 2 2 17 145 146 844 835
918 3 2 2 17 835 844 845 836
919 3 2 2 17 836 845 846 837
920 3 2 2 17 837 846 847 838
921 3 2 2 17 838 847 848 839
922 3 2 2 17 839 848 849 840
923 3 2 2 17 840 849 850 841
924 3 2 2 17 841 850 851 842
925 3 2 2 17 842 851 852 843
926 3 2 2 17 843 852 181 180
927 3 2 2 17 146 147 853 844
928 3 2 2 17 844 853 854 845
929 3 2 2 17 845 854 855 846
930 3 2 2 17 846 855 856 847
931 3 2 2 17 847 856 857 848
932 3 2 2 17 848 857 858 849
933 3 2 2 17 849 858 859 850
934 3 2 2 17 850 859 860 851
935 3 2 2 17 851 860 861 852
936 3 2 2 17 852 861 182 181
937 3 2 2 17 147 148 862 853
938 3 2 2 17 853 862 863 854
939 3 2 2 17 854 863 864 855
940 3 2 2 17 855 864 865 856
941 3 2 2 17 856 865 866 857
942 3 2 2 17 857 866 867 858
943 3 2 2 17 858 867 868 859
944 3 2 2 17 859 868 869 860
945 3 2 2 17 860 869 870 861
946 3 2 2 17 861 870 183 182
947 3 2 2 17 148 8 193 862
948 3 2 2 17 862 193 194 863
949 3 2 2 17 863 194 195 864
950 3 2 2 17 864 195 196 865
951 3 2 2 17 865 196 197 866
952 3 2 2 17 866 197 198 867
953 3 2 2 17 867 198 199 868
954 3 2 2 17 868 199 200 869
955 3 2 2 17 869 200 201 870
956 3 2 2 17 870 201 10 183
957 3 2 1 21 9 155 871 231
958 3 2 1 21 231 871 202 11
959 3 2 1 21 155 156 872 871
960 3 2 1 21 871 872 203 202
961 3 2 1 21 156 157 873 872
962 3 2 1 21 872 873 204 203
963 3 2 1 21 157 158 874 873
964 3 2 1 21 873 874 205 204
965 3 2 1 21 158 159 875 874
966 3 2 1 21 874 875 206 205
967 3 2 1 21 159 160 876 875
968 3 2 1 21 875 876 207 206
969 3 2 1 21 160 161 877 876
970 3 2 1 21 876 877 208 207
971 3 2 1 21 161 162 878 877
972 3 2 1 21 877 878 209 208
973 3 2 1 21 162 163 879 878
974 3 2 1 21 878 879 210 209
975 3 2 1 21 163 164 880 879
976 3 2 1 21 879 880 211 210
977 3 2 1 21 164 165 881 880
978 3 2 1 21 880 881 212 211
979 3 2 1 21 165 166 882 881
980 3 2 1 21 881 882 213 212
981 3 2 1 21 166 167 883 882
982 3 2 1 21 882 883 214 213
983 3 2 1 21 167 168 884 883
984 3 2 1 21 883 884 215 214
985 3 2 1 21 168 169 885 884
986 3 2 1 21 884 885 216 215
987 3 2 1 21 169 170 886 885
988 3 2 1 21 885 886 217 216
989 3 2 1 21 170 171 887 886
990 3 2 1 21 886 887 218 217
991 3 2 1 21 171 172 888 887
992 3 2 1 21 887 888 219 218
993 3 2 1 21 172 173 889 888
994 3 2 1 21 888 889 220 219
995 3 2 1 21 173 174 890 889
996 3 2 1 21 889 890 221 220
997 3 2 1 21 174 175 891 890
998 3 2 1 21 890 891 222 221
999 3 2 1 21 175 176 892 891
1000 3 2 1 21 891 892 223 222
1001 3 2 1 21 176 177 893 892
1002 3 2 1 21 892 893 224 223
1003 3 2 1 21 177 178 894 893
1004 3 2 1 21 893 894 225 224
1005 3 2 1 21 178 179 895 894
1006 3 2 1 21 894 895 226 225
1007 3 2 1 21 179 180 896 895
1008 3 2 1 21 895 896 227 226
1009 3 2 1 21 180 181 897 896
1010 3 2 1 21 896 897 228 227
1011 3 2 1 21 181 182 898 897
1012 3 2 1 21 897 898 229 228
1013 3 2 1 21 182 183 899 898
1014 3 2 1 21 898 899 230 229
1015 3 2 1 21 183 10 232 899
1016 3 2 1 21 899 232 12 230
$EndElements
