$MeshFormat
2.2 0 8
$EndMeshFormat
$PhysicalNames
2
2 2 "S_aluminium"
3 1 "V_aluminium"
$EndPhysicalNames
$Nodes
780
1 0.005 0 0
2 0.01 0 0
3 0 0 -0.005
4 0 0 -0.01
5 -0.005 0 0
6 -0.01 0 0
7 0 0 0.005
8 0 0 0.01
9 0.005 0.001 0
10 0.01 0.001 0
11 0 0.001 -0.005
12 0 0.001 -0.01
13 -0.005 0.001 0
14 -0.01 0.001 0
15 0 0.001 0.005
16 0 0.001 0.01
17 -0.004285714285716018 0.001 0.0007142857142839822
18 -0.003571428571432033 0.001 0.001428571428567967
19 -0.002857142857148712 0.001 0.002142857142851288
20 -0.002142857142863009 0.001 0.002857142857136991
21 -0.001428571428575057 0.001 0.003571428571424943
22 -0.0007142857142872746 0.001 0.004285714285712726
23 0.0007142857142839822 0.001 0.004285714285716018
24 0.001428571428567967 0.001 0.003571428571432033
25 0.002142857142851288 0.001 0.002857142857148712
26 0.002857142857136991 0.001 0.002142857142863009
27 0.003571428571424943 0.001 0.001428571428575057
28 0.004285714285712726 0.001 0.0007142857142872746
29 0.004285714285716018 0.001 -0.0007142857142839822
30 0.003571428571432033 0.001 -0.001428571428567967
31 0.002857142857148712 0.001 -0.002142857142851288
32 0.002142857142863009 0.001 -0.002857142857136991
33 0.001428571428575057 0.001 -0.003571428571424943
34 0.0007142857142872746 0.001 -0.004285714285712726
35 -0.0007142857142839822 0.001 -0.004285714285716018
36 -0.001428571428567967 0.001 -0.003571428571432033
37 -0.002142857142851288 0.001 -0.002857142857148712
38 -0.002857142857136991 0.001 -0.002142857142863009
39 -0.003571428571424943 0.001 -0.001428571428575057
40 -0.004285714285712726 0.001 -0.0007142857142872746
41 0 0.001 -0.005714285714283609
42 0 0.001 -0.006428571428567727
43 0 0.001 -0.007142857142850999
44 0 0.001 -0.007857142857136859
45 0 0.001 -0.008571428571424799
46 0 0.001 -0.009285714285712739
47 0.005714285714283609 0.001 0
48 0.006428571428567727 0.001 0
49 0.007142857142850999 0.001 0
50 0.007857142857136859 0.001 0
51 0.008571428571424799 0.001 0
52 0.009285714285712739 0.001 0
53 0 0.001 0.005714285714283609
54 0 0.001 0.006428571428567727
55 0 0.001 0.007142857142850999
56 0 0.001 0.007857142857136859
57 0 0.001 0.008571428571424799
58 0 0.001 0.009285714285712739
59 -0.005714285714283609 0.001 0
60 -0.006428571428567727 0.001 0
61 -0.007142857142850999 0.001 0
62 -0.007857142857136859 0.001 0
63 -0.008571428571424799 0.001 0
64 -0.009285714285712739 0.001 0
65 -0.004285714285716018 0 -0.0007142857142839822
66 -0.003571428571432033 0 -0.001428571428567967
67 -0.002857142857148712 0 -0.002142857142851288
68 -0.002142857142863009 0 -0.002857142857136991
69 -0.001428571428575057 0 -0.003571428571424943
70 -0.0007142857142872746 0 -0.004285714285712726
71 0.0007142857142839822 0 -0.004285714285716018
72 0.001428571428567967 0 -0.003571428571432033
73 0.002142857142851288 0 -0.002857142857148712
74 0.002857142857136991 0 -0.002142857142863009
75 0.003571428571424943 0 -0.001428571428575057
76 0.004285714285712726 0 -0.0007142857142872746
77 0.004285714285716018 0 0.0007142857142839822
78 0.003571428571432033 0 0.001428571428567967
79 0.002857142857148712 0 0.002142857142851288
80 0.002142857142863009 0 0.002857142857136991
81 0.001428571428575057 0 0.003571428571424943
82 0.0007142857142872746 0 0.004285714285712726
83 -0.0007142857142839822 0 0.004285714285716018
84 -0.001428571428567967 0 0.003571428571432033
85 -0.002142857142851288 0 0.002857142857148712
86 -0.002857142857136991 0 0.002142857142863009
87 -0.003571428571424943 0 0.001428571428575057
88 -0.004285714285712726 0 0.0007142857142872746
89 -0.005714285714283609 0 0
90 -0.006428571428567727 0 0
91 -0.007142857142850999 0 0
92 -0.007857142857136859 0 0
93 -0.008571428571424799 0 0
94 -0.009285714285712739 0 0
95 0 0 -0.005714285714283609
96 0 0 -0.006428571428567727
97 0 0 -0.007142857142850999
98 0 0 -0.007857142857136859
99 0 0 -0.008571428571424799
100 0 0 -0.009285714285712739
101 0.005714285714283609 0 0
102 0.006428571428567727 0 0
103 0.007142857142850999 0 0
104 0.007857142857136859 0 0
105 0.008571428571424799 0 0
106 0.009285714285712739 0 0
107 0 0 0.005714285714283609
108 0 0 0.006428571428567727
109 0 0 0.007142857142850999
110 0 0 0.007857142857136859
111 0 0 0.008571428571424799
112 0 0 0.009285714285712739
113 0.009749279121819698 0.001 -0.002225209339556742
114 0.009009688679029845 0.001 -0.004338837391163844
115 0.007818314824691098 0.001 -0.006234898018573793
116 0.006234898018600146 0.001 -0.007818314824670082
117 0.004338837391183342 0.001 -0.009009688679020455
118 0.002225209339566085 0.001 -0.009749279121817564
119 -0.002225209339556742 0.001 -0.009749279121819698
120 -0.004338837391163844 0.001 -0.009009688679029845
121 -0.006234898018573793 0.001 -0.007818314824691098
122 -0.007818314824670082 0.001 -0.006234898018600146
123 -0.009009688679020455 0.001 -0.004338837391183342
124 -0.009749279121817564 0.001 -0.002225209339566085
125 -0.009749279121819698 0.001 0.002225209339556742
126 -0.009009688679029845 0.001 0.004338837391163844
127 -0.007818314824691098 0.001 0.006234898018573793
128 -0.006234898018600146 0.001 0.007818314824670082
129 -0.004338837391183342 0.001 0.009009688679020455
130 -0.002225209339566085 0.001 0.009749279121817564
131 0.002225209339556742 0.001 0.009749279121819698
132 0.004338837391163844 0.001 0.009009688679029845
133 0.006234898018573793 0.001 0.007818314824691098
134 0.007818314824670082 0.001 0.006234898018600146
135 0.009009688679020455 0.001 0.004338837391183342
136 0.009749279121817564 0.001 0.002225209339566085
137 0.009749279121819698 0 -0.002225209339556742
138 0.009009688679029845 0 -0.004338837391163844
139 0.007818314824691098 0 -0.006234898018573793
140 0.006234898018600146 0 -0.007818314824670082
141 0.004338837391183342 0 -0.009009688679020455
142 0.002225209339566085 0 -0.009749279121817564
143 -0.002225209339556742 0 -0.009749279121819698
144 -0.004338837391163844 0 -0.009009688679029845
145 -0.006234898018573793 0 -0.007818314824691098
146 -0.007818314824670082 0 -0.006234898018600146
147 -0.009009688679020455 0 -0.004338837391183342
148 -0.009749279121817564 0 -0.002225209339566085
149 -0.009749279121819698 0 0.002225209339556742
150 -0.009009688679029845 0 0.004338837391163844
151 -0.007818314824691098 0 0.006234898018573793
152 -0.006234898018600146 0 0.007818314824670082
153 -0.004338837391183342 0 0.009009688679020455
154 -0.002225209339566085 0 0.009749279121817564
155 0.002225209339556742 0 0.009749279121819698
156 0.004338837391163844 0 0.009009688679029845
157 0.006234898018573793 0 0.007818314824691098
158 0.007818314824670082 0 0.006234898018600146
159 0.009009688679020455 0 0.004338837391183342
160 0.009749279121817564 0 0.002225209339566085
161 -0.01 0.0004999999999987165 0
162 -0.005 0.0004999999999987165 0
163 0 0.0004999999999987165 0.01
164 0 0.0004999999999987165 0.005
165 0.01 0.0004999999999987165 0
166 0.005 0.0004999999999987165 0
167 0 0.0004999999999987165 -0.01
168 0 0.0004999999999987165 -0.005
169 -0.003571428571428744 0.001 -2.352176613207302e-15
170 -0.002857142857141032 0.001 -0.0007142857142891216
171 -0.002142857142853271 0.001 -0.001428571428575942
172 -0.001428571428567098 0.001 -0.002142857142861173
173 -0.0007142857142826457 0.001 -0.002857142857144686
174 2.351092411034816e-15 0.001 -0.003571428571428742
175 -0.002857142857144686 0.001 0.0007142857142826459
176 -0.002142857142856976 0.001 -3.038151327738881e-15
177 -0.001428571428569333 0.001 -0.0007142857142886549
178 -0.0007142857142826181 0.001 -0.001428571428573345
179 3.037717646869886e-15 0.001 -0.002142857142856975
180 0.0007142857142891211 0.001 -0.002857142857141033
181 -0.002142857142861174 0.001 0.001428571428567099
182 -0.001428571428573344 0.001 0.0007142857142826186
183 -0.0007142857142857034 0.001 -1.674224994752116e-15
184 1.674224994752116e-15 0.001 -0.0007142857142857034
185 0.0007142857142886546 0.001 -0.001428571428569334
186 0.001428571428575942 0.001 -0.002142857142853271
187 -0.00142857142857594 0.001 0.002142857142853274
188 -0.0007142857142886549 0.001 0.001428571428569334
189 -1.673791313883122e-15 0.001 0.0007142857142857036
190 0.0007142857142857041 0.001 1.674008154317619e-15
191 0.001428571428573345 0.001 -0.0007142857142826181
192 0.002142857142861173 0.001 -0.001428571428567098
193 -0.0007142857142891216 0.001 0.002857142857141032
194 -3.038151327738881e-15 0.0009999999999999998 0.002142857142856976
195 0.0007142857142826183 0.001 0.001428571428573345
196 0.001428571428569335 0.001 0.0007142857142886555
197 0.002142857142856976 0.001 3.039018689476869e-15
198 0.002857142857144687 0.001 -0.0007142857142826464
199 -2.351634512121059e-15 0.001 0.003571428571428743
200 0.0007142857142826455 0.001 0.002857142857144686
201 0.0014285714285671 0.001 0.002142857142861175
202 0.00214285714285327 0.001 0.001428571428575941
203 0.002857142857141033 0.001 0.0007142857142891221
204 0.003571428571428742 0.001 2.351634512121059e-15
205 -0.005066223548014256 0.001 0.0009301319464652589
206 -0.005846732810313046 0.001 0.00114597817864666
207 -0.006627242072610908 0.001 0.001361824410827775
208 -0.007407751334911593 0.001 0.001577670643009642
209 -0.008188260597214544 0.001 0.001793516875192106
210 -0.008968769859517495 0.001 0.002009363107374542
211 -0.004348322872515114 0.001 0.001844323708937735
212 -0.005125217173598759 0.001 0.002260075989307747
213 -0.005902111474681494 0.001 0.002675828269677216
214 -0.006679005775767054 0.001 0.003091580550048141
215 -0.007455900076854885 0.001 0.003507332830420225
216 -0.008232794377942727 0.001 0.003923085110792258
217 -0.003565881709652719 0.001 0.002727434410809863
218 -0.004274620562157217 0.001 0.003312011678768872
219 -0.004983359414660861 0.001 0.003896588946727213
220 -0.005692098267167059 0.001 0.004481166214687687
221 -0.006400837119675313 0.001 0.005065743482649888
222 -0.007109575972183549 0.001 0.005650320750612108
223 -0.002727434410823849 0.001 0.003565881709639554
224 -0.003312011678785068 0.001 0.004274620562142646
225 -0.003896588946745557 0.001 0.004983359414644925
226 -0.004481166214708125 0.001 0.005692098267149795
227 -0.005065743482672354 0.001 0.006400837119656756
228 -0.005650320750636547 0.001 0.007109575972163742
229 -0.001844323708946643 0.001 0.004348322872507686
230 -0.002260075989318458 0.001 0.005125217173590997
231 -0.002675828269689716 0.001 0.005902111474673401
232 -0.00309158055006241 0.001 0.006679005775758634
233 -0.003507332830436256 0.001 0.007455900076846138
234 -0.003923085110810028 0.001 0.008232794377933658
235 -0.0009301319464694773 0.001 0.005066223548011137
236 -0.001145978178651783 0.0009999999999999998 0.005846732810310098
237 -0.001361824410833783 0.001 0.00662724207260813
238 -0.001577670643016516 0.001 0.007407751334908981
239 -0.001793516875199825 0.001 0.008188260597212097
240 -0.002009363107383081 0.001 0.008968769859515207
241 -0.005066223548011138 0.001 -0.0009301319464694782
242 -0.004348322872507686 0.001 -0.001844323708946643
243 -0.003565881709639553 0.001 -0.002727434410823851
244 -0.002727434410809861 0.001 -0.003565881709652719
245 -0.001844323708937735 0.001 -0.004348322872515114
246 -0.0009301319464652591 0.001 -0.005066223548014256
247 -0.005846732810310101 0.001 -0.001145978178651784
248 -0.005125217173590999 0.0009999999999999998 -0.002260075989318457
249 -0.004274620562142646 0.001 -0.003312011678785069
250 -0.003312011678768871 0.001 -0.004274620562157216
251 -0.002260075989307749 0.001 -0.005125217173598757
252 -0.00114597817864666 0.001 -0.005846732810313044
253 -0.00662724207260813 0.001 -0.001361824410833783
254 -0.005902111474673399 0.001 -0.002675828269689714
255 -0.004983359414644922 0.001 -0.003896588946745559
256 -0.003896588946727211 0.001 -0.004983359414660862
257 -0.002675828269677218 0.001 -0.005902111474681493
258 -0.001361824410827775 0.001 -0.006627242072610908
259 -0.007407751334908981 0.001 -0.001577670643016515
260 -0.006679005775758633 0.001 -0.00309158055006241
261 -0.005692098267149796 0.001 -0.004481166214708125
262 -0.004481166214687687 0.001 -0.005692098267167061
263 -0.003091580550048143 0.001 -0.006679005775767052
264 -0.001577670643009642 0.001 -0.007407751334911593
265 -0.008188260597212095 0.001 -0.001793516875199823
266 -0.007455900076846139 0.0009999999999999998 -0.003507332830436252
267 -0.006400837119656757 0.001 -0.005065743482672354
268 -0.005065743482649888 0.001 -0.006400837119675313
269 -0.003507332830420227 0.001 -0.007455900076854887
270 -0.001793516875192105 0.001 -0.008188260597214548
271 -0.008968769859515204 0.0009999999999999998 -0.00200936310738308
272 -0.008232794377933655 0.001 -0.003923085110810025
273 -0.007109575972163742 0.001 -0.005650320750636547
274 -0.005650320750612106 0.001 -0.007109575972183549
275 -0.003923085110792258 0.001 -0.008232794377942726
276 -0.00200936310737454 0.001 -0.008968769859517495
277 0.0009301319464694782 0.001 -0.005066223548011138
278 0.001844323708946643 0.001 -0.004348322872507686
279 0.002727434410823851 0.001 -0.003565881709639553
280 0.003565881709652719 0.001 -0.002727434410809861
281 0.004348322872515114 0.001 -0.001844323708937735
282 0.005066223548014256 0.001 -0.0009301319464652591
283 0.001145978178651784 0.001 -0.005846732810310101
284 0.002260075989318457 0.0009999999999999998 -0.005125217173590999
285 0.003312011678785069 0.001 -0.004274620562142646
286 0.004274620562157216 0.001 -0.003312011678768871
287 0.005125217173598757 0.001 -0.002260075989307749
288 0.005846732810313044 0.001 -0.00114597817864666
289 0.001361824410833783 0.001 -0.00662724207260813
290 0.002675828269689714 0.001 -0.005902111474673399
291 0.003896588946745559 0.001 -0.004983359414644922
292 0.004983359414660862 0.001 -0.003896588946727211
293 0.005902111474681493 0.001 -0.002675828269677218
294 0.006627242072610908 0.001 -0.001361824410827775
295 0.001577670643016515 0.001 -0.007407751334908981
296 0.00309158055006241 0.001 -0.006679005775758633
297 0.004481166214708125 0.001 -0.005692098267149796
298 0.005692098267167061 0.001 -0.004481166214687687
299 0.006679005775767052 0.001 -0.003091580550048143
300 0.007407751334911593 0.001 -0.001577670643009642
301 0.001793516875199823 0.001 -0.008188260597212095
302 0.003507332830436252 0.0009999999999999998 -0.007455900076846139
303 0.005065743482672354 0.001 -0.006400837119656757
304 0.006400837119675313 0.001 -0.005065743482649888
305 0.007455900076854887 0.001 -0.003507332830420227
306 0.008188260597214548 0.001 -0.001793516875192105
307 0.00200936310738308 0.0009999999999999998 -0.008968769859515204
308 0.003923085110810025 0.001 -0.008232794377933655
309 0.005650320750636547 0.001 -0.007109575972163742
310 0.007109575972183549 0.001 -0.005650320750612106
311 0.008232794377942726 0.001 -0.003923085110792258
312 0.008968769859517495 0.001 -0.00200936310737454
313 0.005066223548011138 0.001 0.0009301319464694782
314 0.004348322872507686 0.001 0.001844323708946643
315 0.003565881709639553 0.001 0.002727434410823851
316 0.002727434410809861 0.001 0.003565881709652719
317 0.001844323708937735 0.001 0.004348322872515114
318 0.0009301319464652591 0.001 0.005066223548014256
319 0.005846732810310101 0.001 0.001145978178651784
320 0.005125217173590999 0.0009999999999999998 0.002260075989318457
321 0.004274620562142646 0.001 0.003312011678785069
322 0.003312011678768871 0.001 0.004274620562157216
323 0.002260075989307749 0.001 0.005125217173598757
324 0.00114597817864666 0.001 0.005846732810313044
325 0.00662724207260813 0.001 0.001361824410833783
326 0.005902111474673399 0.001 0.002675828269689714
327 0.004983359414644922 0.001 0.003896588946745559
328 0.003896588946727211 0.001 0.004983359414660862
329 0.002675828269677218 0.001 0.005902111474681493
330 0.001361824410827775 0.001 0.006627242072610908
331 0.007407751334908981 0.001 0.001577670643016515
332 0.006679005775758633 0.001 0.00309158055006241
333 0.005692098267149796 0.001 0.004481166214708125
334 0.004481166214687687 0.001 0.005692098267167061
335 0.003091580550048143 0.001 0.006679005775767052
336 0.001577670643009642 0.001 0.007407751334911593
337 0.008188260597212095 0.001 0.001793516875199823
338 0.007455900076846139 0.0009999999999999998 0.003507332830436252
339 0.006400837119656757 0.001 0.005065743482672354
340 0.005065743482649888 0.001 0.006400837119675313
341 0.003507332830420227 0.001 0.007455900076854887
342 0.001793516875192105 0.001 0.008188260597214548
343 0.008968769859515204 0.0009999999999999998 0.00200936310738308
344 0.008232794377933655 0.001 0.003923085110810025
345 0.007109575972163742 0.001 0.005650320750636547
346 0.005650320750612106 0.001 0.007109575972183549
347 0.003923085110792258 0.001 0.008232794377942726
348 0.00200936310737454 0.001 0.008968769859517495
349 0.0007142857142856285 0.0004999999999987164 -0.004285714285714372
350 0.001428571428571512 0.0004999999999987164 -0.003571428571428487
351 0.002142857142857149 0.0004999999999987165 -0.002857142857142852
352 0.002857142857142854 0.0004999999999987164 -0.002142857142857147
353 0.003571428571428487 0.0004999999999987164 -0.001428571428571512
354 0.004285714285714371 0.0004999999999987164 -0.0007142857142856294
355 0.0007142857142856284 0.0004999999999987165 0.004285714285714372
356 0.001428571428571512 0.0004999999999987166 0.003571428571428488
357 0.002142857142857149 0.0004999999999987165 0.002857142857142852
358 0.002857142857142852 0.0004999999999987166 0.002142857142857148
359 0.003571428571428489 0.0004999999999987166 0.001428571428571511
360 0.004285714285714372 0.0004999999999987166 0.0007142857142856285
361 -0.0007142857142856285 0.0004999999999987164 0.004285714285714372
362 -0.001428571428571512 0.0004999999999987164 0.003571428571428487
363 -0.002142857142857149 0.0004999999999987166 0.002857142857142852
364 -0.002857142857142852 0.0004999999999987164 0.002142857142857149
365 -0.003571428571428487 0.0004999999999987164 0.001428571428571512
366 -0.004285714285714372 0.0004999999999987164 0.0007142857142856285
367 -0.004285714285714372 0.0004999999999987164 -0.0007142857142856285
368 -0.003571428571428487 0.0004999999999987164 -0.001428571428571512
369 -0.002857142857142852 0.0004999999999987166 -0.002142857142857149
370 -0.002142857142857149 0.0004999999999987164 -0.002857142857142852
371 -0.001428571428571512 0.0004999999999987164 -0.003571428571428487
372 -0.0007142857142856285 0.0004999999999987164 -0.004285714285714372
373 0.00928571428571274 0.0004999999999987164 0
374 0.008571428571424799 0.0004999999999987165 0
375 0.007857142857136861 0.0004999999999987166 0
376 0.007142857142850999 0.0004999999999987164 0
377 0.006428571428567727 0.0004999999999987164 0
378 0.005714285714283609 0.0004999999999987164 0
379 0 0.0004999999999987164 0.005714285714283609
380 0 0.0004999999999987166 0.006428571428567728
381 0 0.0004999999999987164 0.007142857142850999
382 0 0.0004999999999987164 0.007857142857136859
383 0 0.0004999999999987163 0.008571428571424799
384 0 0.0004999999999987164 0.009285714285712739
385 -0.005714285714283609 0.0004999999999987164 0
386 -0.006428571428567728 0.0004999999999987166 0
387 -0.007142857142850999 0.0004999999999987164 0
388 -0.007857142857136859 0.0004999999999987164 0
389 -0.008571428571424799 0.0004999999999987163 0
390 -0.009285714285712739 0.0004999999999987164 0
391 0 0.0004999999999987164 -0.005714285714283609
392 0 0.0004999999999987166 -0.006428571428567728
393 0 0.0004999999999987164 -0.007142857142850999
394 0 0.0004999999999987164 -0.007857142857136859
395 0 0.0004999999999987163 -0.008571428571424799
396 0 0.0004999999999987164 -0.009285714285712739
397 0.002225209339556743 0.0004999999999987164 0.009749279121819696
398 0.004338837391163845 0.0004999999999987165 0.009009688679029843
399 0.006234898018573794 0.0004999999999987165 0.007818314824691096
400 0.007818314824670082 0.0004999999999987164 0.006234898018600148
401 0.009009688679020456 0.0004999999999987164 0.004338837391183342
402 0.009749279121817566 0.0004999999999987164 0.002225209339566085
403 0.009749279121819696 0.0004999999999987164 -0.002225209339556743
404 0.009009688679029843 0.0004999999999987165 -0.004338837391163845
405 0.007818314824691096 0.0004999999999987165 -0.006234898018573794
406 0.006234898018600148 0.0004999999999987164 -0.007818314824670082
407 0.004338837391183342 0.0004999999999987164 -0.009009688679020456
408 0.002225209339566085 0.0004999999999987164 -0.009749279121817566
409 -0.002225209339556743 0.0004999999999987164 -0.009749279121819696
410 -0.004338837391163845 0.0004999999999987165 -0.009009688679029843
411 -0.006234898018573794 0.0004999999999987165 -0.007818314824691096
412 -0.007818314824670082 0.0004999999999987164 -0.006234898018600148
413 -0.009009688679020456 0.0004999999999987164 -0.004338837391183342
414 -0.009749279121817566 0.0004999999999987164 -0.002225209339566085
415 -0.009749279121819696 0.0004999999999987164 0.002225209339556743
416 -0.009009688679029843 0.0004999999999987165 0.004338837391163845
417 -0.007818314824691096 0.0004999999999987165 0.006234898018573794
418 -0.006234898018600148 0.0004999999999987164 0.007818314824670082
419 -0.004338837391183342 0.0004999999999987164 0.009009688679020456
420 -0.002225209339566085 0.0004999999999987164 0.009749279121817566
421 -0.003571428571428744 0 2.352176613207302e-15
422 -0.002857142857141032 0 0.0007142857142891216
423 -0.002142857142853271 0 0.001428571428575942
424 -0.001428571428567098 0 0.002142857142861173
425 -0.0007142857142826457 0 0.002857142857144686
426 2.351092411034816e-15 0 0.003571428571428742
427 -0.002857142857144686 0 -0.0007142857142826459
428 -0.002142857142856976 0 3.038151327738881e-15
429 -0.001428571428569333 0 0.0007142857142886549
430 -0.0007142857142826181 0 0.001428571428573345
431 3.037717646869886e-15 0 0.002142857142856975
432 0.0007142857142891211 0 0.002857142857141033
433 -0.002142857142861174 0 -0.001428571428567099
434 -0.001428571428573344 0 -0.0007142857142826186
435 -0.0007142857142857034 0 1.674224994752116e-15
436 1.674224994752116e-15 0 0.0007142857142857034
437 0.0007142857142886546 0 0.001428571428569334
438 0.001428571428575942 0 0.002142857142853271
439 -0.00142857142857594 0 -0.002142857142853274
440 -0.0007142857142886549 0 -0.001428571428569334
441 -1.673791313883122e-15 0 -0.0007142857142857036
442 0.0007142857142857041 0 -1.674008154317619e-15
443 0.001428571428573345 0 0.0007142857142826181
444 0.002142857142861173 0 0.001428571428567098
445 -0.0007142857142891216 0 -0.002857142857141032
446 -3.038151327738881e-15 0 -0.002142857142856976
447 0.0007142857142826183 0 -0.001428571428573345
448 0.001428571428569335 0 -0.0007142857142886555
449 0.002142857142856976 0 -3.039018689476869e-15
450 0.002857142857144687 0 0.0007142857142826464
451 -2.351634512121059e-15 0 -0.003571428571428743
452 0.0007142857142826455 0 -0.002857142857144686
453 0.0014285714285671 0 -0.002142857142861175
454 0.00214285714285327 0 -0.001428571428575941
455 0.002857142857141033 0 -0.0007142857142891221
456 0.003571428571428742 0 -2.351634512121059e-15
457 0.0009301319464658233 0 -0.00506622354801384
458 0.001145978178648045 0 -0.005846732810312249
459 0.001361824410830239 0 -0.006627242072609769
460 0.001577670643013439 0 -0.007407751334910148
461 0.001793516875197496 0 -0.008188260597212836
462 0.002009363107381779 0 -0.008968769859515554
463 0.001844323708938976 0 -0.004348322872514079
464 0.002260075989310745 0 -0.005125217173596586
465 0.002675828269682484 0 -0.005902111474678082
466 0.003091580550056195 0 -0.006679005775762301
467 0.003507332830431579 0 -0.007455900076848691
468 0.003923085110807425 0 -0.008232794377934987
469 0.002727434410811714 0 -0.003565881709650976
470 0.003312011678773213 0 -0.004274620562153311
471 0.003896588946734681 0 -0.004983359414654373
472 0.00448116621469892 0 -0.005692098267157569
473 0.005065743482665521 0 -0.006400837119662399
474 0.005650320750632781 0 -0.007109575972166793
475 0.003565881709641297 0 -0.002727434410821998
476 0.00427462056214655 0 -0.003312011678780728
477 0.004983359414651411 0 -0.003896588946738088
478 0.005692098267159285 0 -0.004481166214696892
479 0.006400837119669668 0 -0.00506574348265672
480 0.007109575972180497 0 -0.005650320750615873
481 0.004348322872508721 0 -0.001844323708945401
482 0.005125217173593168 0 -0.002260075989315461
483 0.005902111474676813 0 -0.002675828269684447
484 0.006679005775763384 0 -0.003091580550054358
485 0.007455900076852334 0 -0.003507332830424901
486 0.008232794377941399 0 -0.003923085110794861
487 0.005066223548011554 0 -0.0009301319464689134
488 0.005846732810310896 0 -0.001145978178650398
489 0.006627242072609268 0 -0.001361824410831319
490 0.007407751334910423 0 -0.001577670643012719
491 0.008188260597213805 0 -0.001793516875194434
492 0.008968769859517143 0 -0.002009363107375846
493 0.002009363107375844 0 0.008968769859517143
494 0.001793516875194434 0 0.008188260597213805
495 0.001577670643012717 0 0.007407751334910421
496 0.00136182441083132 0 0.006627242072609269
497 0.001145978178650399 0 0.005846732810310895
498 0.0009301319464689131 0 0.005066223548011555
499 0.003923085110794859 0 0.008232794377941402
500 0.0035073328304249 0 0.007455900076852336
501 0.003091580550054359 0 0.006679005775763385
502 0.002675828269684447 0 0.005902111474676812
503 0.00226007598931546 0 0.005125217173593171
504 0.001844323708945402 0 0.004348322872508722
505 0.005650320750615874 0 0.007109575972180498
506 0.005065743482656721 0 0.006400837119669668
507 0.004481166214696893 0 0.005692098267159285
508 0.003896588946738089 0 0.004983359414651412
509 0.003312011678780729 0 0.004274620562146551
510 0.002727434410821999 0 0.003565881709641295
511 0.007109575972166793 0 0.005650320750632781
512 0.006400837119662398 0 0.005065743482665522
513 0.005692098267157571 0 0.004481166214698922
514 0.004983359414654373 0 0.00389658894673468
515 0.004274620562153312 0 0.003312011678773214
516 0.003565881709650976 0 0.002727434410811713
517 0.008232794377934985 0 0.003923085110807426
518 0.00745590007684869 0 0.003507332830431576
519 0.006679005775762302 0 0.003091580550056193
520 0.005902111474678083 0 0.002675828269682485
521 0.005125217173596588 0 0.002260075989310743
522 0.004348322872514079 0 0.001844323708938976
523 0.008968769859515552 0 0.002009363107381777
524 0.008188260597212837 0 0.001793516875197494
525 0.007407751334910149 0 0.00157767064301344
526 0.006627242072609769 0 0.001361824410830237
527 0.00584673281031225 0 0.001145978178648046
528 0.005066223548013839 0 0.0009301319464658243
529 -0.0009301319464658233 0 0.005066223548013839
530 -0.001844323708938976 0 0.004348322872514079
531 -0.002727434410811714 0 0.003565881709650975
532 -0.003565881709641296 0 0.002727434410821999
533 -0.004348322872508721 0 0.001844323708945402
534 -0.005066223548011555 0 0.0009301319464689133
535 -0.001145978178648046 0 0.00584673281031225
536 -0.002260075989310745 0 0.005125217173596586
537 -0.003312011678773213 0 0.004274620562153312
538 -0.00427462056214655 0 0.003312011678780728
539 -0.005125217173593168 0 0.002260075989315461
540 -0.005846732810310895 0 0.001145978178650399
541 -0.001361824410830237 0 0.006627242072609767
542 -0.002675828269682484 0 0.005902111474678081
543 -0.003896588946734679 0 0.004983359414654374
544 -0.004983359414651412 0 0.00389658894673809
545 -0.005902111474676813 0 0.002675828269684447
546 -0.006627242072609269 0 0.001361824410831321
547 -0.00157767064301344 0 0.007407751334910151
548 -0.003091580550056194 0 0.006679005775762302
549 -0.004481166214698922 0 0.005692098267157569
550 -0.005692098267159286 0 0.004481166214696892
551 -0.006679005775763384 0 0.003091580550054358
552 -0.007407751334910425 0 0.001577670643012717
553 -0.001793516875197497 0 0.008188260597212836
554 -0.00350733283043158 0 0.007455900076848689
555 -0.005065743482665523 0 0.006400837119662399
556 -0.00640083711966967 0 0.005065743482656718
557 -0.007455900076852334 0 0.003507332830424901
558 -0.008188260597213805 0 0.001793516875194434
559 -0.002009363107381779 0 0.00896876985951555
560 -0.003923085110807425 0 0.008232794377934984
561 -0.005650320750632781 0 0.007109575972166793
562 -0.007109575972180498 0 0.005650320750615873
563 -0.008232794377941399 0 0.003923085110794861
564 -0.008968769859517146 0 0.002009363107375843
565 -0.00506622354801384 0 -0.0009301319464658233
566 -0.005846732810312249 0 -0.001145978178648045
567 -0.006627242072609769 0 -0.001361824410830239
568 -0.007407751334910148 0 -0.001577670643013439
569 -0.008188260597212836 0 -0.001793516875197496
570 -0.008968769859515554 0 -0.002009363107381779
571 -0.004348322872514079 0 -0.001844323708938976
572 -0.005125217173596586 0 -0.002260075989310745
573 -0.005902111474678082 0 -0.002675828269682484
574 -0.006679005775762301 0 -0.003091580550056195
575 -0.007455900076848691 0 -0.003507332830431579
576 -0.008232794377934987 0 -0.003923085110807425
577 -0.003565881709650976 0 -0.002727434410811714
578 -0.004274620562153311 0 -0.003312011678773213
579 -0.004983359414654373 0 -0.003896588946734681
580 -0.005692098267157569 0 -0.00448116621469892
581 -0.006400837119662399 0 -0.005065743482665521
582 -0.007109575972166793 0 -0.005650320750632781
583 -0.002727434410821998 0 -0.003565881709641297
584 -0.003312011678780728 0 -0.00427462056214655
585 -0.003896588946738088 0 -0.004983359414651411
586 -0.004481166214696892 0 -0.005692098267159285
587 -0.00506574348265672 0 -0.006400837119669668
588 -0.005650320750615873 0 -0.007109575972180497
589 -0.001844323708945401 0 -0.004348322872508721
590 -0.002260075989315461 0 -0.005125217173593168
591 -0.002675828269684447 0 -0.005902111474676813
592 -0.003091580550054358 0 -0.006679005775763384
593 -0.003507332830424901 0 -0.007455900076852334
594 -0.003923085110794861 0 -0.008232794377941399
595 -0.0009301319464689134 0 -0.005066223548011554
596 -0.001145978178650398 0 -0.005846732810310896
597 -0.001361824410831319 0 -0.006627242072609268
598 -0.001577670643012719 0 -0.007407751334910423
599 -0.001793516875194434 0 -0.008188260597213805
600 -0.002009363107375846 0 -0.008968769859517143
601 -0.005066223548012488 0.0004999999999987161 -0.0009301319464676509
602 -0.004348322872510884 0.0004999999999987162 -0.00184432370894281
603 -0.003565881709645265 0.0004999999999987165 -0.002727434410817784
604 -0.00272743441081593 0.0004999999999987163 -0.003565881709647008
605 -0.001844323708941567 0.0004999999999987164 -0.004348322872511919
606 -0.0009301319464670866 0.0004999999999987162 -0.005066223548012903
607 -0.00584673281031118 0.0004999999999987166 -0.001145978178649915
608 -0.005125217173593795 0.0004999999999987164 -0.002260075989314601
609 -0.004274620562147977 0.0004999999999987165 -0.003312011678779142
610 -0.003312011678774801 0.0004999999999987165 -0.004274620562151883
611 -0.002260075989311605 0.0004999999999987166 -0.005125217173595963
612 -0.00114597817864853 0.0004999999999987164 -0.005846732810311971
613 -0.006627242072608949 0.0004999999999987164 -0.00136182441083201
614 -0.005902111474675742 0.0004999999999987162 -0.002675828269686098
615 -0.004983359414649647 0.0004999999999987165 -0.003896588946740122
616 -0.003896588946732652 0.0004999999999987165 -0.004983359414656132
617 -0.002675828269680832 0.0004999999999987167 -0.005902111474679155
618 -0.001361824410829548 0.0004999999999987163 -0.006627242072610086
619 -0.007407751334909566 0.0004999999999987165 -0.001577670643014977
620 -0.006679005775760466 0.0004999999999987162 -0.003091580550059304
621 -0.005692098267153684 0.0004999999999987166 -0.004481166214703523
622 -0.004481166214692291 0.0004999999999987165 -0.005692098267163172
623 -0.003091580550051252 0.0004999999999987167 -0.006679005775765218
624 -0.001577670643011181 0.0004999999999987163 -0.007407751334911004
625 -0.00818826059721247 0.0004999999999987163 -0.00179351687519866
626 -0.007455900076847415 0.000499999999998716 -0.003507332830433914
627 -0.006400837119659577 0.0004999999999987163 -0.005065743482668941
628 -0.005065743482653306 0.0004999999999987163 -0.006400837119672492
629 -0.003507332830422564 0.0004999999999987164 -0.007455900076853611
630 -0.001793516875193269 0.0004999999999987161 -0.008188260597214175
631 -0.008968769859515377 0.0004999999999987163 -0.00200936310738243
632 -0.008232794377934323 0.0004999999999987162 -0.003923085110808724
633 -0.007109575972165267 0.0004999999999987162 -0.005650320750634668
634 -0.005650320750613991 0.0004999999999987165 -0.007109575972182018
635 -0.00392308511079356 0.0004999999999987166 -0.008232794377942058
636 -0.002009363107375194 0.0004999999999987162 -0.008968769859517315
637 -0.0009301319464676507 0.0004999999999987164 0.005066223548012489
638 -0.001145978178649915 0.0004999999999987163 0.005846732810311175
639 -0.001361824410832011 0.0004999999999987163 0.00662724207260895
640 -0.001577670643014979 0.0004999999999987165 0.007407751334909568
641 -0.001793516875198662 0.000499999999998716 0.008188260597212466
642 -0.002009363107382429 0.0004999999999987165 0.00896876985951538
643 -0.001844323708942811 0.0004999999999987162 0.004348322872510883
644 -0.002260075989314603 0.0004999999999987164 0.005125217173593793
645 -0.002675828269686099 0.0004999999999987163 0.00590211147467574
646 -0.003091580550059304 0.0004999999999987165 0.00667900577576047
647 -0.003507332830433919 0.0004999999999987161 0.007455900076847415
648 -0.003923085110808727 0.0004999999999987165 0.008232794377934323
649 -0.002727434410817782 0.0004999999999987165 0.003565881709645265
650 -0.003312011678779144 0.0004999999999987169 0.004274620562147981
651 -0.00389658894674012 0.0004999999999987166 0.004983359414649651
652 -0.004481166214703524 0.0004999999999987165 0.005692098267153683
653 -0.005065743482668941 0.0004999999999987163 0.006400837119659575
654 -0.005650320750634667 0.0004999999999987165 0.007109575972165268
655 -0.003565881709647007 0.0004999999999987161 0.002727434410815929
656 -0.004274620562151884 0.0004999999999987165 0.003312011678774801
657 -0.004983359414656137 0.0004999999999987163 0.003896588946732652
658 -0.005692098267163174 0.0004999999999987163 0.004481166214692292
659 -0.006400837119672491 0.0004999999999987163 0.005065743482653305
660 -0.007109575972182022 0.0004999999999987163 0.005650320750613993
661 -0.004348322872511917 0.0004999999999987162 0.001844323708941569
662 -0.005125217173595962 0.0004999999999987165 0.002260075989311606
663 -0.005902111474679154 0.0004999999999987163 0.002675828269680833
664 -0.006679005775765217 0.0004999999999987163 0.003091580550051249
665 -0.007455900076853611 0.0004999999999987163 0.003507332830422563
666 -0.008232794377942065 0.0004999999999987163 0.003923085110793562
667 -0.005066223548012906 0.0004999999999987163 0.0009301319464670868
668 -0.005846732810311971 0.0004999999999987166 0.001145978178648531
669 -0.006627242072610087 0.0004999999999987163 0.001361824410829549
670 -0.00740775133491101 0.0004999999999987165 0.001577670643011181
671 -0.008188260597214172 0.0004999999999987161 0.00179351687519327
672 -0.00896876985951732 0.0004999999999987165 0.002009363107375194
673 0.0009301319464670867 0.0004999999999987163 0.005066223548012906
674 0.001844323708941569 0.0004999999999987163 0.00434832287251192
675 0.00272743441081593 0.0004999999999987164 0.003565881709647006
676 0.003565881709645268 0.0004999999999987165 0.002727434410817782
677 0.004348322872510886 0.0004999999999987165 0.001844323708942809
678 0.00506622354801249 0.0004999999999987163 0.0009301319464676513
679 0.00114597817864853 0.0004999999999987165 0.005846732810311968
680 0.002260075989311603 0.0004999999999987165 0.005125217173595964
681 0.003312011678774801 0.0004999999999987167 0.004274620562151884
682 0.004274620562147978 0.0004999999999987166 0.003312011678779142
683 0.005125217173593795 0.0004999999999987166 0.002260075989314599
684 0.005846732810311177 0.0004999999999987164 0.001145978178649915
685 0.001361824410829549 0.0004999999999987163 0.006627242072610087
686 0.002675828269680834 0.0004999999999987163 0.005902111474679153
687 0.003896588946732652 0.0004999999999987163 0.004983359414656136
688 0.00498335941464965 0.0004999999999987165 0.00389658894674012
689 0.00590211147467574 0.0004999999999987165 0.002675828269686099
690 0.006627242072608954 0.0004999999999987163 0.00136182441083201
691 0.001577670643011181 0.0004999999999987165 0.007407751334911008
692 0.003091580550051252 0.0004999999999987163 0.006679005775765216
693 0.004481166214692293 0.0004999999999987166 0.005692098267163173
694 0.005692098267153685 0.0004999999999987165 0.004481166214703524
695 0.00667900577576047 0.0004999999999987165 0.003091580550059302
696 0.007407751334909566 0.0004999999999987167 0.001577670643014978
697 0.00179351687519327 0.0004999999999987163 0.008188260597214173
698 0.003507332830422562 0.0004999999999987163 0.00745590007685361
699 0.005065743482653307 0.0004999999999987164 0.00640083711967249
700 0.006400837119659579 0.0004999999999987165 0.005065743482668944
701 0.007455900076847414 0.0004999999999987163 0.003507332830433913
702 0.008188260597212468 0.0004999999999987165 0.001793516875198659
703 0.002009363107375193 0.0004999999999987163 0.008968769859517316
704 0.003923085110793561 0.0004999999999987163 0.008232794377942061
705 0.005650320750613991 0.0004999999999987164 0.007109575972182023
706 0.007109575972165266 0.0004999999999987165 0.005650320750634668
707 0.008232794377934328 0.0004999999999987165 0.003923085110808725
708 0.00896876985951538 0.0004999999999987163 0.002009363107382429
709 0.00896876985951732 0.0004999999999987163 -0.002009363107375194
710 0.008232794377942061 0.0004999999999987164 -0.003923085110793561
711 0.007109575972182022 0.0004999999999987163 -0.005650320750613988
712 0.005650320750634667 0.0004999999999987165 -0.007109575972165268
713 0.003923085110808725 0.0004999999999987163 -0.008232794377934321
714 0.002009363107382431 0.0004999999999987163 -0.00896876985951538
715 0.008188260597214177 0.0004999999999987162 -0.00179351687519327
716 0.007455900076853609 0.0004999999999987165 -0.003507332830422562
717 0.006400837119672491 0.0004999999999987165 -0.005065743482653303
718 0.00506574348266894 0.0004999999999987163 -0.00640083711965958
719 0.003507332830433915 0.0004999999999987161 -0.007455900076847416
720 0.001793516875198661 0.0004999999999987161 -0.008188260597212466
721 0.007407751334911007 0.0004999999999987163 -0.001577670643011182
722 0.006679005775765213 0.0004999999999987165 -0.003091580550051251
723 0.005692098267163177 0.0004999999999987167 -0.004481166214692289
724 0.004481166214703525 0.0004999999999987165 -0.005692098267153682
725 0.003091580550059302 0.0004999999999987163 -0.006679005775760467
726 0.001577670643014979 0.0004999999999987163 -0.007407751334909564
727 0.006627242072610087 0.0004999999999987161 -0.001361824410829549
728 0.005902111474679152 0.0004999999999987163 -0.002675828269680833
729 0.004983359414656136 0.0004999999999987163 -0.003896588946732648
730 0.003896588946740121 0.0004999999999987165 -0.004983359414649649
731 0.0026758282696861 0.0004999999999987161 -0.005902111474675743
732 0.001361824410832011 0.0004999999999987163 -0.00662724207260895
733 0.005846732810311971 0.0004999999999987161 -0.00114597817864853
734 0.00512521717359596 0.0004999999999987162 -0.002260075989311606
735 0.004274620562151882 0.0004999999999987165 -0.0033120116787748
736 0.003312011678779141 0.0004999999999987165 -0.004274620562147977
737 0.002260075989314601 0.0004999999999987163 -0.005125217173593792
738 0.001145978178649915 0.0004999999999987163 -0.005846732810311179
739 0.005066223548012906 0.0004999999999987164 -0.0009301319464670873
740 0.004348322872511916 0.0004999999999987164 -0.001844323708941569
741 0.00356588170964701 0.0004999999999987163 -0.002727434410815929
742 0.002727434410817783 0.0004999999999987165 -0.003565881709645264
743 0.001844323708942809 0.0004999999999987163 -0.004348322872510883
744 0.0009301319464676511 0.0004999999999987163 -0.00506622354801249
745 -3.252606517456513e-19 0.0004999999999987165 0.003571428571428741
746 -0.0007142857142858837 0.0004999999999987164 0.002857142857142858
747 -0.001428571428571519 0.0004999999999987166 0.002142857142857223
748 -0.002142857142857223 0.0004999999999987164 0.00142857142857152
749 -0.002857142857142857 0.0004999999999987165 0.0007142857142858837
750 -0.003571428571428745 0.0004999999999987165 5.421010862427522e-20
751 0.0007142857142858837 0.0004999999999987166 0.002857142857142858
752 -6.505213034913027e-19 0.0004999999999987162 0.002142857142856975
753 -0.0007142857142856362 0.0004999999999987167 0.001428571428571339
754 -0.001428571428571339 0.0004999999999987164 0.0007142857142856363
755 -0.002142857142856976 0.0004999999999987165 2.168404344971009e-19
756 -0.002857142857142858 0.0004999999999987164 -0.0007142857142858841
757 0.001428571428571521 0.0004999999999987166 0.002142857142857222
758 0.0007142857142856369 0.0004999999999987169 0.001428571428571339
759 1.409462824231156e-18 0.0004999999999987165 0.0007142857142857042
760 -0.0007142857142857032 0.0004999999999987165 0
761 -0.001428571428571338 0.0004999999999987165 -0.0007142857142856364
762 -0.002142857142857222 0.000499999999998717 -0.00142857142857152
763 0.002142857142857222 0.0004999999999987165 0.001428571428571519
764 0.001428571428571339 0.0004999999999987164 0.0007142857142856365
765 0.0007142857142857051 0.0004999999999987169 9.75781955236954e-19
766 2.168404344971009e-19 0.0004999999999987165 -0.0007142857142857031
767 -0.0007142857142856358 0.0004999999999987165 -0.001428571428571339
768 -0.00142857142857152 0.0004999999999987163 -0.002142857142857223
769 0.002857142857142861 0.0004999999999987166 0.0007142857142858824
770 0.002142857142856978 0.0004999999999987164 -6.505213034913027e-19
771 0.001428571428571343 0.000499999999998717 -0.0007142857142856364
772 0.0007142857142856373 0.0004999999999987164 -0.001428571428571339
773 3.252606517456513e-19 0.0004999999999987165 -0.002142857142856973
774 -0.0007142857142858834 0.0004999999999987165 -0.002857142857142857
775 0.003571428571428742 0.0004999999999987165 -7.047314121155779e-19
776 0.002857142857142859 0.0004999999999987165 -0.0007142857142858847
777 0.002142857142857224 0.000499999999998717 -0.001428571428571518
778 0.00142857142857152 0.0004999999999987164 -0.002142857142857224
779 0.0007142857142858837 0.0004999999999987165 -0.002857142857142857
780 -2.710505431213761e-19 0.0004999999999987165 -0.003571428571428742
$EndNodes
$Elements
1148
1 3 2 2 34 13 17 169 40
2 3 2 2 34 40 169 170 39
3 3 2 2 34 39 170 171 38
4 3 2 2 34 38 171 172 37
5 3 2 2 34 37 172 173 36
6 3 2 2 34 36 173 174 35
7 3 2 2 34 35 174 34 11
8 3 2 2 34 17 18 175 169
9 3 2 2 34 169 175 176 170
10 3 2 2 34 170 176 177 171
11 3 2 2 34 171 177 178 172
12 3 2 2 34 172 178 179 173
13 3 2 2 34 173 179 180 174
14 3 2 2 34 174 180 33 34
15 3 2 2 34 18 19 181 175
16 3 2 2 34 175 181 182 176
17 3 2 2 34 176 182 183 177
18 3 2 2 34 177 183 184 178
19 3 2 2 34 178 184 185 179
20 3 2 2 34 179 185 186 180
21 3 2 2 34 180 186 32 33
22 3 2 2 34 19 20 187 181
23 3 2 2 34 181 187 188 182
24 3 2 2 34 182 188 189 183
25 3 2 2 34 183 189 190 184
26 3 2 2 34 184 190 191 185
27 3 2 2 34 185 191 192 186
28 3 2 2 34 186 192 31 32
29 3 2 2 34 20 21 193 187
30 3 2 2 34 187 193 194 188
31 3 2 2 34 188 194 195 189
32 3 2 2 34 189 195 196 190
33 3 2 2 34 190 196 197 191
34 3 2 2 34 191 197 198 192
35 3 2 2 34 192 198 30 31
36 3 2 2 34 21 22 199 193
37 3 2 2 34 193 199 200 194
38 3 2 2 34 194 200 201 195
39 3 2 2 34 195 201 202 196
40 3 2 2 34 196 202 203 197
41 3 2 2 34 197 203 204 198
42 3 2 2 34 198 204 29 30
43 3 2 2 34 22 15 23 199
44 3 2 2 34 199 23 24 200
45 3 2 2 34 200 24 25 201
46 3 2 2 34 201 25 26 202
47 3 2 2 34 202 26 27 203
48 3 2 2 34 203 27 28 204
49 3 2 2 34 204 28 9 29
50 3 2 2 36 13 17 205 59
51 3 2 2 36 59 205 206 60
52 3 2 2 36 60 206 207 61
53 3 2 2 36 61 207 208 62
54 3 2 2 36 62 208 209 63
55 3 2 2 36 63 209 210 64
56 3 2 2 36 64 210 125 14
57 3 2 2 36 17 18 211 205
58 3 2 2 36 205 211 212 206
59 3 2 2 36 206 212 213 207
60 3 2 2 36 207 213 214 208
61 3 2 2 36 208 214 215 209
62 3 2 2 36 209 215 216 210
63 3 2 2 36 210 216 126 125
64 3 2 2 36 18 19 217 211
65 3 2 2 36 211 217 218 212
66 3 2 2 36 212 218 219 213
67 3 2 2 36 213 219 220 214
68 3 2 2 36 214 220 221 215
69 3 2 2 36 215 221 222 216
70 3 2 2 36 216 222 127 126
71 3 2 2 36 19 20 223 217
72 3 2 2 36 217 223 224 218
73 3 2 2 36 218 224 225 219
74 3 2 2 36 219 225 226 220
75 3 2 2 36 220 226 227 221
76 3 2 2 36 221 227 228 222
77 3 2 2 36 222 228 128 127
78 3 2 2 36 20 21 229 223
79 3 2 2 36 223 229 230 224
80 3 2 2 36 224 230 231 225
81 3 2 2 36 225 231 232 226
82 3 2 2 36 226 232 233 227
83 3 2 2 36 227 233 234 228
84 3 2 2 36 228 234 129 128
85 3 2 2 36 21 22 235 229
86 3 2 2 36 229 235 236 230
87 3 2 2 36 230 236 237 231
88 3 2 2 36 231 237 238 232
89 3 2 2 36 232 238 239 233
90 3 2 2 36 233 239 240 234
91 3 2 2 36 234 240 130 129
92 3 2 2 36 22 15 53 235
93 3 2 2 36 235 53 54 236
94 3 2 2 36 236 54 55 237
95 3 2 2 36 237 55 56 238
96 3 2 2 36 238 56 57 239
97 3 2 2 36 239 57 58 240
98 3 2 2 36 240 58 16 130
99 3 2 2 38 13 59 241 40
100 3 2 2 38 40 241 242 39
101 3 2 2 38 39 242 243 38
102 3 2 2 38 38 243 244 37
103 3 2 2 38 37 244 245 36
104 3 2 2 38 36 245 246 35
105 3 2 2 38 35 246 41 11
106 3 2 2 38 59 60 247 241
107 3 2 2 38 241 247 248 242
108 3 2 2 38 242 248 249 243
109 3 2 2 38 243 249 250 244
110 3 2 2 38 244 250 251 245
111 3 2 2 38 245 251 252 246
112 3 2 2 38 246 252 42 41
113 3 2 2 38 60 61 253 247
114 3 2 2 38 247 253 254 248
115 3 2 2 38 248 254 255 249
116 3 2 2 38 249 255 256 250
117 3 2 2 38 250 256 257 251
118 3 2 2 38 251 257 258 252
119 3 2 2 38 252 258 43 42
120 3 2 2 38 61 62 259 253
121 3 2 2 38 253 259 260 254
122 3 2 2 38 254 260 261 255
123 3 2 2 38 255 261 262 256
124 3 2 2 38 256 262 263 257
125 3 2 2 38 257 263 264 258
126 3 2 2 38 258 264 44 43
127 3 2 2 38 62 63 265 259
128 3 2 2 38 259 265 266 260
129 3 2 2 38 260 266 267 261
130 3 2 2 38 261 267 268 262
131 3 2 2 38 262 268 269 263
132 3 2 2 38 263 269 270 264
133 3 2 2 38 264 270 45 44
134 3 2 2 38 63 64 271 265
135 3 2 2 38 265 271 272 266
136 3 2 2 38 266 272 273 267
137 3 2 2 38 267 273 274 268
138 3 2 2 38 268 274 275 269
139 3 2 2 38 269 275 276 270
140 3 2 2 38 270 276 46 45
141 3 2 2 38 64 14 124 271
142 3 2 2 38 271 124 123 272
143 3 2 2 38 272 123 122 273
144 3 2 2 38 273 122 121 274
145 3 2 2 38 274 121 120 275
146 3 2 2 38 275 120 119 276
147 3 2 2 38 276 119 12 46
148 3 2 2 40 11 41 277 34
149 3 2 2 40 34 277 278 33
150 3 2 2 40 33 278 279 32
151 3 2 2 40 32 279 280 31
152 3 2 2 40 31 280 281 30
153 3 2 2 40 30 281 282 29
154 3 2 2 40 29 282 47 9
155 3 2 2 40 41 42 283 277
156 3 2 2 40 277 283 284 278
157 3 2 2 40 278 284 285 279
158 3 2 2 40 279 285 286 280
159 3 2 2 40 280 286 287 281
160 3 2 2 40 281 287 288 282
161 3 2 2 40 282 288 48 47
162 3 2 2 40 42 43 289 283
163 3 2 2 40 283 289 290 284
164 3 2 2 40 284 290 291 285
165 3 2 2 40 285 291 292 286
166 3 2 2 40 286 292 293 287
167 3 2 2 40 287 293 294 288
168 3 2 2 40 288 294 49 48
169 3 2 2 40 43 44 295 289
170 3 2 2 40 289 295 296 290
171 3 2 2 40 290 296 297 291
172 3 2 2 40 291 297 298 292
173 3 2 2 40 292 298 299 293
174 3 2 2 40 293 299 300 294
175 3 2 2 40 294 300 50 49
176 3 2 2 40 44 45 301 295
177 3 2 2 40 295 301 302 296
178 3 2 2 40 296 302 303 297
179 3 2 2 40 297 303 304 298
180 3 2 2 40 298 304 305 299
181 3 2 2 40 299 305 306 300
182 3 2 2 40 300 306 51 50
183 3 2 2 40 45 46 307 301
184 3 2 2 40 301 307 308 302
185 3 2 2 40 302 308 309 303
186 3 2 2 40 303 309 310 304
187 3 2 2 40 304 310 311 305
188 3 2 2 40 305 311 312 306
189 3 2 2 40 306 312 52 51
190 3 2 2 40 46 12 118 307
191 3 2 2 40 307 118 117 308
192 3 2 2 40 308 117 116 309
193 3 2 2 40 309 116 115 310
194 3 2 2 40 310 115 114 311
195 3 2 2 40 311 114 113 312
196 3 2 2 40 312 113 10 52
197 3 2 2 42 9 47 313 28
198 3 2 2 42 28 313 314 27
199 3 2 2 42 27 314 315 26
200 3 2 2 42 26 315 316 25
201 3 2 2 42 25 316 317 24
202 3 2 2 42 24 317 318 23
203 3 2 2 42 23 318 53 15
204 3 2 2 42 47 48 319 313
205 3 2 2 42 313 319 320 314
206 3 2 2 42 314 320 321 315
207 3 2 2 42 315 321 322 316
208 3 2 2 42 316 322 323 317
209 3 2 2 42 317 323 324 318
210 3 2 2 42 318 324 54 53
211 3 2 2 42 48 49 325 319
212 3 2 2 42 319 325 326 320
213 3 2 2 42 320 326 327 321
214 3 2 2 42 321 327 328 322
215 3 2 2 42 322 328 329 323
216 3 2 2 42 323 329 330 324
217 3 2 2 42 324 330 55 54
218 3 2 2 42 49 50 331 325
219 3 2 2 42 325 331 332 326
220 3 2 2 42 326 332 333 327
221 3 2 2 42 327 333 334 328
222 3 2 2 42 328 334 335 329
223 3 2 2 42 329 335 336 330
224 3 2 2 42 330 336 56 55
225 3 2 2 42 50 51 337 331
226 3 2 2 42 331 337 338 332
227 3 2 2 42 332 338 339 333
228 3 2 2 42 333 339 340 334
229 3 2 2 42 334 340 341 335
230 3 2 2 42 335 341 342 336
231 3 2 2 42 336 342 57 56
232 3 2 2 42 51 52 343 337
233 3 2 2 42 337 343 344 338
234 3 2 2 42 338 344 345 339
235 3 2 2 42 339 345 346 340
236 3 2 2 42 340 346 347 341
237 3 2 2 42 341 347 348 342
238 3 2 2 42 342 348 58 57
239 3 2 2 42 52 10 136 343
240 3 2 2 42 343 136 135 344
241 3 2 2 42 344 135 134 345
242 3 2 2 42 345 134 133 346
243 3 2 2 42 346 133 132 347
244 3 2 2 42 347 132 131 348
245 3 2 2 42 348 131 16 58
246 3 2 2 44 3 71 349 168
247 3 2 2 44 168 349 34 11
248 3 2 2 44 71 72 350 349
249 3 2 2 44 349 350 33 34
250 3 2 2 44 72 73 351 350
251 3 2 2 44 350 351 32 33
252 3 2 2 44 73 74 352 351
253 3 2 2 44 351 352 31 32
254 3 2 2 44 74 75 353 352
255 3 2 2 44 352 353 30 31
256 3 2 2 44 75 76 354 353
257 3 2 2 44 353 354 29 30
258 3 2 2 44 76 1 166 354
259 3 2 2 44 354 166 9 29
260 3 2 2 46 15 23 355 164
261 3 2 2 46 164 355 82 7
262 3 2 2 46 23 24 356 355
263 3 2 2 46 355 356 81 82
264 3 2 2 46 24 25 357 356
265 3 2 2 46 356 357 80 81
266 3 2 2 46 25 26 358 357
267 3 2 2 46 357 358 79 80
268 3 2 2 46 26 27 359 358
269 3 2 2 46 358 359 78 79
270 3 2 2 46 27 28 360 359
271 3 2 2 46 359 360 77 78
272 3 2 2 46 28 9 166 360
273 3 2 2 46 360 166 1 77
274 3 2 2 48 7 164 361 83
275 3 2 2 48 83 361 362 84
276 3 2 2 48 84 362 363 85
277 3 2 2 48 85 363 364 86
278 3 2 2 48 86 364 365 87
279 3 2 2 48 87 365 366 88
280 3 2 2 48 88 366 162 5
281 3 2 2 48 164 15 22 361
282 3 2 2 48 361 22 21 362
283 3 2 2 48 362 21 20 363
284 3 2 2 48 363 20 19 364
285 3 2 2 48 364 19 18 365
286 3 2 2 48 365 18 17 366
287 3 2 2 48 366 17 13 162
288 3 2 2 50 5 162 367 65
289 3 2 2 50 65 367 368 66
290 3 2 2 50 66 368 369 67
291 3 2 2 50 67 369 370 68
292 3 2 2 50 68 370 371 69
293 3 2 2 50 69 371 372 70
294 3 2 2 50 70 372 168 3
295 3 2 2 50 162 13 40 367
296 3 2 2 50 367 40 39 368
297 3 2 2 50 368 39 38 369
298 3 2 2 50 369 38 37 370
299 3 2 2 50 370 37 36 371
300 3 2 2 50 371 36 35 372
301 3 2 2 50 372 35 11 168
302 3 2 2 52 2 165 373 106
303 3 2 2 52 106 373 374 105
304 3 2 2 52 105 374 375 104
305 3 2 2 52 104 375 376 103
306 3 2 2 52 103 376 377 102
307 3 2 2 52 102 377 378 101
308 3 2 2 52 101 378 166 1
309 3 2 2 52 165 10 52 373
310 3 2 2 52 373 52 51 374
311 3 2 2 52 374 51 50 375
312 3 2 2 52 375 50 49 376
313 3 2 2 52 376 49 48 377
314 3 2 2 52 377 48 47 378
315 3 2 2 52 378 47 9 166
316 3 2 2 54 7 164 379 107
317 3 2 2 54 107 379 380 108
318 3 2 2 54 108 380 381 109
319 3 2 2 54 109 381 382 110
320 3 2 2 54 110 382 383 111
321 3 2 2 54 111 383 384 112
322 3 2 2 54 112 384 163 8
323 3 2 2 54 164 15 53 379
324 3 2 2 54 379 53 54 380
325 3 2 2 54 380 54 55 381
326 3 2 2 54 381 55 56 382
327 3 2 2 54 382 56 57 383
328 3 2 2 54 383 57 58 384
329 3 2 2 54 384 58 16 163
330 3 2 2 56 5 162 385 89
331 3 2 2 56 89 385 386 90
332 3 2 2 56 90 386 387 91
333 3 2 2 56 91 387 388 92
334 3 2 2 56 92 388 389 93
335 3 2 2 56 93 389 390 94
336 3 2 2 56 94 390 161 6
337 3 2 2 56 162 13 59 385
338 3 2 2 56 385 59 60 386
339 3 2 2 56 386 60 61 387
340 3 2 2 56 387 61 62 388
341 3 2 2 56 388 62 63 389
342 3 2 2 56 389 63 64 390
343 3 2 2 56 390 64 14 161
344 3 2 2 58 3 168 391 95
345 3 2 2 58 95 391 392 96
346 3 2 2 58 96 392 393 97
347 3 2 2 58 97 393 394 98
348 3 2 2 58 98 394 395 99
349 3 2 2 58 99 395 396 100
350 3 2 2 58 100 396 167 4
351 3 2 2 58 168 11 41 391
352 3 2 2 58 391 41 42 392
353 3 2 2 58 392 42 43 393
354 3 2 2 58 393 43 44 394
355 3 2 2 58 394 44 45 395
356 3 2 2 58 395 45 46 396
357 3 2 2 58 396 46 12 167
358 3 2 2 60 8 163 397 155
359 3 2 2 60 155 397 398 156
360 3 2 2 60 156 398 399 157
361 3 2 2 60 157 399 400 158
362 3 2 2 60 158 400 401 159
363 3 2 2 60 159 401 402 160
364 3 2 2 60 160 402 165 2
365 3 2 2 60 163 16 131 397
366 3 2 2 60 397 131 132 398
367 3 2 2 60 398 132 133 399
368 3 2 2 60 399 133 134 400
369 3 2 2 60 400 134 135 401
370 3 2 2 60 401 135 136 402
371 3 2 2 60 402 136 10 165
372 3 2 2 62 2 165 403 137
373 3 2 2 62 137 403 404 138
374 3 2 2 62 138 404 405 139
375 3 2 2 62 139 405 406 140
376 3 2 2 62 140 406 407 141
377 3 2 2 62 141 407 408 142
378 3 2 2 62 142 408 167 4
379 3 2 2 62 165 10 113 403
380 3 2 2 62 403 113 114 404
381 3 2 2 62 404 114 115 405
382 3 2 2 62 405 115 116 406
383 3 2 2 62 406 116 117 407
384 3 2 2 62 407 117 118 408
385 3 2 2 62 408 118 12 167
386 3 2 2 64 4 167 409 143
387 3 2 2 64 143 409 410 144
388 3 2 2 64 144 410 411 145
389 3 2 2 64 145 411 412 146
390 3 2 2 64 146 412 413 147
391 3 2 2 64 147 413 414 148
392 3 2 2 64 148 414 161 6
393 3 2 2 64 167 12 119 409
394 3 2 2 64 409 119 120 410
395 3 2 2 64 410 120 121 411
396 3 2 2 64 411 121 122 412
397 3 2 2 64 412 122 123 413
398 3 2 2 64 413 123 124 414
399 3 2 2 64 414 124 14 161
400 3 2 2 66 6 161 415 149
401 3 2 2 66 149 415 416 150
402 3 2 2 66 150 416 417 151
403 3 2 2 66 151 417 418 152
404 3 2 2 66 152 418 419 153
405 3 2 2 66 153 419 420 154
406 3 2 2 66 154 420 163 8
407 3 2 2 66 161 14 125 415
408 3 2 2 66 415 125 126 416
409 3 2 2 66 416 126 127 417
410 3 2 2 66 417 127 128 418
411 3 2 2 66 418 128 129 419
412 3 2 2 66 419 129 130 420
413 3 2 2 66 420 130 16 163
414 3 2 2 68 5 65 421 88
415 3 2 2 68 88 421 422 87
416 3 2 2 68 87 422 423 86
417 3 2 2 68 86 423 424 85
418 3 2 2 68 85 424 425 84
419 3 2 2 68 84 425 426 83
420 3 2 2 68 83 426 82 7
421 3 2 2 68 65 66 427 421
422 3 2 2 68 421 427 428 422
423 3 2 2 68 422 428 429 423
424 3 2 2 68 423 429 430 424
425 3 2 2 68 424 430 431 425
426 3 2 2 68 425 431 432 426
427 3 2 2 68 426 432 81 82
428 3 2 2 68 66 67 433 427
429 3 2 2 68 427 433 434 428
430 3 2 2 68 428 434 435 429
431 3 2 2 68 429 435 436 430
432 3 2 2 68 430 436 437 431
433 3 2 2 68 431 437 438 432
434 3 2 2 68 432 438 80 81
435 3 2 2 68 67 68 439 433
436 3 2 2 68 433 439 440 434
437 3 2 2 68 434 440 441 435
438 3 2 2 68 435 441 442 436
439 3 2 2 68 436 442 443 437
440 3 2 2 68 437 443 444 438
441 3 2 2 68 438 444 79 80
442 3 2 2 68 68 69 445 439
443 3 2 2 68 439 445 446 440
444 3 2 2 68 440 446 447 441
445 3 2 2 68 441 447 448 442
446 3 2 2 68 442 448 449 443
447 3 2 2 68 443 449 450 444
448 3 2 2 68 444 450 78 79
449 3 2 2 68 69 70 451 445
450 3 2 2 68 445 451 452 446
451 3 2 2 68 446 452 453 447
452 3 2 2 68 447 453 454 448
453 3 2 2 68 448 454 455 449
454 3 2 2 68 449 455 456 450
455 3 2 2 68 450 456 77 78
456 3 2 2 68 70 3 71 451
457 3 2 2 68 451 71 72 452
458 3 2 2 68 452 72 73 453
459 3 2 2 68 453 73 74 454
460 3 2 2 68 454 74 75 455
461 3 2 2 68 455 75 76 456
462 3 2 2 68 456 76 1 77
463 3 2 2 70 3 71 457 95
464 3 2 2 70 95 457 458 96
465 3 2 2 70 96 458 459 97
466 3 2 2 70 97 459 460 98
467 3 2 2 70 98 460 461 99
468 3 2 2 70 99 461 462 100
469 3 2 2 70 100 462 142 4
470 3 2 2 70 71 72 463 457
471 3 2 2 70 457 463 464 458
472 3 2 2 70 458 464 465 459
473 3 2 2 70 459 465 466 460
474 3 2 2 70 460 466 467 461
475 3 2 2 70 461 467 468 462
476 3 2 2 70 462 468 141 142
477 3 2 2 70 72 73 469 463
478 3 2 2 70 463 469 470 464
479 3 2 2 70 464 470 471 465
480 3 2 2 70 465 471 472 466
481 3 2 2 70 466 472 473 467
482 3 2 2 70 467 473 474 468
483 3 2 2 70 468 474 140 141
484 3 2 2 70 73 74 475 469
485 3 2 2 70 469 475 476 470
486 3 2 2 70 470 476 477 471
487 3 2 2 70 471 477 478 472
488 3 2 2 70 472 478 479 473
489 3 2 2 70 473 479 480 474
490 3 2 2 70 474 480 139 140
491 3 2 2 70 74 75 481 475
492 3 2 2 70 475 481 482 476
493 3 2 2 70 476 482 483 477
494 3 2 2 70 477 483 484 478
495 3 2 2 70 478 484 485 479
496 3 2 2 70 479 485 486 480
497 3 2 2 70 480 486 138 139
498 3 2 2 70 75 76 487 481
499 3 2 2 70 481 487 488 482
500 3 2 2 70 482 488 489 483
501 3 2 2 70 483 489 490 484
502 3 2 2 70 484 490 491 485
503 3 2 2 70 485 491 492 486
504 3 2 2 70 486 492 137 138
505 3 2 2 70 76 1 101 487
506 3 2 2 70 487 101 102 488
507 3 2 2 70 488 102 103 489
508 3 2 2 70 489 103 104 490
509 3 2 2 70 490 104 105 491
510 3 2 2 70 491 105 106 492
511 3 2 2 70 492 106 2 137
512 3 2 2 72 8 155 493 112
513 3 2 2 72 112 493 494 111
514 3 2 2 72 111 494 495 110
515 3 2 2 72 110 495 496 109
516 3 2 2 72 109 496 497 108
517 3 2 2 72 108 497 498 107
518 3 2 2 72 107 498 82 7
519 3 2 2 72 155 156 499 493
520 3 2 2 72 493 499 500 494
521 3 2 2 72 494 500 501 495
522 3 2 2 72 495 501 502 496
523 3 2 2 72 496 502 503 497
524 3 2 2 72 497 503 504 498
525 3 2 2 72 498 504 81 82
526 3 2 2 72 156 157 505 499
527 3 2 2 72 499 505 506 500
528 3 2 2 72 500 506 507 501
529 3 2 2 72 501 507 508 502
530 3 2 2 72 502 508 509 503
531 3 2 2 72 503 509 510 504
532 3 2 2 72 504 510 80 81
533 3 2 2 72 157 158 511 505
534 3 2 2 72 505 511 512 506
535 3 2 2 72 506 512 513 507
536 3 2 2 72 507 513 514 508
537 3 2 2 72 508 514 515 509
538 3 2 2 72 509 515 516 510
539 3 2 2 72 510 516 79 80
540 3 2 2 72 158 159 517 511
541 3 2 2 72 511 517 518 512
542 3 2 2 72 512 518 519 513
543 3 2 2 72 513 519 520 514
544 3 2 2 72 514 520 521 515
545 3 2 2 72 515 521 522 516
546 3 2 2 72 516 522 78 79
547 3 2 2 72 159 160 523 517
548 3 2 2 72 517 523 524 518
549 3 2 2 72 518 524 525 519
550 3 2 2 72 519 525 526 520
551 3 2 2 72 520 526 527 521
552 3 2 2 72 521 527 528 522
553 3 2 2 72 522 528 77 78
554 3 2 2 72 160 2 106 523
555 3 2 2 72 523 106 105 524
556 3 2 2 72 524 105 104 525
557 3 2 2 72 525 104 103 526
558 3 2 2 72 526 103 102 527
559 3 2 2 72 527 102 101 528
560 3 2 2 72 528 101 1 77
561 3 2 2 74 7 107 529 83
562 3 2 2 74 83 529 530 84
563 3 2 2 74 84 530 531 85
564 3 2 2 74 85 531 532 86
565 3 2 2 74 86 532 533 87
566 3 2 2 74 87 533 534 88
567 3 2 2 74 88 534 89 5
568 3 2 2 74 107 108 535 529
569 3 2 2 74 529 535 536 530
570 3 2 2 74 530 536 537 531
571 3 2 2 74 531 537 538 532
572 3 2 2 74 532 538 539 533
573 3 2 2 74 533 539 540 534
574 3 2 2 74 534 540 90 89
575 3 2 2 74 108 109 541 535
576 3 2 2 74 535 541 542 536
577 3 2 2 74 536 542 543 537
578 3 2 2 74 537 543 544 538
579 3 2 2 74 538 544 545 539
580 3 2 2 74 539 545 546 540
581 3 2 2 74 540 546 91 90
582 3 2 2 74 109 110 547 541
583 3 2 2 74 541 547 548 542
584 3 2 2 74 542 548 549 543
585 3 2 2 74 543 549 550 544
586 3 2 2 74 544 550 551 545
587 3 2 2 74 545 551 552 546
588 3 2 2 74 546 552 92 91
589 3 2 2 74 110 111 553 547
590 3 2 2 74 547 553 554 548
591 3 2 2 74 548 554 555 549
592 3 2 2 74 549 555 556 550
593 3 2 2 74 550 556 557 551
594 3 2 2 74 551 557 558 552
595 3 2 2 74 552 558 93 92
596 3 2 2 74 111 112 559 553
597 3 2 2 74 553 559 560 554
598 3 2 2 74 554 560 561 555
599 3 2 2 74 555 561 562 556
600 3 2 2 74 556 562 563 557
601 3 2 2 74 557 563 564 558
602 3 2 2 74 558 564 94 93
603 3 2 2 74 112 8 154 559
604 3 2 2 74 559 154 153 560
605 3 2 2 74 560 153 152 561
606 3 2 2 74 561 152 151 562
607 3 2 2 74 562 151 150 563
608 3 2 2 74 563 150 149 564
609 3 2 2 74 564 149 6 94
610 3 2 2 76 5 65 565 89
611 3 2 2 76 89 565 566 90
612 3 2 2 76 90 566 567 91
613 3 2 2 76 91 567 568 92
614 3 2 2 76 92 568 569 93
615 3 2 2 76 93 569 570 94
616 3 2 2 76 94 570 148 6
617 3 2 2 76 65 66 571 565
618 3 2 2 76 565 571 572 566
619 3 2 2 76 566 572 573 567
620 3 2 2 76 567 573 574 568
621 3 2 2 76 568 574 575 569
622 3 2 2 76 569 575 576 570
623 3 2 2 76 570 576 147 148
624 3 2 2 76 66 67 577 571
625 3 2 2 76 571 577 578 572
626 3 2 2 76 572 578 579 573
627 3 2 2 76 573 579 580 574
628 3 2 2 76 574 580 581 575
629 3 2 2 76 575 581 582 576
630 3 2 2 76 576 582 146 147
631 3 2 2 76 67 68 583 577
632 3 2 2 76 577 583 584 578
633 3 2 2 76 578 584 585 579
634 3 2 2 76 579 585 586 580
635 3 2 2 76 580 586 587 581
636 3 2 2 76 581 587 588 582
637 3 2 2 76 582 588 145 146
638 3 2 2 76 68 69 589 583
639 3 2 2 76 583 589 590 584
640 3 2 2 76 584 590 591 585
641 3 2 2 76 585 591 592 586
642 3 2 2 76 586 592 593 587
643 3 2 2 76 587 593 594 588
644 3 2 2 76 588 594 144 145
645 3 2 2 76 69 70 595 589
646 3 2 2 76 589 595 596 590
647 3 2 2 76 590 596 597 591
648 3 2 2 76 591 597 598 592
649 3 2 2 76 592 598 599 593
650 3 2 2 76 593 599 600 594
651 3 2 2 76 594 600 143 144
652 3 2 2 76 70 3 95 595
653 3 2 2 76 595 95 96 596
654 3 2 2 76 596 96 97 597
655 3 2 2 76 597 97 98 598
656 3 2 2 76 598 98 99 599
657 3 2 2 76 599 99 100 600
658 3 2 2 76 600 100 4 143
659 5 2 1 78 13 59 241 40 162 385 601 367
660 5 2 1 78 162 385 601 367 5 89 565 65
661 5 2 1 78 40 241 242 39 367 601 602 368
662 5 2 1 78 367 601 602 368 65 565 571 66
663 5 2 1 78 39 242 243 38 368 602 603 369
664 5 2 1 78 368 602 603 369 66 571 577 67
665 5 2 1 78 38 243 244 37 369 603 604 370
666 5 2 1 78 369 603 604 370 67 577 583 68
667 5 2 1 78 37 244 245 36 370 604 605 371
668 5 2 1 78 370 604 605 371 68 583 589 69
669 5 2 1 78 36 245 246 35 371 605 606 372
670 5 2 1 78 371 605 606 372 69 589 595 70
671 5 2 1 78 35 246 41 11 372 606 391 168
672 5 2 1 78 372 606 391 168 70 595 95 3
673 5 2 1 78 59 60 247 241 385 386 607 601
674 5 2 1 78 385 386 607 601 89 90 566 565
675 5 2 1 78 241 247 248 242 601 607 608 602
676 5 2 1 78 601 607 608 602 565 566 572 571
677 5 2 1 78 242 248 249 243 602 608 609 603
678 5 2 1 78 602 608 609 603 571 572 578 577
679 5 2 1 78 243 249 250 244 603 609 610 604
680 5 2 1 78 603 609 610 604 577 578 584 583
681 5 2 1 78 244 250 251 245 604 610 611 605
682 5 2 1 78 604 610 611 605 583 584 590 589
683 5 2 1 78 245 251 252 246 605 611 612 606
684 5 2 1 78 605 611 612 606 589 590 596 595
685 5 2 1 78 246 252 42 41 606 612 392 391
686 5 2 1 78 606 612 392 391 595 596 96 95
687 5 2 1 78 60 61 253 247 386 387 613 607
688 5 2 1 78 386 387 613 607 90 91 567 566
689 5 2 1 78 247 253 254 248 607 613 614 608
690 5 2 1 78 607 613 614 608 566 567 573 572
691 5 2 1 78 248 254 255 249 608 614 615 609
692 5 2 1 78 608 614 615 609 572 573 579 578
693 5 2 1 78 249 255 256 250 609 615 616 610
694 5 2 1 78 609 615 616 610 578 579 585 584
695 5 2 1 78 250 256 257 251 610 616 617 611
696 5 2 1 78 610 616 617 611 584 585 591 590
697 5 2 1 78 251 257 258 252 611 617 618 612
698 5 2 1 78 611 617 618 612 590 591 597 596
699 5 2 1 78 252 258 43 42 612 618 393 392
700 5 2 1 78 612 618 393 392 596 597 97 96
701 5 2 1 78 61 62 259 253 387 388 619 613
702 5 2 1 78 387 388 619 613 91 92 568 567
703 5 2 1 78 253 259 260 254 613 619 620 614
704 5 2 1 78 613 619 620 614 567 568 574 573
705 5 2 1 78 254 260 261 255 614 620 621 615
706 5 2 1 78 614 620 621 615 573 574 580 579
707 5 2 1 78 255 261 262 256 615 621 622 616
708 5 2 1 78 615 621 622 616 579 580 586 585
709 5 2 1 78 256 262 263 257 616 622 623 617
710 5 2 1 78 616 622 623 617 585 586 592 591
711 5 2 1 78 257 263 264 258 617 623 624 618
712 5 2 1 78 617 623 624 618 591 592 598 597
713 5 2 1 78 258 264 44 43 618 624 394 393
714 5 2 1 78 618 624 394 393 597 598 98 97
715 5 2 1 78 62 63 265 259 388 389 625 619
716 5 2 1 78 388 389 625 619 92 93 569 568
717 5 2 1 78 259 265 266 260 619 625 626 620
718 5 2 1 78 619 625 626 620 568 569 575 574
719 5 2 1 78 260 266 267 261 620 626 627 621
720 5 2 1 78 620 626 627 621 574 575 581 580
721 5 2 1 78 261 267 268 262 621 627 628 622
722 5 2 1 78 621 627 628 622 580 581 587 586
723 5 2 1 78 262 268 269 263 622 628 629 623
724 5 2 1 78 622 628 629 623 586 587 593 592
725 5 2 1 78 263 269 270 264 623 629 630 624
726 5 2 1 78 623 629 630 624 592 593 599 598
727 5 2 1 78 264 270 45 44 624 630 395 394
728 5 2 1 78 624 630 395 394 598 599 99 98
729 5 2 1 78 63 64 271 265 389 390 631 625
730 5 2 1 78 389 390 631 625 93 94 570 569
731 5 2 1 78 265 271 272 266 625 631 632 626
732 5 2 1 78 625 631 632 626 569 570 576 575
733 5 2 1 78 266 272 273 267 626 632 633 627
734 5 2 1 78 626 632 633 627 575 576 582 581
735 5 2 1 78 267 273 274 268 627 633 634 628
736 5 2 1 78 627 633 634 628 581 582 588 587
737 5 2 1 78 268 274 275 269 628 634 635 629
738 5 2 1 78 628 634 635 629 587 588 594 593
739 5 2 1 78 269 275 276 270 629 635 636 630
740 5 2 1 78 629 635 636 630 593 594 600 599
741 5 2 1 78 270 276 46 45 630 636 396 395
742 5 2 1 78 630 636 396 395 599 600 100 99
743 5 2 1 78 64 14 124 271 390 161 414 631
744 5 2 1 78 390 161 414 631 94 6 148 570
745 5 2 1 78 271 124 123 272 631 414 413 632
746 5 2 1 78 631 414 413 632 570 148 147 576
747 5 2 1 78 272 123 122 273 632 413 412 633
748 5 2 1 78 632 413 412 633 576 147 146 582
749 5 2 1 78 273 122 121 274 633 412 411 634
750 5 2 1 78 633 412 411 634 582 146 145 588
751 5 2 1 78 274 121 120 275 634 411 410 635
752 5 2 1 78 634 411 410 635 588 145 144 594
753 5 2 1 78 275 120 119 276 635 410 409 636
754 5 2 1 78 635 410 409 636 594 144 143 600
755 5 2 1 78 276 119 12 46 636 409 167 396
756 5 2 1 78 636 409 167 396 600 143 4 100
757 5 2 1 80 7 164 361 83 107 379 637 529
758 5 2 1 80 107 379 637 529 108 380 638 535
759 5 2 1 80 108 380 638 535 109 381 639 541
760 5 2 1 80 109 381 639 541 110 382 640 547
761 5 2 1 80 110 382 640 547 111 383 641 553
762 5 2 1 80 111 383 641 553 112 384 642 559
763 5 2 1 80 112 384 642 559 8 163 420 154
764 5 2 1 80 83 361 362 84 529 637 643 530
765 5 2 1 80 529 637 643 530 535 638 644 536
766 5 2 1 80 535 638 644 536 541 639 645 542
767 5 2 1 80 541 639 645 542 547 640 646 548
768 5 2 1 80 547 640 646 548 553 641 647 554
769 5 2 1 80 553 641 647 554 559 642 648 560
770 5 2 1 80 559 642 648 560 154 420 419 153
771 5 2 1 80 84 362 363 85 530 643 649 531
772 5 2 1 80 530 643 649 531 536 644 650 537
773 5 2 1 80 536 644 650 537 542 645 651 543
774 5 2 1 80 542 645 651 543 548 646 652 549
775 5 2 1 80 548 646 652 549 554 647 653 555
776 5 2 1 80 554 647 653 555 560 648 654 561
777 5 2 1 80 560 648 654 561 153 419 418 152
778 5 2 1 80 85 363 364 86 531 649 655 532
779 5 2 1 80 531 649 655 532 537 650 656 538
780 5 2 1 80 537 650 656 538 543 651 657 544
781 5 2 1 80 543 651 657 544 549 652 658 550
782 5 2 1 80 549 652 658 550 555 653 659 556
783 5 2 1 80 555 653 659 556 561 654 660 562
784 5 2 1 80 561 654 660 562 152 418 417 151
785 5 2 1 80 86 364 365 87 532 655 661 533
786 5 2 1 80 532 655 661 533 538 656 662 539
787 5 2 1 80 538 656 662 539 544 657 663 545
788 5 2 1 80 544 657 663 545 550 658 664 551
789 5 2 1 80 550 658 664 551 556 659 665 557
790 5 2 1 80 556 659 665 557 562 660 666 563
791 5 2 1 80 562 660 666 563 151 417 416 150
792 5 2 1 80 87 365 366 88 533 661 667 534
793 5 2 1 80 533 661 667 534 539 662 668 540
794 5 2 1 80 539 662 668 540 545 663 669 546
795 5 2 1 80 545 663 669 546 551 664 670 552
796 5 2 1 80 551 664 670 552 557 665 671 558
797 5 2 1 80 557 665 671 558 563 666 672 564
798 5 2 1 80 563 666 672 564 150 416 415 149
799 5 2 1 80 88 366 162 5 534 667 385 89
800 5 2 1 80 534 667 385 89 540 668 386 90
801 5 2 1 80 540 668 386 90 546 669 387 91
802 5 2 1 80 546 669 387 91 552 670 388 92
803 5 2 1 80 552 670 388 92 558 671 389 93
804 5 2 1 80 558 671 389 93 564 672 390 94
805 5 2 1 80 564 672 390 94 149 415 161 6
806 5 2 1 80 164 15 22 361 379 53 235 637
807 5 2 1 80 379 53 235 637 380 54 236 638
808 5 2 1 80 380 54 236 638 381 55 237 639
809 5 2 1 80 381 55 237 639 382 56 238 640
810 5 2 1 80 382 56 238 640 383 57 239 641
811 5 2 1 80 383 57 239 641 384 58 240 642
812 5 2 1 80 384 58 240 642 163 16 130 420
813 5 2 1 80 361 22 21 362 637 235 229 643
814 5 2 1 80 637 235 229 643 638 236 230 644
815 5 2 1 80 638 236 230 644 639 237 231 645
816 5 2 1 80 639 237 231 645 640 238 232 646
817 5 2 1 80 640 238 232 646 641 239 233 647
818 5 2 1 80 641 239 233 647 642 240 234 648
819 5 2 1 80 642 240 234 648 420 130 129 419
820 5 2 1 80 362 21 20 363 643 229 223 649
821 5 2 1 80 643 229 223 649 644 230 224 650
822 5 2 1 80 644 230 224 650 645 231 225 651
823 5 2 1 80 645 231 225 651 646 232 226 652
824 5 2 1 80 646 232 226 652 647 233 227 653
825 5 2 1 80 647 233 227 653 648 234 228 654
826 5 2 1 80 648 234 228 654 419 129 128 418
827 5 2 1 80 363 20 19 364 649 223 217 655
828 5 2 1 80 649 223 217 655 650 224 218 656
829 5 2 1 80 650 224 218 656 651 225 219 657
830 5 2 1 80 651 225 219 657 652 226 220 658
831 5 2 1 80 652 226 220 658 653 227 221 659
832 5 2 1 80 653 227 221 659 654 228 222 660
833 5 2 1 80 654 228 222 660 418 128 127 417
834 5 2 1 80 364 19 18 365 655 217 211 661
835 5 2 1 80 655 217 211 661 656 218 212 662
836 5 2 1 80 656 218 212 662 657 219 213 663
837 5 2 1 80 657 219 213 663 658 220 214 664
838 5 2 1 80 658 220 214 664 659 221 215 665
839 5 2 1 80 659 221 215 665 660 222 216 666
840 5 2 1 80 660 222 216 666 417 127 126 416
841 5 2 1 80 365 18 17 366 661 211 205 667
842 5 2 1 80 661 211 205 667 662 212 206 668
843 5 2 1 80 662 212 206 668 663 213 207 669
844 5 2 1 80 663 213 207 669 664 214 208 670
845 5 2 1 80 664 214 208 670 665 215 209 671
846 5 2 1 80 665 215 209 671 666 216 210 672
847 5 2 1 80 666 216 210 672 416 126 125 415
848 5 2 1 80 366 17 13 162 667 205 59 385
849 5 2 1 80 667 205 59 385 668 206 60 386
850 5 2 1 80 668 206 60 386 669 207 61 387
851 5 2 1 80 669 207 61 387 670 208 62 388
852 5 2 1 80 670 208 62 388 671 209 63 389
853 5 2 1 80 671 209 63 389 672 210 64 390
854 5 2 1 80 672 210 64 390 415 125 14 161
855 5 2 1 82 7 164 379 107 82 355 673 498
856 5 2 1 82 82 355 673 498 81 356 674 504
857 5 2 1 82 81 356 674 504 80 357 675 510
858 5 2 1 82 80 357 675 510 79 358 676 516
859 5 2 1 82 79 358 676 516 78 359 677 522
860 5 2 1 82 78 359 677 522 77 360 678 528
861 5 2 1 82 77 360 678 528 1 166 378 101
862 5 2 1 82 107 379 380 108 498 673 679 497
863 5 2 1 82 498 673 679 497 504 674 680 503
864 5 2 1 82 504 674 680 503 510 675 681 509
865 5 2 1 82 510 675 681 509 516 676 682 515
866 5 2 1 82 516 676 682 515 522 677 683 521
867 5 2 1 82 522 677 683 521 528 678 684 527
868 5 2 1 82 528 678 684 527 101 378 377 102
869 5 2 1 82 108 380 381 109 497 679 685 496
870 5 2 1 82 497 679 685 496 503 680 686 502
871 5 2 1 82 503 680 686 502 509 681 687 508
872 5 2 1 82 509 681 687 508 515 682 688 514
873 5 2 1 82 515 682 688 514 521 683 689 520
874 5 2 1 82 521 683 689 520 527 684 690 526
875 5 2 1 82 527 684 690 526 102 377 376 103
876 5 2 1 82 109 381 382 110 496 685 691 495
877 5 2 1 82 496 685 691 495 502 686 692 501
878 5 2 1 82 502 686 692 501 508 687 693 507
879 5 2 1 82 508 687 693 507 514 688 694 513
880 5 2 1 82 514 688 694 513 520 689 695 519
881 5 2 1 82 520 689 695 519 526 690 696 525
882 5 2 1 82 526 690 696 525 103 376 375 104
883 5 2 1 82 110 382 383 111 495 691 697 494
884 5 2 1 82 495 691 697 494 501 692 698 500
885 5 2 1 82 501 692 698 500 507 693 699 506
886 5 2 1 82 507 693 699 506 513 694 700 512
887 5 2 1 82 513 694 700 512 519 695 701 518
888 5 2 1 82 519 695 701 518 525 696 702 524
889 5 2 1 82 525 696 702 524 104 375 374 105
890 5 2 1 82 111 383 384 112 494 697 703 493
891 5 2 1 82 494 697 703 493 500 698 704 499
892 5 2 1 82 500 698 704 499 506 699 705 505
893 5 2 1 82 506 699 705 505 512 700 706 511
894 5 2 1 82 512 700 706 511 518 701 707 517
895 5 2 1 82 518 701 707 517 524 702 708 523
896 5 2 1 82 524 702 708 523 105 374 373 106
897 5 2 1 82 112 384 163 8 493 703 397 155
898 5 2 1 82 493 703 397 155 499 704 398 156
899 5 2 1 82 499 704 398 156 505 705 399 157
900 5 2 1 82 505 705 399 157 511 706 400 158
901 5 2 1 82 511 706 400 158 517 707 401 159
902 5 2 1 82 517 707 401 159 523 708 402 160
903 5 2 1 82 523 708 402 160 106 373 165 2
904 5 2 1 82 164 15 53 379 355 23 318 673
905 5 2 1 82 355 23 318 673 356 24 317 674
906 5 2 1 82 356 24 317 674 357 25 316 675
907 5 2 1 82 357 25 316 675 358 26 315 676
908 5 2 1 82 358 26 315 676 359 27 314 677
909 5 2 1 82 359 27 314 677 360 28 313 678
910 5 2 1 82 360 28 313 678 166 9 47 378
911 5 2 1 82 379 53 54 380 673 318 324 679
912 5 2 1 82 673 318 324 679 674 317 323 680
913 5 2 1 82 674 317 323 680 675 316 322 681
914 5 2 1 82 675 316 322 681 676 315 321 682
915 5 2 1 82 676 315 321 682 677 314 320 683
916 5 2 1 82 677 314 320 683 678 313 319 684
917 5 2 1 82 678 313 319 684 378 47 48 377
918 5 2 1 82 380 54 55 381 679 324 330 685
919 5 2 1 82 679 324 330 685 680 323 329 686
920 5 2 1 82 680 323 329 686 681 322 328 687
921 5 2 1 82 681 322 328 687 682 321 327 688
922 5 2 1 82 682 321 327 688 683 320 326 689
923 5 2 1 82 683 320 326 689 684 319 325 690
924 5 2 1 82 684 319 325 690 377 48 49 376
925 5 2 1 82 381 55 56 382 685 330 336 691
926 5 2 1 82 685 330 336 691 686 329 335 692
927 5 2 1 82 686 329 335 692 687 328 334 693
928 5 2 1 82 687 328 334 693 688 327 333 694
929 5 2 1 82 688 327 333 694 689 326 332 695
930 5 2 1 82 689 326 332 695 690 325 331 696
931 5 2 1 82 690 325 331 696 376 49 50 375
932 5 2 1 82 382 56 57 383 691 336 342 697
933 5 2 1 82 691 336 342 697 692 335 341 698
934 5 2 1 82 692 335 341 698 693 334 340 699
935 5 2 1 82 693 334 340 699 694 333 339 700
936 5 2 1 82 694 333 339 700 695 332 338 701
937 5 2 1 82 695 332 338 701 696 331 337 702
938 5 2 1 82 696 331 337 702 375 50 51 374
939 5 2 1 82 383 57 58 384 697 342 348 703
940 5 2 1 82 697 342 348 703 698 341 347 704
941 5 2 1 82 698 341 347 704 699 340 346 705
942 5 2 1 82 699 340 346 705 700 339 345 706
943 5 2 1 82 700 339 345 706 701 338 344 707
944 5 2 1 82 701 338 344 707 702 337 343 708
945 5 2 1 82 702 337 343 708 374 51 52 373
946 5 2 1 82 384 58 16 163 703 348 131 397
947 5 2 1 82 703 348 131 397 704 347 132 398
948 5 2 1 82 704 347 132 398 705 346 133 399
949 5 2 1 82 705 346 133 399 706 345 134 400
950 5 2 1 82 706 345 134 400 707 344 135 401
951 5 2 1 82 707 344 135 401 708 343 136 402
952 5 2 1 82 708 343 136 402 373 52 10 165
953 5 2 1 84 373 165 2 106 709 403 137 492
954 5 2 1 84 709 403 137 492 710 404 138 486
955 5 2 1 84 710 404 138 486 711 405 139 480
956 5 2 1 84 711 405 139 480 712 406 140 474
957 5 2 1 84 712 406 140 474 713 407 141 468
958 5 2 1 84 713 407 141 468 714 408 142 462
959 5 2 1 84 714 408 142 462 396 167 4 100
960 5 2 1 84 374 373 106 105 715 709 492 491
961 5 2 1 84 715 709 492 491 716 710 486 485
962 5 2 1 84 716 710 486 485 717 711 480 479
963 5 2 1 84 717 711 480 479 718 712 474 473
964 5 2 1 84 718 712 474 473 719 713 468 467
965 5 2 1 84 719 713 468 467 720 714 462 461
966 5 2 1 84 720 714 462 461 395 396 100 99
967 5 2 1 84 375 374 105 104 721 715 491 490
968 5 2 1 84 721 715 491 490 722 716 485 484
969 5 2 1 84 722 716 485 484 723 717 479 478
970 5 2 1 84 723 717 479 478 724 718 473 472
971 5 2 1 84 724 718 473 472 725 719 467 466
972 5 2 1 84 725 719 467 466 726 720 461 460
973 5 2 1 84 726 720 461 460 394 395 99 98
974 5 2 1 84 376 375 104 103 727 721 490 489
975 5 2 1 84 727 721 490 489 728 722 484 483
976 5 2 1 84 728 722 484 483 729 723 478 477
977 5 2 1 84 729 723 478 477 730 724 472 471
978 5 2 1 84 730 724 472 471 731 725 466 465
979 5 2 1 84 731 725 466 465 732 726 460 459
980 5 2 1 84 732 726 460 459 393 394 98 97
981 5 2 1 84 377 376 103 102 733 727 489 488
982 5 2 1 84 733 727 489 488 734 728 483 482
983 5 2 1 84 734 728 483 482 735 729 477 476
984 5 2 1 84 735 729 477 476 736 730 471 470
985 5 2 1 84 736 730 471 470 737 731 465 464
986 5 2 1 84 737 731 465 464 738 732 459 458
987 5 2 1 84 738 732 459 458 392 393 97 96
988 5 2 1 84 378 377 102 101 739 733 488 487
989 5 2 1 84 739 733 488 487 740 734 482 481
990 5 2 1 84 740 734 482 481 741 735 476 475
991 5 2 1 84 741 735 476 475 742 736 470 469
992 5 2 1 84 742 736 470 469 743 737 464 463
993 5 2 1 84 743 737 464 463 744 738 458 457
994 5 2 1 84 744 738 458 457 391 392 96 95
995 5 2 1 84 166 378 101 1 354 739 487 76
996 5 2 1 84 354 739 487 76 353 740 481 75
997 5 2 1 84 353 740 481 75 352 741 475 74
998 5 2 1 84 352 741 475 74 351 742 469 73
999 5 2 1 84 351 742 469 73 350 743 463 72
1000 5 2 1 84 350 743 463 72 349 744 457 71
1001 5 2 1 84 349 744 457 71 168 391 95 3
1002 5 2 1 84 52 10 165 373 312 113 403 709
1003 5 2 1 84 312 113 403 709 311 114 404 710
1004 5 2 1 84 311 114 404 710 310 115 405 711
1005 5 2 1 84 310 115 405 711 309 116 406 712
1006 5 2 1 84 309 116 406 712 308 117 407 713
1007 5 2 1 84 308 117 407 713 307 118 408 714
1008 5 2 1 84 307 118 408 714 46 12 167 396
1009 5 2 1 84 51 52 373 374 306 312 709 715
1010 5 2 1 84 306 312 709 715 305 311 710 716
1011 5 2 1 84 305 311 710 716 304 310 711 717
1012 5 2 1 84 304 310 711 717 303 309 712 718
1013 5 2 1 84 303 309 712 718 302 308 713 719
1014 5 2 1 84 302 308 713 719 301 307 714 720
1015 5 2 1 84 301 307 714 720 45 46 396 395
1016 5 2 1 84 50 51 374 375 300 306 715 721
1017 5 2 1 84 300 306 715 721 299 305 716 722
1018 5 2 1 84 299 305 716 722 298 304 717 723
1019 5 2 1 84 298 304 717 723 297 303 718 724
1020 5 2 1 84 297 303 718 724 296 302 719 725
1021 5 2 1 84 296 302 719 725 295 301 720 726
1022 5 2 1 84 295 301 720 726 44 45 395 394
1023 5 2 1 84 49 50 375 376 294 300 721 727
1024 5 2 1 84 294 300 721 727 293 299 722 728
1025 5 2 1 84 293 299 722 728 292 298 723 729
1026 5 2 1 84 292 298 723 729 291 297 724 730
1027 5 2 1 84 291 297 724 730 290 296 725 731
1028 5 2 1 84 290 296 725 731 289 295 726 732
1029 5 2 1 84 289 295 726 732 43 44 394 393
1030 5 2 1 84 48 49 376 377 288 294 727 733
1031 5 2 1 84 288 294 727 733 287 293 728 734
1032 5 2 1 84 287 293 728 734 286 292 729 735
1033 5 2 1 84 286 292 729 735 285 291 730 736
1034 5 2 1 84 285 291 730 736 284 290 731 737
1035 5 2 1 84 284 290 731 737 283 289 732 738
1036 5 2 1 84 283 289 732 738 42 43 393 392
1037 5 2 1 84 47 48 377 378 282 288 733 739
1038 5 2 1 84 282 288 733 739 281 287 734 740
1039 5 2 1 84 281 287 734 740 280 286 735 741
1040 5 2 1 84 280 286 735 741 279 285 736 742
1041 5 2 1 84 279 285 736 742 278 284 737 743
1042 5 2 1 84 278 284 737 743 277 283 738 744
1043 5 2 1 84 277 283 738 744 41 42 392 391
1044 5 2 1 84 9 47 378 166 29 282 739 354
1045 5 2 1 84 29 282 739 354 30 281 740 353
1046 5 2 1 84 30 281 740 353 31 280 741 352
1047 5 2 1 84 31 280 741 352 32 279 742 351
1048 5 2 1 84 32 279 742 351 33 278 743 350
1049 5 2 1 84 33 278 743 350 34 277 744 349
1050 5 2 1 84 34 277 744 349 11 41 391 168
1051 5 2 1 86 15 23 355 164 22 199 745 361
1052 5 2 1 86 22 199 745 361 21 193 746 362
1053 5 2 1 86 21 193 746 362 20 187 747 363
1054 5 2 1 86 20 187 747 363 19 181 748 364
1055 5 2 1 86 19 181 748 364 18 175 749 365
1056 5 2 1 86 18 175 749 365 17 169 750 366
1057 5 2 1 86 17 169 750 366 13 40 367 162
1058 5 2 1 86 164 355 82 7 361 745 426 83
1059 5 2 1 86 361 745 426 83 362 746 425 84
1060 5 2 1 86 362 746 425 84 363 747 424 85
1061 5 2 1 86 363 747 424 85 364 748 423 86
1062 5 2 1 86 364 748 423 86 365 749 422 87
1063 5 2 1 86 365 749 422 87 366 750 421 88
1064 5 2 1 86 366 750 421 88 162 367 65 5
1065 5 2 1 86 23 24 356 355 199 200 751 745
1066 5 2 1 86 199 200 751 745 193 194 752 746
1067 5 2 1 86 193 194 752 746 187 188 753 747
1068 5 2 1 86 187 188 753 747 181 182 754 748
1069 5 2 1 86 181 182 754 748 175 176 755 749
1070 5 2 1 86 175 176 755 749 169 170 756 750
1071 5 2 1 86 169 170 756 750 40 39 368 367
1072 5 2 1 86 355 356 81 82 745 751 432 426
1073 5 2 1 86 745 751 432 426 746 752 431 425
1074 5 2 1 86 746 752 431 425 747 753 430 424
1075 5 2 1 86 747 753 430 424 748 754 429 423
1076 5 2 1 86 748 754 429 423 749 755 428 422
1077 5 2 1 86 749 755 428 422 750 756 427 421
1078 5 2 1 86 750 756 427 421 367 368 66 65
1079 5 2 1 86 24 25 357 356 200 201 757 751
1080 5 2 1 86 200 201 757 751 194 195 758 752
1081 5 2 1 86 194 195 758 752 188 189 759 753
1082 5 2 1 86 188 189 759 753 182 183 760 754
1083 5 2 1 86 182 183 760 754 176 177 761 755
1084 5 2 1 86 176 177 761 755 170 171 762 756
1085 5 2 1 86 170 171 762 756 39 38 369 368
1086 5 2 1 86 356 357 80 81 751 757 438 432
1087 5 2 1 86 751 757 438 432 752 758 437 431
1088 5 2 1 86 752 758 437 431 753 759 436 430
1089 5 2 1 86 753 759 436 430 754 760 435 429
1090 5 2 1 86 754 760 435 429 755 761 434 428
1091 5 2 1 86 755 761 434 428 756 762 433 427
1092 5 2 1 86 756 762 433 427 368 369 67 66
1093 5 2 1 86 25 26 358 357 201 202 763 757
1094 5 2 1 86 201 202 763 757 195 196 764 758
1095 5 2 1 86 195 196 764 758 189 190 765 759
1096 5 2 1 86 189 190 765 759 183 184 766 760
1097 5 2 1 86 183 184 766 760 177 178 767 761
1098 5 2 1 86 177 178 767 761 171 172 768 762
1099 5 2 1 86 171 172 768 762 38 37 370 369
1100 5 2 1 86 357 358 79 80 757 763 444 438
1101 5 2 1 86 757 763 444 438 758 764 443 437
1102 5 2 1 86 758 764 443 437 759 765 442 436
1103 5 2 1 86 759 765 442 436 760 766 441 435
1104 5 2 1 86 760 766 441 435 761 767 440 434
1105 5 2 1 86 761 767 440 434 762 768 439 433
1106 5 2 1 86 762 768 439 433 369 370 68 67
1107 5 2 1 86 26 27 359 358 202 203 769 763
1108 5 2 1 86 202 203 769 763 196 197 770 764
1109 5 2 1 86 196 197 770 764 190 191 771 765
1110 5 2 1 86 190 191 771 765 184 185 772 766
1111 5 2 1 86 184 185 772 766 178 179 773 767
1112 5 2 1 86 178 179 773 767 172 173 774 768
1113 5 2 1 86 172 173 774 768 37 36 371 370
1114 5 2 1 86 358 359 78 79 763 769 450 444
1115 5 2 1 86 763 769 450 444 764 770 449 443
1116 5 2 1 86 764 770 449 443 765 771 448 442
1117 5 2 1 86 765 771 448 442 766 772 447 441
1118 5 2 1 86 766 772 447 441 767 773 446 440
1119 5 2 1 86 767 773 446 440 768 774 445 439
1120 5 2 1 86 768 774 445 439 370 371 69 68
1121 5 2 1 86 27 28 360 359 203 204 775 769
1122 5 2 1 86 203 204 775 769 197 198 776 770
1123 5 2 1 86 197 198 776 770 191 192 777 771
1124 5 2 1 86 191 192 777 771 185 186 778 772
1125 5 2 1 86 185 186 778 772 179 180 779 773
1126 5 2 1 86 179 180 779 773 173 174 780 774
1127 5 2 1 86 173 174 780 774 36 35 372 371
1128 5 2 1 86 359 360 77 78 769 775 456 450
1129 5 2 1 86 769 775 456 450 770 776 455 449
1130 5 2 1 86 770 776 455 449 771 777 454 448
1131 5 2 1 86 771 777 454 448 772 778 453 447
1132 5 2 1 86 772 778 453 447 773 779 452 446
1133 5 2 1 86 773 779 452 446 774 780 451 445
1134 5 2 1 86 774 780 451 445 371 372 70 69
1135 5 2 1 86 28 9 166 360 204 29 354 775
1136 5 2 1 86 204 29 354 775 198 30 353 776
1137 5 2 1 86 198 30 353 776 192 31 352 777
1138 5 2 1 86 192 31 352 777 186 32 351 778
1139 5 2 1 86 186 32 351 778 180 33 350 779
1140 5 2 1 86 180 33 350 779 174 34 349 780
1141 5 2 1 86 174 34 349 780 35 11 168 372
1142 5 2 1 86 360 166 1 77 775 354 76 456
1143 5 2 1 86 775 354 76 456 776 353 75 455
1144 5 2 1 86 776 353 75 455 777 352 74 454
1145 5 2 1 86 777 352 74 454 778 351 73 453
1146 5 2 1 86 778 351 73 453 779 350 72 452
1147 5 2 1 86 779 350 72 452 780 349 71 451
1148 5 2 1 86 780 349 71 451 372 168 3 70
$EndElements
