[Info]
Version 1
Dimension 3
NumNodes 729
Num3DElements 512
Num2DElements 0
Num1DElements 0
NumNodeBC 494
NumSaveNodes 0
NumSaveElements 0
Num 2d-line      : 0
Num 2d-line,quad : 0
Num 3d-line      : 0
Num 3d-line,quad : 0
Num triangle     : 0
Num triangle,quad: 0
Num quadr        : 0
Num quadr,quad   : 0
Num tetra        : 0
Num tetra,quad   : 0
Num brick        : 512
Num brick,quad   : 0
Num pyramid      : 0
Num pyramid,quad : 0
Num wedge        : 0
Num wedge,quad   : 0

[Nodes]
#NodeNr x-coord y-coord z-coord
1  0.0  0.0  0.0
2  0.125  0.0  0.0
3  0.25  0.0  0.0
4  0.375  0.0  0.0
5  0.5  0.0  0.0
6  0.625  0.0  0.0
7  0.75  0.0  0.0
8  0.875  0.0  0.0
9  1.0  0.0  0.0
10  0.0  0.125  0.0
11  0.125  0.125  0.0
12  0.25  0.125  0.0
13  0.375  0.125  0.0
14  0.5  0.125  0.0
15  0.625  0.125  0.0
16  0.75  0.125  0.0
17  0.875  0.125  0.0
18  1.0  0.125  0.0
19  0.0  0.25  0.0
20  0.125  0.25  0.0
21  0.25  0.25  0.0
22  0.375  0.25  0.0
23  0.5  0.25  0.0
24  0.625  0.25  0.0
25  0.75  0.25  0.0
26  0.875  0.25  0.0
27  1.0  0.25  0.0
28  0.0  0.375  0.0
29  0.125  0.375  0.0
30  0.25  0.375  0.0
31  0.375  0.375  0.0
32  0.5  0.375  0.0
33  0.625  0.375  0.0
34  0.75  0.375  0.0
35  0.875  0.375  0.0
36  1.0  0.375  0.0
37  0.0  0.5  0.0
38  0.125  0.5  0.0
39  0.25  0.5  0.0
40  0.375  0.5  0.0
41  0.5  0.5  0.0
42  0.625  0.5  0.0
43  0.75  0.5  0.0
44  0.875  0.5  0.0
45  1.0  0.5  0.0
46  0.0  0.625  0.0
47  0.125  0.625  0.0
48  0.25  0.625  0.0
49  0.375  0.625  0.0
50  0.5  0.625  0.0
51  0.625  0.625  0.0
52  0.75  0.625  0.0
53  0.875  0.625  0.0
54  1.0  0.625  0.0
55  0.0  0.75  0.0
56  0.125  0.75  0.0
57  0.25  0.75  0.0
58  0.375  0.75  0.0
59  0.5  0.75  0.0
60  0.625  0.75  0.0
61  0.75  0.75  0.0
62  0.875  0.75  0.0
63  1.0  0.75  0.0
64  0.0  0.875  0.0
65  0.125  0.875  0.0
66  0.25  0.875  0.0
67  0.375  0.875  0.0
68  0.5  0.875  0.0
69  0.625  0.875  0.0
70  0.75  0.875  0.0
71  0.875  0.875  0.0
72  1.0  0.875  0.0
73  0.0  1.0  0.0
74  0.125  1.0  0.0
75  0.25  1.0  0.0
76  0.375  1.0  0.0
77  0.5  1.0  0.0
78  0.625  1.0  0.0
79  0.75  1.0  0.0
80  0.875  1.0  0.0
81  1.0  1.0  0.0
82  0.0  0.0  0.125
83  0.125  0.0  0.125
84  0.25  0.0  0.125
85  0.375  0.0  0.125
86  0.5  0.0  0.125
87  0.625  0.0  0.125
88  0.75  0.0  0.125
89  0.875  0.0  0.125
90  1.0  0.0  0.125
91  0.0  0.125  0.125
92  0.125  0.125  0.125
93  0.25  0.125  0.125
94  0.375  0.125  0.125
95  0.5  0.125  0.125
96  0.625  0.125  0.125
97  0.75  0.125  0.125
98  0.875  0.125  0.125
99  1.0  0.125  0.125
100  0.0  0.25  0.125
101  0.125  0.25  0.125
102  0.25  0.25  0.125
103  0.375  0.25  0.125
104  0.5  0.25  0.125
105  0.625  0.25  0.125
106  0.75  0.25  0.125
107  0.875  0.25  0.125
108  1.0  0.25  0.125
109  0.0  0.375  0.125
110  0.125  0.375  0.125
111  0.25  0.375  0.125
112  0.375  0.375  0.125
113  0.5  0.375  0.125
114  0.625  0.375  0.125
115  0.75  0.375  0.125
116  0.875  0.375  0.125
117  1.0  0.375  0.125
118  0.0  0.5  0.125
119  0.125  0.5  0.125
120  0.25  0.5  0.125
121  0.375  0.5  0.125
122  0.5  0.5  0.125
123  0.625  0.5  0.125
124  0.75  0.5  0.125
125  0.875  0.5  0.125
126  1.0  0.5  0.125
127  0.0  0.625  0.125
128  0.125  0.625  0.125
129  0.25  0.625  0.125
130  0.375  0.625  0.125
131  0.5  0.625  0.125
132  0.625  0.625  0.125
133  0.75  0.625  0.125
134  0.875  0.625  0.125
135  1.0  0.625  0.125
136  0.0  0.75  0.125
137  0.125  0.75  0.125
138  0.25  0.75  0.125
139  0.375  0.75  0.125
140  0.5  0.75  0.125
141  0.625  0.75  0.125
142  0.75  0.75  0.125
143  0.875  0.75  0.125
144  1.0  0.75  0.125
145  0.0  0.875  0.125
146  0.125  0.875  0.125
147  0.25  0.875  0.125
148  0.375  0.875  0.125
149  0.5  0.875  0.125
150  0.625  0.875  0.125
151  0.75  0.875  0.125
152  0.875  0.875  0.125
153  1.0  0.875  0.125
154  0.0  1.0  0.125
155  0.125  1.0  0.125
156  0.25  1.0  0.125
157  0.375  1.0  0.125
158  0.5  1.0  0.125
159  0.625  1.0  0.125
160  0.75  1.0  0.125
161  0.875  1.0  0.125
162  1.0  1.0  0.125
163  0.0  0.0  0.25
164  0.125  0.0  0.25
165  0.25  0.0  0.25
166  0.375  0.0  0.25
167  0.5  0.0  0.25
168  0.625  0.0  0.25
169  0.75  0.0  0.25
170  0.875  0.0  0.25
171  1.0  0.0  0.25
172  0.0  0.125  0.25
173  0.125  0.125  0.25
174  0.25  0.125  0.25
175  0.375  0.125  0.25
176  0.5  0.125  0.25
177  0.625  0.125  0.25
178  0.75  0.125  0.25
179  0.875  0.125  0.25
180  1.0  0.125  0.25
181  0.0  0.25  0.25
182  0.125  0.25  0.25
183  0.25  0.25  0.25
184  0.375  0.25  0.25
185  0.5  0.25  0.25
186  0.625  0.25  0.25
187  0.75  0.25  0.25
188  0.875  0.25  0.25
189  1.0  0.25  0.25
190  0.0  0.375  0.25
191  0.125  0.375  0.25
192  0.25  0.375  0.25
193  0.375  0.375  0.25
194  0.5  0.375  0.25
195  0.625  0.375  0.25
196  0.75  0.375  0.25
197  0.875  0.375  0.25
198  1.0  0.375  0.25
199  0.0  0.5  0.25
200  0.125  0.5  0.25
201  0.25  0.5  0.25
202  0.375  0.5  0.25
203  0.5  0.5  0.25
204  0.625  0.5  0.25
205  0.75  0.5  0.25
206  0.875  0.5  0.25
207  1.0  0.5  0.25
208  0.0  0.625  0.25
209  0.125  0.625  0.25
210  0.25  0.625  0.25
211  0.375  0.625  0.25
212  0.5  0.625  0.25
213  0.625  0.625  0.25
214  0.75  0.625  0.25
215  0.875  0.625  0.25
216  1.0  0.625  0.25
217  0.0  0.75  0.25
218  0.125  0.75  0.25
219  0.25  0.75  0.25
220  0.375  0.75  0.25
221  0.5  0.75  0.25
222  0.625  0.75  0.25
223  0.75  0.75  0.25
224  0.875  0.75  0.25
225  1.0  0.75  0.25
226  0.0  0.875  0.25
227  0.125  0.875  0.25
228  0.25  0.875  0.25
229  0.375  0.875  0.25
230  0.5  0.875  0.25
231  0.625  0.875  0.25
232  0.75  0.875  0.25
233  0.875  0.875  0.25
234  1.0  0.875  0.25
235  0.0  1.0  0.25
236  0.125  1.0  0.25
237  0.25  1.0  0.25
238  0.375  1.0  0.25
239  0.5  1.0  0.25
240  0.625  1.0  0.25
241  0.75  1.0  0.25
242  0.875  1.0  0.25
243  1.0  1.0  0.25
244  0.0  0.0  0.375
245  0.125  0.0  0.375
246  0.25  0.0  0.375
247  0.375  0.0  0.375
248  0.5  0.0  0.375
249  0.625  0.0  0.375
250  0.75  0.0  0.375
251  0.875  0.0  0.375
252  1.0  0.0  0.375
253  0.0  0.125  0.375
254  0.125  0.125  0.375
255  0.25  0.125  0.375
256  0.375  0.125  0.375
257  0.5  0.125  0.375
258  0.625  0.125  0.375
259  0.75  0.125  0.375
260  0.875  0.125  0.375
261  1.0  0.125  0.375
262  0.0  0.25  0.375
263  0.125  0.25  0.375
264  0.25  0.25  0.375
265  0.375  0.25  0.375
266  0.5  0.25  0.375
267  0.625  0.25  0.375
268  0.75  0.25  0.375
269  0.875  0.25  0.375
270  1.0  0.25  0.375
271  0.0  0.375  0.375
272  0.125  0.375  0.375
273  0.25  0.375  0.375
274  0.375  0.375  0.375
275  0.5  0.375  0.375
276  0.625  0.375  0.375
277  0.75  0.375  0.375
278  0.875  0.375  0.375
279  1.0  0.375  0.375
280  0.0  0.5  0.375
281  0.125  0.5  0.375
282  0.25  0.5  0.375
283  0.375  0.5  0.375
284  0.5  0.5  0.375
285  0.625  0.5  0.375
286  0.75  0.5  0.375
287  0.875  0.5  0.375
288  1.0  0.5  0.375
289  0.0  0.625  0.375
290  0.125  0.625  0.375
291  0.25  0.625  0.375
292  0.375  0.625  0.375
293  0.5  0.625  0.375
294  0.625  0.625  0.375
295  0.75  0.625  0.375
296  0.875  0.625  0.375
297  1.0  0.625  0.375
298  0.0  0.75  0.375
299  0.125  0.75  0.375
300  0.25  0.75  0.375
301  0.375  0.75  0.375
302  0.5  0.75  0.375
303  0.625  0.75  0.375
304  0.75  0.75  0.375
305  0.875  0.75  0.375
306  1.0  0.75  0.375
307  0.0  0.875  0.375
308  0.125  0.875  0.375
309  0.25  0.875  0.375
310  0.375  0.875  0.375
311  0.5  0.875  0.375
312  0.625  0.875  0.375
313  0.75  0.875  0.375
314  0.875  0.875  0.375
315  1.0  0.875  0.375
316  0.0  1.0  0.375
317  0.125  1.0  0.375
318  0.25  1.0  0.375
319  0.375  1.0  0.375
320  0.5  1.0  0.375
321  0.625  1.0  0.375
322  0.75  1.0  0.375
323  0.875  1.0  0.375
324  1.0  1.0  0.375
325  0.0  0.0  0.5
326  0.125  0.0  0.5
327  0.25  0.0  0.5
328  0.375  0.0  0.5
329  0.5  0.0  0.5
330  0.625  0.0  0.5
331  0.75  0.0  0.5
332  0.875  0.0  0.5
333  1.0  0.0  0.5
334  0.0  0.125  0.5
335  0.125  0.125  0.5
336  0.25  0.125  0.5
337  0.375  0.125  0.5
338  0.5  0.125  0.5
339  0.625  0.125  0.5
340  0.75  0.125  0.5
341  0.875  0.125  0.5
342  1.0  0.125  0.5
343  0.0  0.25  0.5
344  0.125  0.25  0.5
345  0.25  0.25  0.5
346  0.375  0.25  0.5
347  0.5  0.25  0.5
348  0.625  0.25  0.5
349  0.75  0.25  0.5
350  0.875  0.25  0.5
351  1.0  0.25  0.5
352  0.0  0.375  0.5
353  0.125  0.375  0.5
354  0.25  0.375  0.5
355  0.375  0.375  0.5
356  0.5  0.375  0.5
357  0.625  0.375  0.5
358  0.75  0.375  0.5
359  0.875  0.375  0.5
360  1.0  0.375  0.5
361  0.0  0.5  0.5
362  0.125  0.5  0.5
363  0.25  0.5  0.5
364  0.375  0.5  0.5
365  0.5  0.5  0.5
366  0.625  0.5  0.5
367  0.75  0.5  0.5
368  0.875  0.5  0.5
369  1.0  0.5  0.5
370  0.0  0.625  0.5
371  0.125  0.625  0.5
372  0.25  0.625  0.5
373  0.375  0.625  0.5
374  0.5  0.625  0.5
375  0.625  0.625  0.5
376  0.75  0.625  0.5
377  0.875  0.625  0.5
378  1.0  0.625  0.5
379  0.0  0.75  0.5
380  0.125  0.75  0.5
381  0.25  0.75  0.5
382  0.375  0.75  0.5
383  0.5  0.75  0.5
384  0.625  0.75  0.5
385  0.75  0.75  0.5
386  0.875  0.75  0.5
387  1.0  0.75  0.5
388  0.0  0.875  0.5
389  0.125  0.875  0.5
390  0.25  0.875  0.5
391  0.375  0.875  0.5
392  0.5  0.875  0.5
393  0.625  0.875  0.5
394  0.75  0.875  0.5
395  0.875  0.875  0.5
396  1.0  0.875  0.5
397  0.0  1.0  0.5
398  0.125  1.0  0.5
399  0.25  1.0  0.5
400  0.375  1.0  0.5
401  0.5  1.0  0.5
402  0.625  1.0  0.5
403  0.75  1.0  0.5
404  0.875  1.0  0.5
405  1.0  1.0  0.5
406  0.0  0.0  0.625
407  0.125  0.0  0.625
408  0.25  0.0  0.625
409  0.375  0.0  0.625
410  0.5  0.0  0.625
411  0.625  0.0  0.625
412  0.75  0.0  0.625
413  0.875  0.0  0.625
414  1.0  0.0  0.625
415  0.0  0.125  0.625
416  0.125  0.125  0.625
417  0.25  0.125  0.625
418  0.375  0.125  0.625
419  0.5  0.125  0.625
420  0.625  0.125  0.625
421  0.75  0.125  0.625
422  0.875  0.125  0.625
423  1.0  0.125  0.625
424  0.0  0.25  0.625
425  0.125  0.25  0.625
426  0.25  0.25  0.625
427  0.375  0.25  0.625
428  0.5  0.25  0.625
429  0.625  0.25  0.625
430  0.75  0.25  0.625
431  0.875  0.25  0.625
432  1.0  0.25  0.625
433  0.0  0.375  0.625
434  0.125  0.375  0.625
435  0.25  0.375  0.625
436  0.375  0.375  0.625
437  0.5  0.375  0.625
438  0.625  0.375  0.625
439  0.75  0.375  0.625
440  0.875  0.375  0.625
441  1.0  0.375  0.625
442  0.0  0.5  0.625
443  0.125  0.5  0.625
444  0.25  0.5  0.625
445  0.375  0.5  0.625
446  0.5  0.5  0.625
447  0.625  0.5  0.625
448  0.75  0.5  0.625
449  0.875  0.5  0.625
450  1.0  0.5  0.625
451  0.0  0.625  0.625
452  0.125  0.625  0.625
453  0.25  0.625  0.625
454  0.375  0.625  0.625
455  0.5  0.625  0.625
456  0.625  0.625  0.625
457  0.75  0.625  0.625
458  0.875  0.625  0.625
459  1.0  0.625  0.625
460  0.0  0.75  0.625
461  0.125  0.75  0.625
462  0.25  0.75  0.625
463  0.375  0.75  0.625
464  0.5  0.75  0.625
465  0.625  0.75  0.625
466  0.75  0.75  0.625
467  0.875  0.75  0.625
468  1.0  0.75  0.625
469  0.0  0.875  0.625
470  0.125  0.875  0.625
471  0.25  0.875  0.625
472  0.375  0.875  0.625
473  0.5  0.875  0.625
474  0.625  0.875  0.625
475  0.75  0.875  0.625
476  0.875  0.875  0.625
477  1.0  0.875  0.625
478  0.0  1.0  0.625
479  0.125  1.0  0.625
480  0.25  1.0  0.625
481  0.375  1.0  0.625
482  0.5  1.0  0.625
483  0.625  1.0  0.625
484  0.75  1.0  0.625
485  0.875  1.0  0.625
486  1.0  1.0  0.625
487  0.0  0.0  0.75
488  0.125  0.0  0.75
489  0.25  0.0  0.75
490  0.375  0.0  0.75
491  0.5  0.0  0.75
492  0.625  0.0  0.75
493  0.75  0.0  0.75
494  0.875  0.0  0.75
495  1.0  0.0  0.75
496  0.0  0.125  0.75
497  0.125  0.125  0.75
498  0.25  0.125  0.75
499  0.375  0.125  0.75
500  0.5  0.125  0.75
501  0.625  0.125  0.75
502  0.75  0.125  0.75
503  0.875  0.125  0.75
504  1.0  0.125  0.75
505  0.0  0.25  0.75
506  0.125  0.25  0.75
507  0.25  0.25  0.75
508  0.375  0.25  0.75
509  0.5  0.25  0.75
510  0.625  0.25  0.75
511  0.75  0.25  0.75
512  0.875  0.25  0.75
513  1.0  0.25  0.75
514  0.0  0.375  0.75
515  0.125  0.375  0.75
516  0.25  0.375  0.75
517  0.375  0.375  0.75
518  0.5  0.375  0.75
519  0.625  0.375  0.75
520  0.75  0.375  0.75
521  0.875  0.375  0.75
522  1.0  0.375  0.75
523  0.0  0.5  0.75
524  0.125  0.5  0.75
525  0.25  0.5  0.75
526  0.375  0.5  0.75
527  0.5  0.5  0.75
528  0.625  0.5  0.75
529  0.75  0.5  0.75
530  0.875  0.5  0.75
531  1.0  0.5  0.75
532  0.0  0.625  0.75
533  0.125  0.625  0.75
534  0.25  0.625  0.75
535  0.375  0.625  0.75
536  0.5  0.625  0.75
537  0.625  0.625  0.75
538  0.75  0.625  0.75
539  0.875  0.625  0.75
540  1.0  0.625  0.75
541  0.0  0.75  0.75
542  0.125  0.75  0.75
543  0.25  0.75  0.75
544  0.375  0.75  0.75
545  0.5  0.75  0.75
546  0.625  0.75  0.75
547  0.75  0.75  0.75
548  0.875  0.75  0.75
549  1.0  0.75  0.75
550  0.0  0.875  0.75
551  0.125  0.875  0.75
552  0.25  0.875  0.75
553  0.375  0.875  0.75
554  0.5  0.875  0.75
555  0.625  0.875  0.75
556  0.75  0.875  0.75
557  0.875  0.875  0.75
558  1.0  0.875  0.75
559  0.0  1.0  0.75
560  0.125  1.0  0.75
561  0.25  1.0  0.75
562  0.375  1.0  0.75
563  0.5  1.0  0.75
564  0.625  1.0  0.75
565  0.75  1.0  0.75
566  0.875  1.0  0.75
567  1.0  1.0  0.75
568  0.0  0.0  0.875
569  0.125  0.0  0.875
570  0.25  0.0  0.875
571  0.375  0.0  0.875
572  0.5  0.0  0.875
573  0.625  0.0  0.875
574  0.75  0.0  0.875
575  0.875  0.0  0.875
576  1.0  0.0  0.875
577  0.0  0.125  0.875
578  0.125  0.125  0.875
579  0.25  0.125  0.875
580  0.375  0.125  0.875
581  0.5  0.125  0.875
582  0.625  0.125  0.875
583  0.75  0.125  0.875
584  0.875  0.125  0.875
585  1.0  0.125  0.875
586  0.0  0.25  0.875
587  0.125  0.25  0.875
588  0.25  0.25  0.875
589  0.375  0.25  0.875
590  0.5  0.25  0.875
591  0.625  0.25  0.875
592  0.75  0.25  0.875
593  0.875  0.25  0.875
594  1.0  0.25  0.875
595  0.0  0.375  0.875
596  0.125  0.375  0.875
597  0.25  0.375  0.875
598  0.375  0.375  0.875
599  0.5  0.375  0.875
600  0.625  0.375  0.875
601  0.75  0.375  0.875
602  0.875  0.375  0.875
603  1.0  0.375  0.875
604  0.0  0.5  0.875
605  0.125  0.5  0.875
606  0.25  0.5  0.875
607  0.375  0.5  0.875
608  0.5  0.5  0.875
609  0.625  0.5  0.875
610  0.75  0.5  0.875
611  0.875  0.5  0.875
612  1.0  0.5  0.875
613  0.0  0.625  0.875
614  0.125  0.625  0.875
615  0.25  0.625  0.875
616  0.375  0.625  0.875
617  0.5  0.625  0.875
618  0.625  0.625  0.875
619  0.75  0.625  0.875
620  0.875  0.625  0.875
621  1.0  0.625  0.875
622  0.0  0.75  0.875
623  0.125  0.75  0.875
624  0.25  0.75  0.875
625  0.375  0.75  0.875
626  0.5  0.75  0.875
627  0.625  0.75  0.875
628  0.75  0.75  0.875
629  0.875  0.75  0.875
630  1.0  0.75  0.875
631  0.0  0.875  0.875
632  0.125  0.875  0.875
633  0.25  0.875  0.875
634  0.375  0.875  0.875
635  0.5  0.875  0.875
636  0.625  0.875  0.875
637  0.75  0.875  0.875
638  0.875  0.875  0.875
639  1.0  0.875  0.875
640  0.0  1.0  0.875
641  0.125  1.0  0.875
642  0.25  1.0  0.875
643  0.375  1.0  0.875
644  0.5  1.0  0.875
645  0.625  1.0  0.875
646  0.75  1.0  0.875
647  0.875  1.0  0.875
648  1.0  1.0  0.875
649  0.0  0.0  1.0
650  0.125  0.0  1.0
651  0.25  0.0  1.0
652  0.375  0.0  1.0
653  0.5  0.0  1.0
654  0.625  0.0  1.0
655  0.75  0.0  1.0
656  0.875  0.0  1.0
657  1.0  0.0  1.0
658  0.0  0.125  1.0
659  0.125  0.125  1.0
660  0.25  0.125  1.0
661  0.375  0.125  1.0
662  0.5  0.125  1.0
663  0.625  0.125  1.0
664  0.75  0.125  1.0
665  0.875  0.125  1.0
666  1.0  0.125  1.0
667  0.0  0.25  1.0
668  0.125  0.25  1.0
669  0.25  0.25  1.0
670  0.375  0.25  1.0
671  0.5  0.25  1.0
672  0.625  0.25  1.0
673  0.75  0.25  1.0
674  0.875  0.25  1.0
675  1.0  0.25  1.0
676  0.0  0.375  1.0
677  0.125  0.375  1.0
678  0.25  0.375  1.0
679  0.375  0.375  1.0
680  0.5  0.375  1.0
681  0.625  0.375  1.0
682  0.75  0.375  1.0
683  0.875  0.375  1.0
684  1.0  0.375  1.0
685  0.0  0.5  1.0
686  0.125  0.5  1.0
687  0.25  0.5  1.0
688  0.375  0.5  1.0
689  0.5  0.5  1.0
690  0.625  0.5  1.0
691  0.75  0.5  1.0
692  0.875  0.5  1.0
693  1.0  0.5  1.0
694  0.0  0.625  1.0
695  0.125  0.625  1.0
696  0.25  0.625  1.0
697  0.375  0.625  1.0
698  0.5  0.625  1.0
699  0.625  0.625  1.0
700  0.75  0.625  1.0
701  0.875  0.625  1.0
702  1.0  0.625  1.0
703  0.0  0.75  1.0
704  0.125  0.75  1.0
705  0.25  0.75  1.0
706  0.375  0.75  1.0
707  0.5  0.75  1.0
708  0.625  0.75  1.0
709  0.75  0.75  1.0
710  0.875  0.75  1.0
711  1.0  0.75  1.0
712  0.0  0.875  1.0
713  0.125  0.875  1.0
714  0.25  0.875  1.0
715  0.375  0.875  1.0
716  0.5  0.875  1.0
717  0.625  0.875  1.0
718  0.75  0.875  1.0
719  0.875  0.875  1.0
720  1.0  0.875  1.0
721  0.0  1.0  1.0
722  0.125  1.0  1.0
723  0.25  1.0  1.0
724  0.375  1.0  1.0
725  0.5  1.0  1.0
726  0.625  1.0  1.0
727  0.75  1.0  1.0
728  0.875  1.0  1.0
729  1.0  1.0  1.0

[1D Elements]
#ElemNr  ElemType  NrOfNodes  Level
#Node1 Node2 ... NodeNrOfNodes

[2D Elements]
#ElemNr  ElemType  NrOfNodes  Level
#Node1 Node2 ... NodeNrOfNodes

[3D Elements]
#ElemNr  ElemType  NrOfNodes  Level
#Node1 Node2 ... NodeNrOfNodes
1 10 8 mech
10 11 92 91 1 2 83 82
2 10 8 mech
11 12 93 92 2 3 84 83
3 10 8 mech
12 13 94 93 3 4 85 84
4 10 8 mech
13 14 95 94 4 5 86 85
5 10 8 mech
14 15 96 95 5 6 87 86
6 10 8 mech
15 16 97 96 6 7 88 87
7 10 8 mech
16 17 98 97 7 8 89 88
8 10 8 mech
17 18 99 98 8 9 90 89
9 10 8 mech
19 20 101 100 10 11 92 91
10 10 8 mech
20 21 102 101 11 12 93 92
11 10 8 mech
21 22 103 102 12 13 94 93
12 10 8 mech
22 23 104 103 13 14 95 94
13 10 8 mech
23 24 105 104 14 15 96 95
14 10 8 mech
24 25 106 105 15 16 97 96
15 10 8 mech
25 26 107 106 16 17 98 97
16 10 8 mech
26 27 108 107 17 18 99 98
17 10 8 mech
28 29 110 109 19 20 101 100
18 10 8 mech
29 30 111 110 20 21 102 101
19 10 8 mech
30 31 112 111 21 22 103 102
20 10 8 mech
31 32 113 112 22 23 104 103
21 10 8 mech
32 33 114 113 23 24 105 104
22 10 8 mech
33 34 115 114 24 25 106 105
23 10 8 mech
34 35 116 115 25 26 107 106
24 10 8 mech
35 36 117 116 26 27 108 107
25 10 8 mech
37 38 119 118 28 29 110 109
26 10 8 mech
38 39 120 119 29 30 111 110
27 10 8 mech
39 40 121 120 30 31 112 111
28 10 8 mech
40 41 122 121 31 32 113 112
29 10 8 mech
41 42 123 122 32 33 114 113
30 10 8 mech
42 43 124 123 33 34 115 114
31 10 8 mech
43 44 125 124 34 35 116 115
32 10 8 mech
44 45 126 125 35 36 117 116
33 10 8 mech
46 47 128 127 37 38 119 118
34 10 8 mech
47 48 129 128 38 39 120 119
35 10 8 mech
48 49 130 129 39 40 121 120
36 10 8 mech
49 50 131 130 40 41 122 121
37 10 8 mech
50 51 132 131 41 42 123 122
38 10 8 mech
51 52 133 132 42 43 124 123
39 10 8 mech
52 53 134 133 43 44 125 124
40 10 8 mech
53 54 135 134 44 45 126 125
41 10 8 mech
55 56 137 136 46 47 128 127
42 10 8 mech
56 57 138 137 47 48 129 128
43 10 8 mech
57 58 139 138 48 49 130 129
44 10 8 mech
58 59 140 139 49 50 131 130
45 10 8 mech
59 60 141 140 50 51 132 131
46 10 8 mech
60 61 142 141 51 52 133 132
47 10 8 mech
61 62 143 142 52 53 134 133
48 10 8 mech
62 63 144 143 53 54 135 134
49 10 8 mech
64 65 146 145 55 56 137 136
50 10 8 mech
65 66 147 146 56 57 138 137
51 10 8 mech
66 67 148 147 57 58 139 138
52 10 8 mech
67 68 149 148 58 59 140 139
53 10 8 mech
68 69 150 149 59 60 141 140
54 10 8 mech
69 70 151 150 60 61 142 141
55 10 8 mech
70 71 152 151 61 62 143 142
56 10 8 mech
71 72 153 152 62 63 144 143
57 10 8 mech
73 74 155 154 64 65 146 145
58 10 8 mech
74 75 156 155 65 66 147 146
59 10 8 mech
75 76 157 156 66 67 148 147
60 10 8 mech
76 77 158 157 67 68 149 148
61 10 8 mech
77 78 159 158 68 69 150 149
62 10 8 mech
78 79 160 159 69 70 151 150
63 10 8 mech
79 80 161 160 70 71 152 151
64 10 8 mech
80 81 162 161 71 72 153 152
65 10 8 mech
91 92 173 172 82 83 164 163
66 10 8 mech
92 93 174 173 83 84 165 164
67 10 8 mech
93 94 175 174 84 85 166 165
68 10 8 mech
94 95 176 175 85 86 167 166
69 10 8 mech
95 96 177 176 86 87 168 167
70 10 8 mech
96 97 178 177 87 88 169 168
71 10 8 mech
97 98 179 178 88 89 170 169
72 10 8 mech
98 99 180 179 89 90 171 170
73 10 8 mech
100 101 182 181 91 92 173 172
74 10 8 mech
101 102 183 182 92 93 174 173
75 10 8 mech
102 103 184 183 93 94 175 174
76 10 8 mech
103 104 185 184 94 95 176 175
77 10 8 mech
104 105 186 185 95 96 177 176
78 10 8 mech
105 106 187 186 96 97 178 177
79 10 8 mech
106 107 188 187 97 98 179 178
80 10 8 mech
107 108 189 188 98 99 180 179
81 10 8 mech
109 110 191 190 100 101 182 181
82 10 8 mech
110 111 192 191 101 102 183 182
83 10 8 mech
111 112 193 192 102 103 184 183
84 10 8 mech
112 113 194 193 103 104 185 184
85 10 8 mech
113 114 195 194 104 105 186 185
86 10 8 mech
114 115 196 195 105 106 187 186
87 10 8 mech
115 116 197 196 106 107 188 187
88 10 8 mech
116 117 198 197 107 108 189 188
89 10 8 mech
118 119 200 199 109 110 191 190
90 10 8 mech
119 120 201 200 110 111 192 191
91 10 8 mech
120 121 202 201 111 112 193 192
92 10 8 mech
121 122 203 202 112 113 194 193
93 10 8 mech
122 123 204 203 113 114 195 194
94 10 8 mech
123 124 205 204 114 115 196 195
95 10 8 mech
124 125 206 205 115 116 197 196
96 10 8 mech
125 126 207 206 116 117 198 197
97 10 8 mech
127 128 209 208 118 119 200 199
98 10 8 mech
128 129 210 209 119 120 201 200
99 10 8 mech
129 130 211 210 120 121 202 201
100 10 8 mech
130 131 212 211 121 122 203 202
101 10 8 mech
131 132 213 212 122 123 204 203
102 10 8 mech
132 133 214 213 123 124 205 204
103 10 8 mech
133 134 215 214 124 125 206 205
104 10 8 mech
134 135 216 215 125 126 207 206
105 10 8 mech
136 137 218 217 127 128 209 208
106 10 8 mech
137 138 219 218 128 129 210 209
107 10 8 mech
138 139 220 219 129 130 211 210
108 10 8 mech
139 140 221 220 130 131 212 211
109 10 8 mech
140 141 222 221 131 132 213 212
110 10 8 mech
141 142 223 222 132 133 214 213
111 10 8 mech
142 143 224 223 133 134 215 214
112 10 8 mech
143 144 225 224 134 135 216 215
113 10 8 mech
145 146 227 226 136 137 218 217
114 10 8 mech
146 147 228 227 137 138 219 218
115 10 8 mech
147 148 229 228 138 139 220 219
116 10 8 mech
148 149 230 229 139 140 221 220
117 10 8 mech
149 150 231 230 140 141 222 221
118 10 8 mech
150 151 232 231 141 142 223 222
119 10 8 mech
151 152 233 232 142 143 224 223
120 10 8 mech
152 153 234 233 143 144 225 224
121 10 8 mech
154 155 236 235 145 146 227 226
122 10 8 mech
155 156 237 236 146 147 228 227
123 10 8 mech
156 157 238 237 147 148 229 228
124 10 8 mech
157 158 239 238 148 149 230 229
125 10 8 mech
158 159 240 239 149 150 231 230
126 10 8 mech
159 160 241 240 150 151 232 231
127 10 8 mech
160 161 242 241 151 152 233 232
128 10 8 mech
161 162 243 242 152 153 234 233
129 10 8 mech
172 173 254 253 163 164 245 244
130 10 8 mech
173 174 255 254 164 165 246 245
131 10 8 mech
174 175 256 255 165 166 247 246
132 10 8 mech
175 176 257 256 166 167 248 247
133 10 8 mech
176 177 258 257 167 168 249 248
134 10 8 mech
177 178 259 258 168 169 250 249
135 10 8 mech
178 179 260 259 169 170 251 250
136 10 8 mech
179 180 261 260 170 171 252 251
137 10 8 mech
181 182 263 262 172 173 254 253
138 10 8 mech
182 183 264 263 173 174 255 254
139 10 8 mech
183 184 265 264 174 175 256 255
140 10 8 mech
184 185 266 265 175 176 257 256
141 10 8 mech
185 186 267 266 176 177 258 257
142 10 8 mech
186 187 268 267 177 178 259 258
143 10 8 mech
187 188 269 268 178 179 260 259
144 10 8 mech
188 189 270 269 179 180 261 260
145 10 8 mech
190 191 272 271 181 182 263 262
146 10 8 mech
191 192 273 272 182 183 264 263
147 10 8 mech
192 193 274 273 183 184 265 264
148 10 8 mech
193 194 275 274 184 185 266 265
149 10 8 mech
194 195 276 275 185 186 267 266
150 10 8 mech
195 196 277 276 186 187 268 267
151 10 8 mech
196 197 278 277 187 188 269 268
152 10 8 mech
197 198 279 278 188 189 270 269
153 10 8 mech
199 200 281 280 190 191 272 271
154 10 8 mech
200 201 282 281 191 192 273 272
155 10 8 mech
201 202 283 282 192 193 274 273
156 10 8 mech
202 203 284 283 193 194 275 274
157 10 8 mech
203 204 285 284 194 195 276 275
158 10 8 mech
204 205 286 285 195 196 277 276
159 10 8 mech
205 206 287 286 196 197 278 277
160 10 8 mech
206 207 288 287 197 198 279 278
161 10 8 mech
208 209 290 289 199 200 281 280
162 10 8 mech
209 210 291 290 200 201 282 281
163 10 8 mech
210 211 292 291 201 202 283 282
164 10 8 mech
211 212 293 292 202 203 284 283
165 10 8 mech
212 213 294 293 203 204 285 284
166 10 8 mech
213 214 295 294 204 205 286 285
167 10 8 mech
214 215 296 295 205 206 287 286
168 10 8 mech
215 216 297 296 206 207 288 287
169 10 8 mech
217 218 299 298 208 209 290 289
170 10 8 mech
218 219 300 299 209 210 291 290
171 10 8 mech
219 220 301 300 210 211 292 291
172 10 8 mech
220 221 302 301 211 212 293 292
173 10 8 mech
221 222 303 302 212 213 294 293
174 10 8 mech
222 223 304 303 213 214 295 294
175 10 8 mech
223 224 305 304 214 215 296 295
176 10 8 mech
224 225 306 305 215 216 297 296
177 10 8 mech
226 227 308 307 217 218 299 298
178 10 8 mech
227 228 309 308 218 219 300 299
179 10 8 mech
228 229 310 309 219 220 301 300
180 10 8 mech
229 230 311 310 220 221 302 301
181 10 8 mech
230 231 312 311 221 222 303 302
182 10 8 mech
231 232 313 312 222 223 304 303
183 10 8 mech
232 233 314 313 223 224 305 304
184 10 8 mech
233 234 315 314 224 225 306 305
185 10 8 mech
235 236 317 316 226 227 308 307
186 10 8 mech
236 237 318 317 227 228 309 308
187 10 8 mech
237 238 319 318 228 229 310 309
188 10 8 mech
238 239 320 319 229 230 311 310
189 10 8 mech
239 240 321 320 230 231 312 311
190 10 8 mech
240 241 322 321 231 232 313 312
191 10 8 mech
241 242 323 322 232 233 314 313
192 10 8 mech
242 243 324 323 233 234 315 314
193 10 8 mech
253 254 335 334 244 245 326 325
194 10 8 mech
254 255 336 335 245 246 327 326
195 10 8 mech
255 256 337 336 246 247 328 327
196 10 8 mech
256 257 338 337 247 248 329 328
197 10 8 mech
257 258 339 338 248 249 330 329
198 10 8 mech
258 259 340 339 249 250 331 330
199 10 8 mech
259 260 341 340 250 251 332 331
200 10 8 mech
260 261 342 341 251 252 333 332
201 10 8 mech
262 263 344 343 253 254 335 334
202 10 8 mech
263 264 345 344 254 255 336 335
203 10 8 mech
264 265 346 345 255 256 337 336
204 10 8 mech
265 266 347 346 256 257 338 337
205 10 8 mech
266 267 348 347 257 258 339 338
206 10 8 mech
267 268 349 348 258 259 340 339
207 10 8 mech
268 269 350 349 259 260 341 340
208 10 8 mech
269 270 351 350 260 261 342 341
209 10 8 mech
271 272 353 352 262 263 344 343
210 10 8 mech
272 273 354 353 263 264 345 344
211 10 8 mech
273 274 355 354 264 265 346 345
212 10 8 mech
274 275 356 355 265 266 347 346
213 10 8 mech
275 276 357 356 266 267 348 347
214 10 8 mech
276 277 358 357 267 268 349 348
215 10 8 mech
277 278 359 358 268 269 350 349
216 10 8 mech
278 279 360 359 269 270 351 350
217 10 8 mech
280 281 362 361 271 272 353 352
218 10 8 mech
281 282 363 362 272 273 354 353
219 10 8 mech
282 283 364 363 273 274 355 354
220 10 8 mech
283 284 365 364 274 275 356 355
221 10 8 mech
284 285 366 365 275 276 357 356
222 10 8 mech
285 286 367 366 276 277 358 357
223 10 8 mech
286 287 368 367 277 278 359 358
224 10 8 mech
287 288 369 368 278 279 360 359
225 10 8 mech
289 290 371 370 280 281 362 361
226 10 8 mech
290 291 372 371 281 282 363 362
227 10 8 mech
291 292 373 372 282 283 364 363
228 10 8 mech
292 293 374 373 283 284 365 364
229 10 8 mech
293 294 375 374 284 285 366 365
230 10 8 mech
294 295 376 375 285 286 367 366
231 10 8 mech
295 296 377 376 286 287 368 367
232 10 8 mech
296 297 378 377 287 288 369 368
233 10 8 mech
298 299 380 379 289 290 371 370
234 10 8 mech
299 300 381 380 290 291 372 371
235 10 8 mech
300 301 382 381 291 292 373 372
236 10 8 mech
301 302 383 382 292 293 374 373
237 10 8 mech
302 303 384 383 293 294 375 374
238 10 8 mech
303 304 385 384 294 295 376 375
239 10 8 mech
304 305 386 385 295 296 377 376
240 10 8 mech
305 306 387 386 296 297 378 377
241 10 8 mech
307 308 389 388 298 299 380 379
242 10 8 mech
308 309 390 389 299 300 381 380
243 10 8 mech
309 310 391 390 300 301 382 381
244 10 8 mech
310 311 392 391 301 302 383 382
245 10 8 mech
311 312 393 392 302 303 384 383
246 10 8 mech
312 313 394 393 303 304 385 384
247 10 8 mech
313 314 395 394 304 305 386 385
248 10 8 mech
314 315 396 395 305 306 387 386
249 10 8 mech
316 317 398 397 307 308 389 388
250 10 8 mech
317 318 399 398 308 309 390 389
251 10 8 mech
318 319 400 399 309 310 391 390
252 10 8 mech
319 320 401 400 310 311 392 391
253 10 8 mech
320 321 402 401 311 312 393 392
254 10 8 mech
321 322 403 402 312 313 394 393
255 10 8 mech
322 323 404 403 313 314 395 394
256 10 8 mech
323 324 405 404 314 315 396 395
257 10 8 mech
334 335 416 415 325 326 407 406
258 10 8 mech
335 336 417 416 326 327 408 407
259 10 8 mech
336 337 418 417 327 328 409 408
260 10 8 mech
337 338 419 418 328 329 410 409
261 10 8 mech
338 339 420 419 329 330 411 410
262 10 8 mech
339 340 421 420 330 331 412 411
263 10 8 mech
340 341 422 421 331 332 413 412
264 10 8 mech
341 342 423 422 332 333 414 413
265 10 8 mech
343 344 425 424 334 335 416 415
266 10 8 mech
344 345 426 425 335 336 417 416
267 10 8 mech
345 346 427 426 336 337 418 417
268 10 8 mech
346 347 428 427 337 338 419 418
269 10 8 mech
347 348 429 428 338 339 420 419
270 10 8 mech
348 349 430 429 339 340 421 420
271 10 8 mech
349 350 431 430 340 341 422 421
272 10 8 mech
350 351 432 431 341 342 423 422
273 10 8 mech
352 353 434 433 343 344 425 424
274 10 8 mech
353 354 435 434 344 345 426 425
275 10 8 mech
354 355 436 435 345 346 427 426
276 10 8 mech
355 356 437 436 346 347 428 427
277 10 8 mech
356 357 438 437 347 348 429 428
278 10 8 mech
357 358 439 438 348 349 430 429
279 10 8 mech
358 359 440 439 349 350 431 430
280 10 8 mech
359 360 441 440 350 351 432 431
281 10 8 mech
361 362 443 442 352 353 434 433
282 10 8 mech
362 363 444 443 353 354 435 434
283 10 8 mech
363 364 445 444 354 355 436 435
284 10 8 mech
364 365 446 445 355 356 437 436
285 10 8 mech
365 366 447 446 356 357 438 437
286 10 8 mech
366 367 448 447 357 358 439 438
287 10 8 mech
367 368 449 448 358 359 440 439
288 10 8 mech
368 369 450 449 359 360 441 440
289 10 8 mech
370 371 452 451 361 362 443 442
290 10 8 mech
371 372 453 452 362 363 444 443
291 10 8 mech
372 373 454 453 363 364 445 444
292 10 8 mech
373 374 455 454 364 365 446 445
293 10 8 mech
374 375 456 455 365 366 447 446
294 10 8 mech
375 376 457 456 366 367 448 447
295 10 8 mech
376 377 458 457 367 368 449 448
296 10 8 mech
377 378 459 458 368 369 450 449
297 10 8 mech
379 380 461 460 370 371 452 451
298 10 8 mech
380 381 462 461 371 372 453 452
299 10 8 mech
381 382 463 462 372 373 454 453
300 10 8 mech
382 383 464 463 373 374 455 454
301 10 8 mech
383 384 465 464 374 375 456 455
302 10 8 mech
384 385 466 465 375 376 457 456
303 10 8 mech
385 386 467 466 376 377 458 457
304 10 8 mech
386 387 468 467 377 378 459 458
305 10 8 mech
388 389 470 469 379 380 461 460
306 10 8 mech
389 390 471 470 380 381 462 461
307 10 8 mech
390 391 472 471 381 382 463 462
308 10 8 mech
391 392 473 472 382 383 464 463
309 10 8 mech
392 393 474 473 383 384 465 464
310 10 8 mech
393 394 475 474 384 385 466 465
311 10 8 mech
394 395 476 475 385 386 467 466
312 10 8 mech
395 396 477 476 386 387 468 467
313 10 8 mech
397 398 479 478 388 389 470 469
314 10 8 mech
398 399 480 479 389 390 471 470
315 10 8 mech
399 400 481 480 390 391 472 471
316 10 8 mech
400 401 482 481 391 392 473 472
317 10 8 mech
401 402 483 482 392 393 474 473
318 10 8 mech
402 403 484 483 393 394 475 474
319 10 8 mech
403 404 485 484 394 395 476 475
320 10 8 mech
404 405 486 485 395 396 477 476
321 10 8 mech
415 416 497 496 406 407 488 487
322 10 8 mech
416 417 498 497 407 408 489 488
323 10 8 mech
417 418 499 498 408 409 490 489
324 10 8 mech
418 419 500 499 409 410 491 490
325 10 8 mech
419 420 501 500 410 411 492 491
326 10 8 mech
420 421 502 501 411 412 493 492
327 10 8 mech
421 422 503 502 412 413 494 493
328 10 8 mech
422 423 504 503 413 414 495 494
329 10 8 mech
424 425 506 505 415 416 497 496
330 10 8 mech
425 426 507 506 416 417 498 497
331 10 8 mech
426 427 508 507 417 418 499 498
332 10 8 mech
427 428 509 508 418 419 500 499
333 10 8 mech
428 429 510 509 419 420 501 500
334 10 8 mech
429 430 511 510 420 421 502 501
335 10 8 mech
430 431 512 511 421 422 503 502
336 10 8 mech
431 432 513 512 422 423 504 503
337 10 8 mech
433 434 515 514 424 425 506 505
338 10 8 mech
434 435 516 515 425 426 507 506
339 10 8 mech
435 436 517 516 426 427 508 507
340 10 8 mech
436 437 518 517 427 428 509 508
341 10 8 mech
437 438 519 518 428 429 510 509
342 10 8 mech
438 439 520 519 429 430 511 510
343 10 8 mech
439 440 521 520 430 431 512 511
344 10 8 mech
440 441 522 521 431 432 513 512
345 10 8 mech
442 443 524 523 433 434 515 514
346 10 8 mech
443 444 525 524 434 435 516 515
347 10 8 mech
444 445 526 525 435 436 517 516
348 10 8 mech
445 446 527 526 436 437 518 517
349 10 8 mech
446 447 528 527 437 438 519 518
350 10 8 mech
447 448 529 528 438 439 520 519
351 10 8 mech
448 449 530 529 439 440 521 520
352 10 8 mech
449 450 531 530 440 441 522 521
353 10 8 mech
451 452 533 532 442 443 524 523
354 10 8 mech
452 453 534 533 443 444 525 524
355 10 8 mech
453 454 535 534 444 445 526 525
356 10 8 mech
454 455 536 535 445 446 527 526
357 10 8 mech
455 456 537 536 446 447 528 527
358 10 8 mech
456 457 538 537 447 448 529 528
359 10 8 mech
457 458 539 538 448 449 530 529
360 10 8 mech
458 459 540 539 449 450 531 530
361 10 8 mech
460 461 542 541 451 452 533 532
362 10 8 mech
461 462 543 542 452 453 534 533
363 10 8 mech
462 463 544 543 453 454 535 534
364 10 8 mech
463 464 545 544 454 455 536 535
365 10 8 mech
464 465 546 545 455 456 537 536
366 10 8 mech
465 466 547 546 456 457 538 537
367 10 8 mech
466 467 548 547 457 458 539 538
368 10 8 mech
467 468 549 548 458 459 540 539
369 10 8 mech
469 470 551 550 460 461 542 541
370 10 8 mech
470 471 552 551 461 462 543 542
371 10 8 mech
471 472 553 552 462 463 544 543
372 10 8 mech
472 473 554 553 463 464 545 544
373 10 8 mech
473 474 555 554 464 465 546 545
374 10 8 mech
474 475 556 555 465 466 547 546
375 10 8 mech
475 476 557 556 466 467 548 547
376 10 8 mech
476 477 558 557 467 468 549 548
377 10 8 mech
478 479 560 559 469 470 551 550
378 10 8 mech
479 480 561 560 470 471 552 551
379 10 8 mech
480 481 562 561 471 472 553 552
380 10 8 mech
481 482 563 562 472 473 554 553
381 10 8 mech
482 483 564 563 473 474 555 554
382 10 8 mech
483 484 565 564 474 475 556 555
383 10 8 mech
484 485 566 565 475 476 557 556
384 10 8 mech
485 486 567 566 476 477 558 557
385 10 8 mech
496 497 578 577 487 488 569 568
386 10 8 mech
497 498 579 578 488 489 570 569
387 10 8 mech
498 499 580 579 489 490 571 570
388 10 8 mech
499 500 581 580 490 491 572 571
389 10 8 mech
500 501 582 581 491 492 573 572
390 10 8 mech
501 502 583 582 492 493 574 573
391 10 8 mech
502 503 584 583 493 494 575 574
392 10 8 mech
503 504 585 584 494 495 576 575
393 10 8 mech
505 506 587 586 496 497 578 577
394 10 8 mech
506 507 588 587 497 498 579 578
395 10 8 mech
507 508 589 588 498 499 580 579
396 10 8 mech
508 509 590 589 499 500 581 580
397 10 8 mech
509 510 591 590 500 501 582 581
398 10 8 mech
510 511 592 591 501 502 583 582
399 10 8 mech
511 512 593 592 502 503 584 583
400 10 8 mech
512 513 594 593 503 504 585 584
401 10 8 mech
514 515 596 595 505 506 587 586
402 10 8 mech
515 516 597 596 506 507 588 587
403 10 8 mech
516 517 598 597 507 508 589 588
404 10 8 mech
517 518 599 598 508 509 590 589
405 10 8 mech
518 519 600 599 509 510 591 590
406 10 8 mech
519 520 601 600 510 511 592 591
407 10 8 mech
520 521 602 601 511 512 593 592
408 10 8 mech
521 522 603 602 512 513 594 593
409 10 8 mech
523 524 605 604 514 515 596 595
410 10 8 mech
524 525 606 605 515 516 597 596
411 10 8 mech
525 526 607 606 516 517 598 597
412 10 8 mech
526 527 608 607 517 518 599 598
413 10 8 mech
527 528 609 608 518 519 600 599
414 10 8 mech
528 529 610 609 519 520 601 600
415 10 8 mech
529 530 611 610 520 521 602 601
416 10 8 mech
530 531 612 611 521 522 603 602
417 10 8 mech
532 533 614 613 523 524 605 604
418 10 8 mech
533 534 615 614 524 525 606 605
419 10 8 mech
534 535 616 615 525 526 607 606
420 10 8 mech
535 536 617 616 526 527 608 607
421 10 8 mech
536 537 618 617 527 528 609 608
422 10 8 mech
537 538 619 618 528 529 610 609
423 10 8 mech
538 539 620 619 529 530 611 610
424 10 8 mech
539 540 621 620 530 531 612 611
425 10 8 mech
541 542 623 622 532 533 614 613
426 10 8 mech
542 543 624 623 533 534 615 614
427 10 8 mech
543 544 625 624 534 535 616 615
428 10 8 mech
544 545 626 625 535 536 617 616
429 10 8 mech
545 546 627 626 536 537 618 617
430 10 8 mech
546 547 628 627 537 538 619 618
431 10 8 mech
547 548 629 628 538 539 620 619
432 10 8 mech
548 549 630 629 539 540 621 620
433 10 8 mech
550 551 632 631 541 542 623 622
434 10 8 mech
551 552 633 632 542 543 624 623
435 10 8 mech
552 553 634 633 543 544 625 624
436 10 8 mech
553 554 635 634 544 545 626 625
437 10 8 mech
554 555 636 635 545 546 627 626
438 10 8 mech
555 556 637 636 546 547 628 627
439 10 8 mech
556 557 638 637 547 548 629 628
440 10 8 mech
557 558 639 638 548 549 630 629
441 10 8 mech
559 560 641 640 550 551 632 631
442 10 8 mech
560 561 642 641 551 552 633 632
443 10 8 mech
561 562 643 642 552 553 634 633
444 10 8 mech
562 563 644 643 553 554 635 634
445 10 8 mech
563 564 645 644 554 555 636 635
446 10 8 mech
564 565 646 645 555 556 637 636
447 10 8 mech
565 566 647 646 556 557 638 637
448 10 8 mech
566 567 648 647 557 558 639 638
449 10 8 mech
577 578 659 658 568 569 650 649
450 10 8 mech
578 579 660 659 569 570 651 650
451 10 8 mech
579 580 661 660 570 571 652 651
452 10 8 mech
580 581 662 661 571 572 653 652
453 10 8 mech
581 582 663 662 572 573 654 653
454 10 8 mech
582 583 664 663 573 574 655 654
455 10 8 mech
583 584 665 664 574 575 656 655
456 10 8 mech
584 585 666 665 575 576 657 656
457 10 8 mech
586 587 668 667 577 578 659 658
458 10 8 mech
587 588 669 668 578 579 660 659
459 10 8 mech
588 589 670 669 579 580 661 660
460 10 8 mech
589 590 671 670 580 581 662 661
461 10 8 mech
590 591 672 671 581 582 663 662
462 10 8 mech
591 592 673 672 582 583 664 663
463 10 8 mech
592 593 674 673 583 584 665 664
464 10 8 mech
593 594 675 674 584 585 666 665
465 10 8 mech
595 596 677 676 586 587 668 667
466 10 8 mech
596 597 678 677 587 588 669 668
467 10 8 mech
597 598 679 678 588 589 670 669
468 10 8 mech
598 599 680 679 589 590 671 670
469 10 8 mech
599 600 681 680 590 591 672 671
470 10 8 mech
600 601 682 681 591 592 673 672
471 10 8 mech
601 602 683 682 592 593 674 673
472 10 8 mech
602 603 684 683 593 594 675 674
473 10 8 mech
604 605 686 685 595 596 677 676
474 10 8 mech
605 606 687 686 596 597 678 677
475 10 8 mech
606 607 688 687 597 598 679 678
476 10 8 mech
607 608 689 688 598 599 680 679
477 10 8 mech
608 609 690 689 599 600 681 680
478 10 8 mech
609 610 691 690 600 601 682 681
479 10 8 mech
610 611 692 691 601 602 683 682
480 10 8 mech
611 612 693 692 602 603 684 683
481 10 8 mech
613 614 695 694 604 605 686 685
482 10 8 mech
614 615 696 695 605 606 687 686
483 10 8 mech
615 616 697 696 606 607 688 687
484 10 8 mech
616 617 698 697 607 608 689 688
485 10 8 mech
617 618 699 698 608 609 690 689
486 10 8 mech
618 619 700 699 609 610 691 690
487 10 8 mech
619 620 701 700 610 611 692 691
488 10 8 mech
620 621 702 701 611 612 693 692
489 10 8 mech
622 623 704 703 613 614 695 694
490 10 8 mech
623 624 705 704 614 615 696 695
491 10 8 mech
624 625 706 705 615 616 697 696
492 10 8 mech
625 626 707 706 616 617 698 697
493 10 8 mech
626 627 708 707 617 618 699 698
494 10 8 mech
627 628 709 708 618 619 700 699
495 10 8 mech
628 629 710 709 619 620 701 700
496 10 8 mech
629 630 711 710 620 621 702 701
497 10 8 mech
631 632 713 712 622 623 704 703
498 10 8 mech
632 633 714 713 623 624 705 704
499 10 8 mech
633 634 715 714 624 625 706 705
500 10 8 mech
634 635 716 715 625 626 707 706
501 10 8 mech
635 636 717 716 626 627 708 707
502 10 8 mech
636 637 718 717 627 628 709 708
503 10 8 mech
637 638 719 718 628 629 710 709
504 10 8 mech
638 639 720 719 629 630 711 710
505 10 8 mech
640 641 722 721 631 632 713 712
506 10 8 mech
641 642 723 722 632 633 714 713
507 10 8 mech
642 643 724 723 633 634 715 714
508 10 8 mech
643 644 725 724 634 635 716 715
509 10 8 mech
644 645 726 725 635 636 717 716
510 10 8 mech
645 646 727 726 636 637 718 717
511 10 8 mech
646 647 728 727 637 638 719 718
512 10 8 mech
647 648 729 728 638 639 720 719

[Node BC]
#NodeNr Level
1 left
10 left
19 left
28 left
37 left
46 left
55 left
64 left
73 left
82 left
91 left
100 left
109 left
118 left
127 left
136 left
145 left
154 left
163 left
172 left
181 left
190 left
199 left
208 left
217 left
226 left
235 left
244 left
253 left
262 left
271 left
280 left
289 left
298 left
307 left
316 left
325 left
334 left
343 left
352 left
361 left
370 left
379 left
388 left
397 left
406 left
415 left
424 left
433 left
442 left
451 left
460 left
469 left
478 left
487 left
496 left
505 left
514 left
523 left
532 left
541 left
550 left
559 left
568 left
577 left
586 left
595 left
604 left
613 left
622 left
631 left
640 left
649 left
658 left
667 left
676 left
685 left
694 left
703 left
712 left
721 left
9 right
18 right
27 right
36 right
45 right
54 right
63 right
72 right
81 right
90 right
99 right
108 right
117 right
126 right
135 right
144 right
153 right
162 right
171 right
180 right
189 right
198 right
207 right
216 right
225 right
234 right
243 right
252 right
261 right
270 right
279 right
288 right
297 right
306 right
315 right
324 right
333 right
342 right
351 right
360 right
369 right
378 right
387 right
396 right
405 right
414 right
423 right
432 right
441 right
450 right
459 right
468 right
477 right
486 right
495 right
504 right
513 right
522 right
531 right
540 right
549 right
558 right
567 right
576 right
585 right
594 right
603 right
612 right
621 right
630 right
639 right
648 right
657 right
666 right
675 right
684 right
693 right
702 right
711 right
720 right
729 right
1 bottom
2 bottom
3 bottom
4 bottom
5 bottom
6 bottom
7 bottom
8 bottom
9 bottom
82 bottom
83 bottom
84 bottom
85 bottom
86 bottom
87 bottom
88 bottom
89 bottom
90 bottom
163 bottom
164 bottom
165 bottom
166 bottom
167 bottom
168 bottom
169 bottom
170 bottom
171 bottom
244 bottom
245 bottom
246 bottom
247 bottom
248 bottom
249 bottom
250 bottom
251 bottom
252 bottom
325 bottom
326 bottom
327 bottom
328 bottom
329 bottom
330 bottom
331 bottom
332 bottom
333 bottom
406 bottom
407 bottom
408 bottom
409 bottom
410 bottom
411 bottom
412 bottom
413 bottom
414 bottom
487 bottom
488 bottom
489 bottom
490 bottom
491 bottom
492 bottom
493 bottom
494 bottom
495 bottom
568 bottom
569 bottom
570 bottom
571 bottom
572 bottom
573 bottom
574 bottom
575 bottom
576 bottom
649 bottom
650 bottom
651 bottom
652 bottom
653 bottom
654 bottom
655 bottom
656 bottom
657 bottom
73 top
74 top
75 top
76 top
77 top
78 top
79 top
80 top
81 top
154 top
155 top
156 top
157 top
158 top
159 top
160 top
161 top
162 top
235 top
236 top
237 top
238 top
239 top
240 top
241 top
242 top
243 top
316 top
317 top
318 top
319 top
320 top
321 top
322 top
323 top
324 top
397 top
398 top
399 top
400 top
401 top
402 top
403 top
404 top
405 top
478 top
479 top
480 top
481 top
482 top
483 top
484 top
485 top
486 top
559 top
560 top
561 top
562 top
563 top
564 top
565 top
566 top
567 top
640 top
641 top
642 top
643 top
644 top
645 top
646 top
647 top
648 top
721 top
722 top
723 top
724 top
725 top
726 top
727 top
728 top
729 top
1 back
2 back
3 back
4 back
5 back
6 back
7 back
8 back
9 back
10 back
11 back
12 back
13 back
14 back
15 back
16 back
17 back
18 back
19 back
20 back
21 back
22 back
23 back
24 back
25 back
26 back
27 back
28 back
29 back
30 back
31 back
32 back
33 back
34 back
35 back
36 back
37 back
38 back
39 back
40 back
41 back
42 back
43 back
44 back
45 back
46 back
47 back
48 back
49 back
50 back
51 back
52 back
53 back
54 back
55 back
56 back
57 back
58 back
59 back
60 back
61 back
62 back
63 back
64 back
65 back
66 back
67 back
68 back
69 back
70 back
71 back
72 back
73 back
74 back
75 back
76 back
77 back
78 back
79 back
80 back
81 back
649 front
650 front
651 front
652 front
653 front
654 front
655 front
656 front
657 front
658 front
659 front
660 front
661 front
662 front
663 front
664 front
665 front
666 front
667 front
668 front
669 front
670 front
671 front
672 front
673 front
674 front
675 front
676 front
677 front
678 front
679 front
680 front
681 front
682 front
683 front
684 front
685 front
686 front
687 front
688 front
689 front
690 front
691 front
692 front
693 front
694 front
695 front
696 front
697 front
698 front
699 front
700 front
701 front
702 front
703 front
704 front
705 front
706 front
707 front
708 front
709 front
710 front
711 front
712 front
713 front
714 front
715 front
716 front
717 front
718 front
719 front
720 front
721 front
722 front
723 front
724 front
725 front
726 front
727 front
728 front
729 front
1 left_bottom_back
9 right_bottom_back
73 left_top_back
81 right_top_back
649 left_bottom_front
657 right_bottom_front
721 left_top_front
729 right_top_front

[Save Nodes]
#NodeNr Level

[Save Elements]
#ElemNr Level


