0.000000000000000000e+00 0.000000000000000000e+00
3.333333333333333547e-03 2.804587271537303250e-01
6.666666666666667095e-03 -1.224388117530642028e-01
1.000000000000000021e-02 -1.077836037248992351e+00
1.333333333333333419e-02 -1.678274058024516791e+00
1.666666666666666644e-02 -1.118764456100301619e+00
2.000000000000000042e-02 4.524135262330092888e-01
2.333333333333333440e-02 1.973261743600840612e+00
2.666666666666666838e-02 2.387381099053559996e+00
3.000000000000000236e-02 1.562666616782150797e+00
3.333333333333333287e-02 3.290568564833397658e-01
3.666666666666666685e-02 -3.750389084710036847e-01
4.000000000000000083e-02 -3.852566213878947932e-01
4.333333333333333481e-02 -3.526155909615070194e-01
4.666666666666666879e-02 -9.329030436296426032e-01
5.000000000000000278e-02 -1.975528258147577931e+00
5.333333333333333676e-02 -2.563328468473194732e+00
5.666666666666667074e-02 -1.892721178406109983e+00
